Testes/ProjetoPlacarDigitalTeste01/simulation/qsim/Placar.msim.vcd
$comment
	File created using the following command:
		vcd file Placar.msim.vcd -direction
$end
$date
	Sun May 22 22:56:37 2022
$end
$version
	ModelSim Version 10.5b
$end
$timescale
	1ps
$end

$scope module placarTimes_vlg_vec_tst $end
$var reg 1 ! chaveNP $end
$var reg 1 " chaveTime $end
$var reg 1 # clock $end
$var reg 1 $ clr $end
$var reg 1 % pr $end
$var reg 2 & somaBTNs [1:0] $end
$var wire 1 ' somaTime1 [6] $end
$var wire 1 ( somaTime1 [5] $end
$var wire 1 ) somaTime1 [4] $end
$var wire 1 * somaTime1 [3] $end
$var wire 1 + somaTime1 [2] $end
$var wire 1 , somaTime1 [1] $end
$var wire 1 - somaTime1 [0] $end
$var wire 1 . somaTime2 [6] $end
$var wire 1 / somaTime2 [5] $end
$var wire 1 0 somaTime2 [4] $end
$var wire 1 1 somaTime2 [3] $end
$var wire 1 2 somaTime2 [2] $end
$var wire 1 3 somaTime2 [1] $end
$var wire 1 4 somaTime2 [0] $end

$scope module i1 $end
$var wire 1 5 gnd $end
$var wire 1 6 vcc $end
$var wire 1 7 unknown $end
$var tri1 1 8 devclrn $end
$var tri1 1 9 devpor $end
$var tri1 1 : devoe $end
$var wire 1 ; clock~combout $end
$var wire 1 < chaveTime~combout $end
$var wire 1 = clr~combout $end
$var wire 1 > pr~combout $end
$var wire 1 ? time01|time01|ffdRe01|Q~1_combout $end
$var wire 1 @ time01|time01|ffdR01|Q~regout $end
$var wire 1 A time01|time01|ffdR02|Q~regout $end
$var wire 1 B time01|time01|ffdR03|Q~regout $end
$var wire 1 C time01|time01|ffdRe01|Q~regout $end
$var wire 1 D chaveNP~combout $end
$var wire 1 E time01|somadorT1|r1|And1~combout $end
$var wire 1 F time01|somadorT1|r1|And0~combout $end
$var wire 1 G time01|somadorT1|xor1~combout $end
$var wire 1 H time01|time01|ffdRe02|Q~regout $end
$var wire 1 I time01|somadorT1|r2|Or0~0_combout $end
$var wire 1 J time01|time01|ffdRe03|Q~regout $end
$var wire 1 K time01|time01|ffdRe04|Q~regout $end
$var wire 1 L time01|somadorT1|r4|Or0~0_combout $end
$var wire 1 M time01|time01|ffdRe05|Q~regout $end
$var wire 1 N time01|somadorT1|r6|Xor1~0_combout $end
$var wire 1 O time01|time01|ffdRe06|Q~regout $end
$var wire 1 P time01|somadorT1|r6|Or0~0_combout $end
$var wire 1 Q time01|time01|ffdRe07|Q~regout $end
$var wire 1 R time02|time01|ffdR01|Q~regout $end
$var wire 1 S time02|time01|ffdR02|Q~regout $end
$var wire 1 T time02|time01|ffdR03|Q~regout $end
$var wire 1 U time02|time01|ffdRe01|Q~regout $end
$var wire 1 V time02|somadorT1|r1|And0~combout $end
$var wire 1 W time02|somadorT1|r1|And1~combout $end
$var wire 1 X time02|somadorT1|xor1~combout $end
$var wire 1 Y time02|time01|ffdRe02|Q~regout $end
$var wire 1 Z time02|somadorT1|r2|Or0~0_combout $end
$var wire 1 [ time02|time01|ffdRe03|Q~regout $end
$var wire 1 \ time02|time01|ffdRe04|Q~regout $end
$var wire 1 ] time02|somadorT1|r4|Or0~0_combout $end
$var wire 1 ^ time02|time01|ffdRe05|Q~regout $end
$var wire 1 _ time02|somadorT1|r6|Xor1~0_combout $end
$var wire 1 ` time02|time01|ffdRe06|Q~regout $end
$var wire 1 a time02|somadorT1|r6|Or0~0_combout $end
$var wire 1 b time02|time01|ffdRe07|Q~regout $end
$var wire 1 c somaBTNs~combout [1] $end
$var wire 1 d somaBTNs~combout [0] $end
$upscope $end
$upscope $end
$enddefinitions $end
#0
$dumpvars
0!
0"
0#
0$
0%
b1 &
0-
0,
0+
0*
0)
0(
0'
04
03
02
01
00
0/
0.
05
16
x7
18
19
1:
0;
0<
0=
0>
0?
0@
0A
0B
0C
0D
0E
0F
0G
0H
0I
0J
0K
0L
0M
0N
0O
0P
0Q
0R
0S
0T
0U
0V
0W
0X
0Y
0Z
0[
0\
0]
0^
0_
0`
0a
0b
1d
0c
$end
#5000
1#
1;
1@
#10000
b0 &
0#
0d
0;
#15000
1#
1;
1A
0@
#20000
b1 &
0#
1d
0;
#25000
1#
1;
1B
0A
1@
1C
1F
1-
#30000
b0 &
0#
0d
0;
0F
#35000
1#
1;
0B
1A
0@
#40000
b1 &
0#
1d
0;
1F
#45000
1#
1;
1B
0A
1@
1H
0C
1I
0F
1,
0-
0I
#50000
b0 &
0#
0d
0;
#55000
1#
1;
0B
1A
0@
#60000
b1 &
0#
1d
0;
#65000
1#
1;
1B
0A
1@
1C
1F
1-
1I
#70000
b0 &
0#
0d
0;
0F
0I
#75000
1#
1;
0B
1A
0@
#80000
b1 &
0#
1d
0;
1F
1I
#85000
1#
1;
1B
0A
1@
1J
0H
0C
0I
0F
1+
0,
0-
#90000
b0 &
0#
0d
0;
#95000
1#
1;
0B
1A
0@
#100000
b1 &
0#
1d
0;
#105000
1#
1;
1B
0A
1@
1C
1F
1-
#110000
b0 &
0#
0d
0;
0F
#115000
1#
1;
0B
1A
0@
#120000
b1 &
0#
1d
0;
1F
#125000
1#
1;
1B
0A
1@
1H
0C
1I
0F
1,
0-
0I
#130000
b0 &
0#
0d
0;
#135000
1#
1;
0B
1A
0@
#140000
b1 &
0#
1d
0;
#145000
1#
1;
1B
0A
1@
1C
1F
1-
1I
#150000
b0 &
0#
0d
0;
0F
0I
#155000
1#
1;
0B
1A
0@
#160000
b1 &
0#
1d
0;
1F
1I
#165000
1#
1;
1B
0A
1@
1K
0J
0H
0C
0I
0F
1*
0+
0,
0-
#170000
b0 &
0#
0d
0;
#175000
1#
1;
0B
1A
0@
#180000
b1 &
0#
1d
0;
#185000
1#
1;
1B
0A
1@
1C
1F
1-
#190000
b0 &
0#
0d
0;
0F
#195000
1#
1;
0B
1A
0@
#200000
b1 &
0#
1d
0;
1F
#205000
1#
1;
1B
0A
1@
1H
0C
1I
0F
1,
0-
0I
#210000
b0 &
0#
0d
0;
#215000
1#
1;
0B
1A
0@
#220000
b1 &
0#
1d
0;
#225000
1#
1;
1B
0A
1@
1C
1F
1-
1I
#230000
b0 &
0#
0d
0;
0F
0I
#235000
1#
1;
0B
1A
0@
#240000
b1 &
0#
1d
0;
1F
1I
#245000
1#
1;
1B
0A
1@
1J
0H
0C
1L
0I
0F
1+
0,
0-
0L
#250000
b0 &
0#
0d
0;
#255000
1#
1;
0B
1A
0@
#260000
b1 &
0#
1d
0;
#265000
1#
1;
1B
0A
1@
1C
1F
1-
#270000
b0 &
0#
0d
0;
0F
#275000
1#
1;
0B
1A
0@
#280000
b1 &
0#
1d
0;
1F
#285000
1#
1;
1B
0A
1@
1H
0C
1I
0F
1,
0-
1L
0I
0L
#290000
b0 &
0#
0d
0;
#295000
1#
1;
0B
1A
0@
#300000
b1 &
0#
1d
0;
#305000
1#
1;
1B
0A
1@
1C
1F
1-
1I
1L
#310000
b0 &
0#
0d
0;
0F
0I
0L
#315000
1#
1;
0B
1A
0@
#320000
1"
b1 &
0#
1<
1d
0;
#325000
1#
1;
1R
1B
0A
#330000
b0 &
0#
0d
0;
#335000
1#
1;
1S
0R
0B
#340000
b1 &
0#
1d
0;
#345000
1#
1;
1T
0S
1R
1U
1V
14
#350000
b0 &
0#
0d
0;
0V
#355000
1#
1;
0T
1S
0R
#360000
b1 &
0#
1d
0;
1V
#365000
1#
1;
1T
0S
1R
1Y
0U
1Z
0V
13
04
0Z
#370000
b0 &
0#
0d
0;
#375000
1#
1;
0T
1S
0R
#380000
b1 &
0#
1d
0;
#385000
1#
1;
1T
0S
1R
1U
1V
14
1Z
#390000
b0 &
0#
0d
0;
0V
0Z
#395000
1#
1;
0T
1S
0R
#400000
b1 &
0#
1d
0;
1V
1Z
#405000
1#
1;
1T
0S
1R
1[
0Y
0U
0Z
0V
12
03
04
#410000
b0 &
0#
0d
0;
#415000
1#
1;
0T
1S
0R
#420000
b1 &
0#
1d
0;
#425000
1#
1;
1T
0S
1R
1U
1V
14
#430000
b0 &
0#
0d
0;
0V
#435000
1#
1;
0T
1S
0R
#440000
b1 &
0#
1d
0;
1V
#445000
1#
1;
1T
0S
1R
1Y
0U
1Z
0V
13
04
0Z
#450000
b0 &
0#
0d
0;
#455000
1#
1;
0T
1S
0R
#460000
b1 &
0#
1d
0;
#465000
1#
1;
1T
0S
1R
1U
1V
14
1Z
#470000
b0 &
0#
0d
0;
0V
0Z
#475000
1#
1;
0T
1S
0R
#480000
b1 &
0#
1d
0;
1V
1Z
#485000
1#
1;
1T
0S
1R
1\
0[
0Y
0U
0Z
0V
11
02
03
04
#490000
b0 &
0#
0d
0;
#495000
1#
1;
0T
1S
0R
#500000
b1 &
0#
1d
0;
#505000
1#
1;
1T
0S
1R
1U
1V
14
#510000
b0 &
0#
0d
0;
0V
#515000
1#
1;
0T
1S
0R
#520000
b1 &
0#
1d
0;
1V
#525000
1#
1;
1T
0S
1R
1Y
0U
1Z
0V
13
04
0Z
#530000
b0 &
0#
0d
0;
#535000
1#
1;
0T
1S
0R
#540000
b1 &
0#
1d
0;
#545000
1#
1;
1T
0S
1R
1U
1V
14
1Z
#550000
b0 &
0#
0d
0;
0V
0Z
#555000
1#
1;
0T
1S
0R
#560000
b1 &
0#
1d
0;
1V
1Z
#565000
1#
1;
1T
0S
1R
1[
0Y
0U
1]
0Z
0V
12
03
04
0]
#570000
b0 &
0#
0d
0;
#575000
1#
1;
0T
1S
0R
#580000
b1 &
0#
1d
0;
#585000
1#
1;
1T
0S
1R
1U
1V
14
#590000
b0 &
0#
0d
0;
0V
#595000
1#
1;
0T
1S
0R
#600000
b1 &
0#
1d
0;
1V
#605000
1#
1;
1T
0S
1R
1Y
0U
1Z
0V
13
04
1]
0Z
0]
#610000
b0 &
0#
0d
0;
#615000
1#
1;
0T
1S
0R
#620000
b1 &
0#
1d
0;
#625000
1#
1;
1T
0S
1R
1U
1V
14
1Z
1]
#630000
b0 &
0#
0d
0;
0V
0Z
0]
#635000
1#
1;
0T
1S
0R
#640000
b1 &
0#
1d
0;
1V
1Z
1]
#645000
1#
1;
1T
0S
1R
1^
0\
0[
0Y
0U
0]
0Z
0V
10
01
02
03
04
#650000
b0 &
0#
0d
0;
#655000
1#
1;
0T
1S
0R
#660000
b1 &
0#
1d
0;
#665000
1#
1;
1T
0S
1R
1U
1V
14
#670000
b0 &
0#
0d
0;
0V
#675000
1#
1;
0T
1S
0R
#680000
b1 &
0#
1d
0;
1V
#685000
1#
1;
1T
0S
1R
1Y
0U
1Z
0V
13
04
0Z
#690000
b0 &
0#
0d
0;
#695000
1#
1;
0T
1S
0R
#700000
b1 &
0#
1d
0;
#705000
1#
1;
1T
0S
1R
1U
1V
14
1Z
#710000
0"
b0 &
0#
0<
0d
0;
0V
0Z
#715000
1#
1;
0T
1S
0R
#720000
b1 &
0#
1d
0;
1F
1I
1L
#725000
1#
1;
1T
0S
1@
#730000
b0 &
0#
0d
0;
0F
0I
0L
#735000
1#
1;
0T
1A
0@
#740000
b1 &
0#
1d
0;
1F
1I
1L
#745000
1#
1;
1B
0A
1@
1M
0K
0J
0H
0C
0L
0I
0F
1)
0*
0+
0,
0-
#750000
b0 &
0#
0d
0;
#755000
1#
1;
0B
1A
0@
#760000
b1 &
0#
1d
0;
#765000
1#
1;
1B
0A
1@
1C
1F
1-
#770000
b0 &
0#
0d
0;
0F
#775000
1#
1;
0B
1A
0@
#780000
b1 &
0#
1d
0;
1F
#785000
1#
1;
1B
0A
1@
1H
0C
1I
0F
1,
0-
0I
#790000
b0 &
0#
0d
0;
#795000
1#
1;
0B
1A
0@
#800000
b1 &
0#
1d
0;
#805000
1#
1;
1B
0A
1@
1C
1F
1-
1I
#810000
b0 &
0#
0d
0;
0F
0I
#815000
1#
1;
0B
1A
0@
#820000
b1 &
0#
1d
0;
1F
1I
#825000
1#
1;
1B
0A
1@
1J
0H
0C
0I
0F
1+
0,
0-
#830000
b0 &
0#
0d
0;
#835000
1#
1;
0B
1A
0@
#840000
b1 &
0#
1d
0;
#845000
1#
1;
1B
0A
1@
1C
1F
1-
#850000
b0 &
0#
0d
0;
0F
#855000
1#
1;
0B
1A
0@
#860000
b1 &
0#
1d
0;
1F
#865000
1#
1;
1B
0A
1@
1H
0C
1I
0F
1,
0-
0I
#870000
b0 &
0#
0d
0;
#875000
1#
1;
0B
1A
0@
#880000
b1 &
0#
1d
0;
#885000
1#
1;
1B
0A
1@
1C
1F
1-
1I
#890000
b0 &
0#
0d
0;
0F
0I
#895000
1#
1;
0B
1A
0@
#900000
b1 &
0#
1d
0;
1F
1I
#905000
1#
1;
1B
0A
1@
1K
0J
0H
0C
0I
0F
1*
0+
0,
0-
#910000
b0 &
0#
0d
0;
#915000
1#
1;
0B
1A
0@
#920000
b1 &
0#
1d
0;
#925000
1#
1;
1B
0A
1@
1C
1F
1-
#930000
b0 &
0#
0d
0;
0F
#935000
1#
1;
0B
1A
0@
#940000
b1 &
0#
1d
0;
1F
#945000
1#
1;
1B
0A
1@
1H
0C
1I
0F
1,
0-
0I
#950000
b0 &
0#
0d
0;
#955000
1#
1;
0B
1A
0@
#960000
b1 &
0#
1d
0;
#965000
1#
1;
1B
0A
1@
1C
1F
1-
1I
#970000
b0 &
0#
0d
0;
0F
0I
#975000
1#
1;
0B
1A
0@
#980000
b1 &
0#
1d
0;
1F
1I
#985000
1#
1;
1B
0A
1@
1J
0H
0C
1N
1L
0I
0F
1+
0,
0-
0L
#990000
b0 &
0#
0d
0;
#995000
1#
1;
0B
1A
0@
