simulation/qsim/Placar.msim.vcd
$comment
	File created using the following command:
		vcd file Placar.msim.vcd -direction
$end
$date
	Wed Apr 13 11:13:33 2022
$end
$version
	ModelSim Version 10.5b
$end
$timescale
	1ps
$end

$scope module decod7segs_vhd_vec_tst $end
$var wire 1 ! BCD [3] $end
$var wire 1 " BCD [2] $end
$var wire 1 # BCD [1] $end
$var wire 1 $ BCD [0] $end
$var wire 1 % n7Segs [6] $end
$var wire 1 & n7Segs [5] $end
$var wire 1 ' n7Segs [4] $end
$var wire 1 ( n7Segs [3] $end
$var wire 1 ) n7Segs [2] $end
$var wire 1 * n7Segs [1] $end
$var wire 1 + n7Segs [0] $end

$scope module i1 $end
$var wire 1 , gnd $end
$var wire 1 - vcc $end
$var wire 1 . unknown $end
$var wire 1 / devoe $end
$var wire 1 0 devclrn $end
$var wire 1 1 devpor $end
$var wire 1 2 ww_devoe $end
$var wire 1 3 ww_devclrn $end
$var wire 1 4 ww_devpor $end
$var wire 1 5 ww_BCD [3] $end
$var wire 1 6 ww_BCD [2] $end
$var wire 1 7 ww_BCD [1] $end
$var wire 1 8 ww_BCD [0] $end
$var wire 1 9 ww_n7Segs [6] $end
$var wire 1 : ww_n7Segs [5] $end
$var wire 1 ; ww_n7Segs [4] $end
$var wire 1 < ww_n7Segs [3] $end
$var wire 1 = ww_n7Segs [2] $end
$var wire 1 > ww_n7Segs [1] $end
$var wire 1 ? ww_n7Segs [0] $end
$var wire 1 @ \ors00~0_combout\ $end
$var wire 1 A \ors01~0_combout\ $end
$var wire 1 B \ors02~0_combout\ $end
$var wire 1 C \ors03~0_combout\ $end
$var wire 1 D \ors04~combout\ $end
$var wire 1 E \ors05~0_combout\ $end
$var wire 1 F \ors06~0_combout\ $end
$var wire 1 G \BCD~combout\ [3] $end
$var wire 1 H \BCD~combout\ [2] $end
$var wire 1 I \BCD~combout\ [1] $end
$var wire 1 J \BCD~combout\ [0] $end
$var wire 1 K \ALT_INV_ors01~0_combout\ $end
$var wire 1 L \ALT_INV_ors00~0_combout\ $end
$var wire 1 M \ALT_INV_ors03~0_combout\ $end
$var wire 1 N \ALT_INV_ors02~0_combout\ $end
$var wire 1 O \ALT_INV_ors05~0_combout\ $end
$var wire 1 P \ALT_INV_ors04~combout\ $end
$var wire 1 Q \ALT_INV_ors06~0_combout\ $end
$upscope $end
$upscope $end
$enddefinitions $end
#0
$dumpvars
0,
1-
x.
1/
10
11
12
13
14
0@
0A
0B
0C
0D
0E
1F
1K
1L
1M
1N
1O
1P
0Q
0!
0"
0#
0$
0%
1&
1'
1(
1)
1*
1+
05
06
07
08
09
1:
1;
1<
1=
1>
1?
0G
0H
0I
0J
$end
#5000
1$
18
1J
1A
1B
0F
1Q
0N
0K
0>
0=
19
0*
0)
1%
#10000
0$
1#
08
17
1I
0J
1@
0B
1C
1D
1F
0Q
0P
0M
1N
0L
0?
1=
0<
0;
09
0+
1)
0(
0'
0%
#15000
1$
18
1J
1B
0D
1P
0N
0=
1;
0)
1'
#20000
0$
0#
1"
08
07
16
1H
0I
0J
0@
0C
1E
0O
1M
1L
1?
1<
0:
1+
1(
0&
#25000
1$
18
1J
1@
0A
1C
1D
0E
1O
0P
0M
1K
0L
0?
1>
0<
0;
1:
0+
1*
0(
0'
1&
#30000
0$
1#
08
17
1I
0J
1E
0O
0:
0&
#35000
1$
18
1J
1A
0C
0D
0E
0F
1Q
1O
1P
1M
0K
0>
1<
1;
1:
19
0*
1(
1'
1&
1%
#40000
0$
0#
0"
1!
08
07
06
15
1G
0H
0I
0J
1C
1D
1E
1F
0Q
0O
0P
0M
0<
0;
0:
09
0(
0'
0&
0%
#45000
1$
18
1J
0D
1P
1;
1'
