simulation/qsim/Placar.msim.vcd
$comment
	File created using the following command:
		vcd file placar.msim.vcd -direction
$end
$date
	Mon Apr 11 20:52:02 2022
$end
$version
	ModelSim Version 10.5b
$end
$timescale
	1ps
$end

$scope module btnsEntrada_vlg_vec_tst $end
$var reg 1 ! A $end
$var reg 1 " B $end
$var reg 1 # C $end
$var wire 1 $ N [1] $end
$var wire 1 % N [0] $end

$scope module i1 $end
$var wire 1 & gnd $end
$var wire 1 ' vcc $end
$var wire 1 ( unknown $end
$var tri1 1 ) devclrn $end
$var tri1 1 * devpor $end
$var tri1 1 + devoe $end
$var wire 1 , B~combout $end
$var wire 1 - A~combout $end
$var wire 1 . C~combout $end
$var wire 1 / And0~combout $end
$var wire 1 0 And1~combout $end
$upscope $end
$upscope $end
$enddefinitions $end
#0
$dumpvars
0!
0"
0#
0%
0$
0&
1'
x(
1)
1*
1+
0,
0-
0.
0/
00
$end
#10000
1#
1.
10
1$
#20000
1"
0#
1,
0.
00
1/
0$
1%
#30000
1#
1.
0/
0%
#40000
1!
0"
0#
1-
0,
0.
10
1/
1$
1%
#50000
1#
1.
00
0/
0$
0%
#60000
1"
0#
1,
0.
#70000
1#
1.
#80000
0!
0"
0#
0-
0,
0.
#90000
1#
1.
10
1$
#100000
1"
0#
1,
0.
00
1/
0$
1%
#110000
1#
1.
0/
0%
#120000
1!
0"
0#
1-
0,
0.
10
1/
1$
1%
#130000
1#
1.
00
0/
0$
0%
#140000
1"
0#
1,
0.
#150000
1#
1.
#160000
0!
0"
0#
0-
0,
0.
#170000
1#
1.
10
1$
