simulation/qsim/Placar.msim.vcd
$comment
	File created using the following command:
		vcd file placar.msim.vcd -direction
$end
$date
	Mon Apr 11 20:38:13 2022
$end
$version
	ModelSim Version 10.5b
$end
$timescale
	1ps
$end

$scope module mux8pra4_vlg_vec_tst $end
$var reg 8 ! N [7:0] $end
$var reg 1 " escolha $end
$var wire 1 # S [3] $end
$var wire 1 $ S [2] $end
$var wire 1 % S [1] $end
$var wire 1 & S [0] $end

$scope module i1 $end
$var wire 1 ' gnd $end
$var wire 1 ( vcc $end
$var wire 1 ) unknown $end
$var tri1 1 * devclrn $end
$var tri1 1 + devpor $end
$var tri1 1 , devoe $end
$var wire 1 - escolha~combout $end
$var wire 1 . ors00~0_combout $end
$var wire 1 / ors10~0_combout $end
$var wire 1 0 ors20~0_combout $end
$var wire 1 1 ors30~0_combout $end
$var wire 1 2 N~combout [7] $end
$var wire 1 3 N~combout [6] $end
$var wire 1 4 N~combout [5] $end
$var wire 1 5 N~combout [4] $end
$var wire 1 6 N~combout [3] $end
$var wire 1 7 N~combout [2] $end
$var wire 1 8 N~combout [1] $end
$var wire 1 9 N~combout [0] $end
$upscope $end
$upscope $end
$enddefinitions $end
#0
$dumpvars
b0 !
0"
0&
0%
0$
0#
0'
1(
x)
1*
1+
1,
0-
0.
0/
00
01
09
08
07
06
05
04
03
02
$end
#10000
1"
1-
#20000
b1 !
0"
19
0-
1.
1&
#30000
1"
1-
0.
0&
#40000
b11 !
b10 !
0"
09
18
0-
1/
1%
#50000
1"
1-
0/
0%
#60000
b11 !
0"
19
0-
1.
1/
1&
1%
#70000
1"
1-
0/
0.
0%
0&
#80000
b111 !
b101 !
b100 !
0"
09
08
17
0-
10
1$
#90000
1"
1-
00
0$
#100000
b101 !
0"
19
0-
1.
10
1&
1$
#110000
1"
1-
00
0.
0$
0&
#120000
b111 !
b110 !
0"
09
18
0-
1/
10
1%
1$
#130000
1"
1-
00
0/
0$
0%
#140000
b111 !
0"
19
0-
1.
10
1/
1&
1$
1%
#150000
1"
1-
00
0/
0.
0$
0%
0&
#160000
b1111 !
b1011 !
b1001 !
b1000 !
0"
09
08
07
16
0-
11
1#
#170000
1"
1-
01
0#
#180000
b1001 !
0"
19
0-
1.
11
1&
1#
#190000
1"
1-
01
0.
0#
0&
#200000
b1011 !
b1010 !
0"
09
18
0-
1/
11
1%
1#
#210000
1"
1-
01
0/
0#
0%
#220000
b1011 !
0"
19
0-
1.
11
1/
1&
1#
1%
#230000
1"
1-
01
0/
0.
0#
0%
0&
#240000
b1111 !
b1101 !
b1100 !
0"
09
08
17
0-
10
11
1$
1#
#250000
1"
1-
01
00
0#
0$
#260000
b1101 !
0"
19
0-
1.
11
10
1&
1#
1$
#270000
1"
1-
01
00
0.
0#
0$
0&
#280000
b1111 !
b1110 !
0"
09
18
0-
1/
11
10
1%
1#
1$
#290000
1"
1-
01
00
0/
0#
0$
0%
#300000
b1111 !
0"
19
0-
1.
11
10
1/
1&
1#
1$
1%
#310000
1"
1-
01
00
0/
0.
0#
0$
0%
0&
#320000
b11111 !
b10111 !
b10011 !
b10001 !
b10000 !
0"
09
08
07
06
15
0-
#330000
1"
1-
1.
1&
#340000
b10001 !
0"
19
0-
#350000
1"
1-
#360000
b10011 !
b10010 !
0"
09
18
0-
0.
1/
0&
1%
#370000
1"
1-
0/
1.
0%
1&
#380000
b10011 !
0"
19
0-
1/
1%
#390000
1"
1-
0/
0%
#400000
b10111 !
b10101 !
b10100 !
0"
09
08
17
0-
0.
10
0&
1$
#410000
1"
1-
00
1.
0$
1&
#420000
b10101 !
0"
19
0-
10
1$
#430000
1"
1-
00
0$
#440000
b10111 !
b10110 !
0"
09
18
0-
0.
1/
10
0&
1%
1$
#450000
1"
1-
00
0/
1.
0$
0%
1&
#460000
b10111 !
0"
19
0-
10
1/
1$
1%
#470000
1"
1-
00
0/
0$
0%
#480000
b11111 !
b11011 !
b11001 !
b11000 !
0"
09
08
07
16
0-
0.
11
0&
1#
#490000
1"
1-
01
1.
0#
1&
#500000
b11001 !
0"
19
0-
11
1#
#510000
1"
1-
01
0#
#520000
b11011 !
b11010 !
0"
09
18
0-
0.
1/
11
0&
1%
1#
#530000
1"
1-
01
0/
1.
0#
0%
1&
#540000
b11011 !
0"
19
0-
11
1/
1#
1%
#550000
1"
1-
01
0/
0#
0%
#560000
b11111 !
b11101 !
b11100 !
0"
09
08
17
0-
0.
10
11
0&
1$
1#
#570000
1"
1-
01
00
1.
0#
0$
1&
#580000
b11101 !
0"
19
0-
11
10
1#
1$
#590000
1"
1-
01
00
0#
0$
#600000
b11111 !
b11110 !
0"
09
18
0-
0.
1/
11
10
0&
1%
1#
1$
#610000
1"
1-
01
00
0/
1.
0#
0$
0%
1&
#620000
b11111 !
0"
19
0-
11
10
1/
1#
1$
1%
#630000
1"
1-
01
00
0/
0#
0$
0%
#640000
b111111 !
b101111 !
b100111 !
b100011 !
b100001 !
b100000 !
0"
09
08
07
06
05
14
0-
0.
0&
#650000
1"
1-
1/
1%
#660000
b100001 !
0"
19
0-
1.
0/
1&
0%
#670000
1"
1-
1/
0.
1%
0&
#680000
b100011 !
b100010 !
0"
09
18
0-
#690000
1"
1-
#700000
b100011 !
0"
19
0-
1.
1&
#710000
1"
1-
0.
0&
#720000
b100111 !
b100101 !
b100100 !
0"
09
08
17
0-
0/
10
0%
1$
#730000
1"
1-
00
1/
0$
1%
#740000
b100101 !
0"
19
0-
1.
10
0/
1&
1$
0%
#750000
1"
1-
00
1/
0.
0$
1%
0&
#760000
b100111 !
b100110 !
0"
09
18
0-
10
1$
#770000
1"
1-
00
0$
#780000
b100111 !
0"
19
0-
1.
10
1&
1$
#790000
1"
1-
00
0.
0$
0&
#800000
b101111 !
b101011 !
b101001 !
b101000 !
0"
09
08
07
16
0-
0/
11
0%
1#
#810000
1"
1-
01
1/
0#
1%
#820000
b101001 !
0"
19
0-
1.
11
0/
1&
1#
0%
#830000
1"
1-
01
1/
0.
0#
1%
0&
#840000
b101011 !
b101010 !
0"
09
18
0-
11
1#
#850000
1"
1-
01
0#
#860000
b101011 !
0"
19
0-
1.
11
1&
1#
#870000
1"
1-
01
0.
0#
0&
#880000
b101111 !
b101101 !
b101100 !
0"
09
08
17
0-
0/
10
11
0%
1$
1#
#890000
1"
1-
01
00
1/
0#
0$
1%
#900000
b101101 !
0"
19
0-
1.
11
10
0/
1&
1#
1$
0%
#910000
1"
1-
01
00
1/
0.
0#
0$
1%
0&
#920000
b101111 !
b101110 !
0"
09
18
0-
11
10
1#
1$
#930000
1"
1-
01
00
0#
0$
#940000
b101111 !
0"
19
0-
1.
11
10
1&
1#
1$
#950000
1"
1-
01
00
0.
0#
0$
0&
#960000
b111111 !
b110111 !
b110011 !
b110001 !
b110000 !
0"
09
08
07
06
15
0-
0/
0%
#970000
1"
1-
1/
1.
1%
1&
#980000
b110001 !
0"
19
0-
0/
0%
#990000
1"
1-
1/
1%
#1000000
b110011 !
b110010 !
0"
09
18
0-
0.
0&
#1010000
1"
1-
1.
1&
#1020000
b110011 !
0"
19
0-
#1030000
1"
1-
#1040000
b110111 !
b110101 !
b110100 !
0"
09
08
17
0-
0.
0/
10
0&
0%
1$
#1050000
1"
1-
00
1/
1.
0$
1%
1&
#1060000
b110101 !
0"
19
0-
10
0/
1$
0%
#1070000
1"
1-
00
1/
0$
1%
#1080000
b110111 !
b110110 !
0"
09
18
0-
0.
10
0&
1$
#1090000
1"
1-
00
1.
0$
1&
#1100000
b110111 !
0"
19
0-
10
1$
#1110000
1"
1-
00
0$
#1120000
b111111 !
b111011 !
b111001 !
b111000 !
0"
09
08
07
16
0-
0.
0/
11
0&
0%
1#
#1130000
1"
1-
01
1/
1.
0#
1%
1&
#1140000
b111001 !
0"
19
0-
11
0/
1#
0%
#1150000
1"
1-
01
1/
0#
1%
#1160000
b111011 !
b111010 !
0"
09
18
0-
0.
11
0&
1#
#1170000
1"
1-
01
1.
0#
1&
#1180000
b111011 !
0"
19
0-
11
1#
#1190000
1"
1-
01
0#
#1200000
b111111 !
b111101 !
b111100 !
0"
09
08
17
0-
0.
0/
10
11
0&
0%
1$
1#
#1210000
1"
1-
01
00
1/
1.
0#
0$
1%
1&
#1220000
b111101 !
0"
19
0-
11
10
0/
1#
1$
0%
#1230000
1"
1-
01
00
1/
0#
0$
1%
#1240000
b111111 !
b111110 !
0"
09
18
0-
0.
11
10
0&
1#
1$
#1250000
1"
1-
01
00
1.
0#
0$
1&
#1260000
b111111 !
0"
19
0-
11
10
1#
1$
#1270000
1"
1-
01
00
0#
0$
#1280000
b1111111 !
b1011111 !
b1001111 !
b1000111 !
b1000011 !
b1000001 !
b1000000 !
0"
09
08
07
06
05
04
13
0-
0.
0/
0&
0%
#1290000
1"
1-
10
1$
#1300000
b1000001 !
0"
19
0-
1.
00
1&
0$
#1310000
1"
1-
10
0.
1$
0&
#1320000
b1000011 !
b1000010 !
0"
09
18
0-
1/
00
1%
0$
#1330000
1"
1-
10
0/
1$
0%
#1340000
b1000011 !
0"
19
0-
1.
00
1/
1&
0$
1%
#1350000
1"
1-
10
0/
0.
1$
0%
0&
#1360000
b1000111 !
b1000101 !
b1000100 !
0"
09
08
17
0-
#1370000
1"
1-
#1380000
b1000101 !
0"
19
0-
1.
1&
#1390000
1"
1-
0.
0&
#1400000
b1000111 !
b1000110 !
0"
09
18
0-
1/
1%
#1410000
1"
1-
0/
0%
#1420000
b1000111 !
0"
19
0-
1.
1/
1&
1%
#1430000
1"
1-
0/
0.
0%
0&
#1440000
b1001111 !
b1001011 !
b1001001 !
b1001000 !
0"
09
08
07
16
0-
00
11
0$
1#
#1450000
1"
1-
01
10
0#
1$
#1460000
b1001001 !
0"
19
0-
1.
11
00
1&
1#
0$
#1470000
1"
1-
01
10
0.
0#
1$
0&
#1480000
b1001011 !
b1001010 !
0"
09
18
0-
1/
11
00
1%
1#
0$
#1490000
1"
1-
01
10
0/
0#
1$
0%
#1500000
b1001011 !
0"
19
0-
1.
11
00
1/
1&
1#
0$
1%
#1510000
1"
1-
01
10
0/
0.
0#
1$
0%
0&
#1520000
b1001111 !
b1001101 !
b1001100 !
0"
09
08
17
0-
11
1#
#1530000
1"
1-
01
0#
#1540000
b1001101 !
0"
19
0-
1.
11
1&
1#
#1550000
1"
1-
01
0.
0#
0&
#1560000
b1001111 !
b1001110 !
0"
09
18
0-
1/
11
1%
1#
#1570000
1"
1-
01
0/
0#
0%
#1580000
b1001111 !
0"
19
0-
1.
11
1/
1&
1#
1%
#1590000
1"
1-
01
0/
0.
0#
0%
0&
#1600000
b1011111 !
b1010111 !
b1010011 !
b1010001 !
b1010000 !
0"
09
08
07
06
15
0-
00
0$
#1610000
1"
1-
10
1.
1$
1&
#1620000
b1010001 !
0"
19
0-
00
0$
#1630000
1"
1-
10
1$
#1640000
b1010011 !
b1010010 !
0"
09
18
0-
0.
1/
00
0&
1%
0$
#1650000
1"
1-
10
0/
1.
1$
0%
1&
#1660000
b1010011 !
0"
19
0-
00
1/
0$
1%
#1670000
1"
1-
10
0/
1$
0%
#1680000
b1010111 !
b1010101 !
b1010100 !
0"
09
08
17
0-
0.
0&
#1690000
1"
1-
1.
1&
#1700000
b1010101 !
0"
19
0-
#1710000
1"
1-
#1720000
b1010111 !
b1010110 !
0"
09
18
0-
0.
1/
0&
1%
#1730000
1"
1-
0/
1.
0%
1&
#1740000
b1010111 !
0"
19
0-
1/
1%
#1750000
1"
1-
0/
0%
#1760000
b1011111 !
b1011011 !
b1011001 !
b1011000 !
0"
09
08
07
16
0-
0.
00
11
0&
0$
1#
#1770000
1"
1-
01
10
1.
0#
1$
1&
#1780000
b1011001 !
0"
19
0-
11
00
1#
0$
#1790000
1"
1-
01
10
0#
1$
#1800000
b1011011 !
b1011010 !
0"
09
18
0-
0.
1/
11
00
0&
1%
1#
0$
#1810000
1"
1-
01
10
0/
1.
0#
1$
0%
1&
#1820000
b1011011 !
0"
19
0-
11
00
1/
1#
0$
1%
#1830000
1"
1-
01
10
0/
0#
1$
0%
#1840000
b1011111 !
b1011101 !
b1011100 !
0"
09
08
17
0-
0.
11
0&
1#
#1850000
1"
1-
01
1.
0#
1&
#1860000
b1011101 !
0"
19
0-
11
1#
#1870000
1"
1-
01
0#
#1880000
b1011111 !
b1011110 !
0"
09
18
0-
0.
1/
11
0&
1%
1#
#1890000
1"
1-
01
0/
1.
0#
0%
1&
#1900000
b1011111 !
0"
19
0-
11
1/
1#
1%
#1910000
1"
1-
01
0/
0#
0%
#1920000
b1111111 !
b1101111 !
b1100111 !
b1100011 !
b1100001 !
b1100000 !
0"
09
08
07
06
05
14
0-
0.
00
0&
0$
#1930000
1"
1-
10
1/
1$
1%
#1940000
b1100001 !
0"
19
0-
1.
00
0/
1&
0$
0%
#1950000
1"
1-
10
1/
0.
1$
1%
0&
#1960000
b1100011 !
b1100010 !
0"
09
18
0-
00
0$
#1970000
1"
1-
10
1$
#1980000
b1100011 !
0"
19
0-
1.
00
1&
0$
#1990000
1"
1-
10
0.
1$
0&
#2000000
b1100111 !
b1100101 !
b1100100 !
0"
09
08
17
0-
0/
0%
#2010000
1"
1-
1/
1%
#2020000
b1100101 !
0"
19
0-
1.
0/
1&
0%
#2030000
1"
1-
1/
0.
1%
0&
#2040000
b1100111 !
b1100110 !
0"
09
18
0-
#2050000
1"
1-
#2060000
b1100111 !
0"
19
0-
1.
1&
#2070000
1"
1-
0.
0&
#2080000
b1101111 !
b1101011 !
b1101001 !
b1101000 !
0"
09
08
07
16
0-
0/
00
11
0%
0$
1#
#2090000
1"
1-
01
10
1/
0#
1$
1%
#2100000
b1101001 !
0"
19
0-
1.
11
00
0/
1&
1#
0$
0%
#2110000
1"
1-
01
10
1/
0.
0#
1$
1%
0&
#2120000
b1101011 !
b1101010 !
0"
09
18
0-
11
00
1#
0$
#2130000
1"
1-
01
10
0#
1$
#2140000
b1101011 !
0"
19
0-
1.
11
00
1&
1#
0$
#2150000
1"
1-
01
10
0.
0#
1$
0&
#2160000
b1101111 !
b1101101 !
b1101100 !
0"
09
08
17
0-
0/
11
0%
1#
#2170000
1"
1-
01
1/
0#
1%
#2180000
b1101101 !
0"
19
0-
1.
11
0/
1&
1#
0%
#2190000
1"
1-
01
1/
0.
0#
1%
0&
#2200000
b1101111 !
b1101110 !
0"
09
18
0-
11
1#
#2210000
1"
1-
01
0#
#2220000
b1101111 !
0"
19
0-
1.
11
1&
1#
#2230000
1"
1-
01
0.
0#
0&
#2240000
b1111111 !
b1110111 !
b1110011 !
b1110001 !
b1110000 !
0"
09
08
07
06
15
0-
0/
00
0%
0$
#2250000
1"
1-
10
1/
1.
1$
1%
1&
#2260000
b1110001 !
0"
19
0-
00
0/
0$
0%
#2270000
1"
1-
10
1/
1$
1%
#2280000
b1110011 !
b1110010 !
0"
09
18
0-
0.
00
0&
0$
#2290000
1"
1-
10
1.
1$
1&
#2300000
b1110011 !
0"
19
0-
00
0$
#2310000
1"
1-
10
1$
#2320000
b1110111 !
b1110101 !
b1110100 !
0"
09
08
17
0-
0.
0/
0&
0%
#2330000
1"
1-
1/
1.
1%
1&
#2340000
b1110101 !
0"
19
0-
0/
0%
#2350000
1"
1-
1/
1%
#2360000
b1110111 !
b1110110 !
0"
09
18
0-
0.
0&
#2370000
1"
1-
1.
1&
#2380000
b1110111 !
0"
19
0-
#2390000
1"
1-
#2400000
b1111111 !
b1111011 !
b1111001 !
b1111000 !
0"
09
08
07
16
0-
0.
0/
00
11
0&
0%
0$
1#
#2410000
1"
1-
01
10
1/
1.
0#
1$
1%
1&
#2420000
b1111001 !
0"
19
0-
11
00
0/
1#
0$
0%
#2430000
1"
1-
01
10
1/
0#
1$
1%
#2440000
b1111011 !
b1111010 !
0"
09
18
0-
0.
11
00
0&
1#
0$
#2450000
1"
1-
01
10
1.
0#
1$
1&
#2460000
b1111011 !
0"
19
0-
11
00
1#
0$
#2470000
1"
1-
01
10
0#
1$
#2480000
b1111111 !
b1111101 !
b1111100 !
0"
09
08
17
0-
0.
0/
11
0&
0%
1#
#2490000
1"
1-
01
1/
1.
0#
1%
1&
#2500000
b1111101 !
0"
19
0-
11
0/
1#
0%
#2510000
1"
1-
01
1/
0#
1%
#2520000
b1111111 !
b1111110 !
0"
09
18
0-
0.
11
0&
1#
#2530000
1"
1-
01
1.
0#
1&
#2540000
b1111111 !
0"
19
0-
11
1#
#2550000
1"
1-
01
0#
#2560000
b11111111 !
b10111111 !
b10011111 !
b10001111 !
b10000111 !
b10000011 !
b10000001 !
b10000000 !
0"
09
08
07
06
05
04
03
12
0-
0.
0/
00
0&
0%
0$
#2570000
1"
1-
11
1#
#2580000
b10000001 !
0"
19
0-
1.
01
1&
0#
#2590000
1"
1-
11
0.
1#
0&
#2600000
b10000011 !
b10000010 !
0"
09
18
0-
1/
01
1%
0#
#2610000
1"
1-
11
0/
1#
0%
#2620000
b10000011 !
0"
19
0-
1.
01
1/
1&
0#
1%
#2630000
1"
1-
11
0/
0.
1#
0%
0&
#2640000
b10000111 !
b10000101 !
b10000100 !
0"
09
08
17
0-
10
01
1$
0#
#2650000
1"
1-
11
00
1#
0$
#2660000
b10000101 !
0"
19
0-
1.
01
10
1&
0#
1$
#2670000
1"
1-
11
00
0.
1#
0$
0&
#2680000
b10000111 !
b10000110 !
0"
09
18
0-
1/
01
10
1%
0#
1$
#2690000
1"
1-
11
00
0/
1#
0$
0%
#2700000
b10000111 !
0"
19
0-
1.
01
10
1/
1&
0#
1$
1%
#2710000
1"
1-
11
00
0/
0.
1#
0$
0%
0&
#2720000
b10001111 !
b10001011 !
b10001001 !
b10001000 !
0"
09
08
07
16
0-
#2730000
1"
1-
#2740000
b10001001 !
0"
19
0-
1.
1&
#2750000
1"
1-
0.
0&
#2760000
b10001011 !
b10001010 !
0"
09
18
0-
1/
1%
#2770000
1"
1-
0/
0%
#2780000
b10001011 !
0"
19
0-
1.
1/
1&
1%
#2790000
1"
1-
0/
0.
0%
0&
#2800000
b10001111 !
b10001101 !
b10001100 !
0"
09
08
17
0-
10
1$
#2810000
1"
1-
00
0$
#2820000
b10001101 !
0"
19
0-
1.
10
1&
1$
#2830000
1"
1-
00
0.
0$
0&
#2840000
b10001111 !
b10001110 !
0"
09
18
0-
1/
10
1%
1$
#2850000
1"
1-
00
0/
0$
0%
#2860000
b10001111 !
0"
19
0-
1.
10
1/
1&
1$
1%
#2870000
1"
1-
00
0/
0.
0$
0%
0&
#2880000
b10011111 !
b10010111 !
b10010011 !
b10010001 !
b10010000 !
0"
09
08
07
06
15
0-
01
0#
#2890000
1"
1-
11
1.
1#
1&
#2900000
b10010001 !
0"
19
0-
01
0#
#2910000
1"
1-
11
1#
#2920000
b10010011 !
b10010010 !
0"
09
18
0-
0.
1/
01
0&
1%
0#
#2930000
1"
1-
11
0/
1.
1#
0%
1&
#2940000
b10010011 !
0"
19
0-
01
1/
0#
1%
#2950000
1"
1-
11
0/
1#
0%
#2960000
b10010111 !
b10010101 !
b10010100 !
0"
09
08
17
0-
0.
10
01
0&
1$
0#
#2970000
1"
1-
11
00
1.
1#
0$
1&
#2980000
b10010101 !
0"
19
0-
01
10
0#
1$
#2990000
1"
1-
11
00
1#
0$
#3000000
b10010111 !
b10010110 !
0"
09
18
0-
0.
1/
01
10
0&
1%
0#
1$
#3010000
1"
1-
11
00
0/
1.
1#
0$
0%
1&
#3020000
b10010111 !
0"
19
0-
01
10
1/
0#
1$
1%
#3030000
1"
1-
11
00
0/
1#
0$
0%
#3040000
b10011111 !
b10011011 !
b10011001 !
b10011000 !
0"
09
08
07
16
0-
0.
0&
#3050000
1"
1-
1.
1&
#3060000
b10011001 !
0"
19
0-
#3070000
1"
1-
#3080000
b10011011 !
b10011010 !
0"
09
18
0-
0.
1/
0&
1%
#3090000
1"
1-
0/
1.
0%
1&
#3100000
b10011011 !
0"
19
0-
1/
1%
#3110000
1"
1-
0/
0%
#3120000
b10011111 !
b10011101 !
b10011100 !
0"
09
08
17
0-
0.
10
0&
1$
#3130000
1"
1-
00
1.
0$
1&
#3140000
b10011101 !
0"
19
0-
10
1$
#3150000
1"
1-
00
0$
#3160000
b10011111 !
b10011110 !
0"
09
18
0-
0.
1/
10
0&
1%
1$
#3170000
1"
1-
00
0/
1.
0$
0%
1&
#3180000
b10011111 !
0"
19
0-
10
1/
1$
1%
#3190000
1"
1-
00
0/
0$
0%
#3200000
b10111111 !
b10101111 !
b10100111 !
b10100011 !
b10100001 !
b10100000 !
0"
09
08
07
06
05
14
0-
0.
01
0&
0#
#3210000
1"
1-
11
1/
1#
1%
#3220000
b10100001 !
0"
19
0-
1.
01
0/
1&
0#
0%
#3230000
1"
1-
11
1/
0.
1#
1%
0&
#3240000
b10100011 !
b10100010 !
0"
09
18
0-
01
0#
#3250000
1"
1-
11
1#
#3260000
b10100011 !
0"
19
0-
1.
01
1&
0#
#3270000
1"
1-
11
0.
1#
0&
#3280000
b10100111 !
b10100101 !
b10100100 !
0"
09
08
17
0-
0/
10
01
0%
1$
0#
#3290000
1"
1-
11
00
1/
1#
0$
1%
#3300000
b10100101 !
0"
19
0-
1.
01
10
0/
1&
0#
1$
0%
#3310000
1"
1-
11
00
1/
0.
1#
0$
1%
0&
#3320000
b10100111 !
b10100110 !
0"
09
18
0-
01
10
0#
1$
#3330000
1"
1-
11
00
1#
0$
#3340000
b10100111 !
0"
19
0-
1.
01
10
1&
0#
1$
#3350000
1"
1-
11
00
0.
1#
0$
0&
#3360000
b10101111 !
b10101011 !
b10101001 !
b10101000 !
0"
09
08
07
16
0-
0/
0%
#3370000
1"
1-
1/
1%
#3380000
b10101001 !
0"
19
0-
1.
0/
1&
0%
#3390000
1"
1-
1/
0.
1%
0&
#3400000
b10101011 !
b10101010 !
0"
09
18
0-
#3410000
1"
1-
#3420000
b10101011 !
0"
19
0-
1.
1&
#3430000
1"
1-
0.
0&
#3440000
b10101111 !
b10101101 !
b10101100 !
0"
09
08
17
0-
0/
10
0%
1$
#3450000
1"
1-
00
1/
0$
1%
#3460000
b10101101 !
0"
19
0-
1.
10
0/
1&
1$
0%
#3470000
1"
1-
00
1/
0.
0$
1%
0&
#3480000
b10101111 !
b10101110 !
0"
09
18
0-
10
1$
#3490000
1"
1-
00
0$
#3500000
b10101111 !
0"
19
0-
1.
10
1&
1$
#3510000
1"
1-
00
0.
0$
0&
#3520000
b10111111 !
b10110111 !
b10110011 !
b10110001 !
b10110000 !
0"
09
08
07
06
15
0-
0/
01
0%
0#
#3530000
1"
1-
11
1/
1.
1#
1%
1&
#3540000
b10110001 !
0"
19
0-
01
0/
0#
0%
#3550000
1"
1-
11
1/
1#
1%
#3560000
b10110011 !
b10110010 !
0"
09
18
0-
0.
01
0&
0#
#3570000
1"
1-
11
1.
1#
1&
#3580000
b10110011 !
0"
19
0-
01
0#
#3590000
1"
1-
11
1#
#3600000
b10110111 !
b10110101 !
b10110100 !
0"
09
08
17
0-
0.
0/
10
01
0&
0%
1$
0#
#3610000
1"
1-
11
00
1/
1.
1#
0$
1%
1&
#3620000
b10110101 !
0"
19
0-
01
10
0/
0#
1$
0%
#3630000
1"
1-
11
00
1/
1#
0$
1%
#3640000
b10110111 !
b10110110 !
0"
09
18
0-
0.
01
10
0&
0#
1$
#3650000
1"
1-
11
00
1.
1#
0$
1&
#3660000
b10110111 !
0"
19
0-
01
10
0#
1$
#3670000
1"
1-
11
00
1#
0$
#3680000
b10111111 !
b10111011 !
b10111001 !
b10111000 !
0"
09
08
07
16
0-
0.
0/
0&
0%
#3690000
1"
1-
1/
1.
1%
1&
#3700000
b10111001 !
0"
19
0-
0/
0%
#3710000
1"
1-
1/
1%
#3720000
b10111011 !
b10111010 !
0"
09
18
0-
0.
0&
#3730000
1"
1-
1.
1&
#3740000
b10111011 !
0"
19
0-
#3750000
1"
1-
#3760000
b10111111 !
b10111101 !
b10111100 !
0"
09
08
17
0-
0.
0/
10
0&
0%
1$
#3770000
1"
1-
00
1/
1.
0$
1%
1&
#3780000
b10111101 !
0"
19
0-
10
0/
1$
0%
#3790000
1"
1-
00
1/
0$
1%
#3800000
b10111111 !
b10111110 !
0"
09
18
0-
0.
10
0&
1$
#3810000
1"
1-
00
1.
0$
1&
#3820000
b10111111 !
0"
19
0-
10
1$
#3830000
1"
1-
00
0$
#3840000
b11111111 !
b11011111 !
b11001111 !
b11000111 !
b11000011 !
b11000001 !
b11000000 !
0"
09
08
07
06
05
04
13
0-
0.
0/
01
0&
0%
0#
#3850000
1"
1-
11
10
1#
1$
#3860000
b11000001 !
0"
19
0-
1.
01
00
1&
0#
0$
#3870000
1"
1-
11
10
0.
1#
1$
0&
#3880000
b11000011 !
b11000010 !
0"
09
18
0-
1/
01
00
1%
0#
0$
#3890000
1"
1-
11
10
0/
1#
1$
0%
#3900000
b11000011 !
0"
19
0-
1.
01
00
1/
1&
0#
0$
1%
#3910000
1"
1-
11
10
0/
0.
1#
1$
0%
0&
#3920000
b11000111 !
b11000101 !
b11000100 !
0"
09
08
17
0-
01
0#
#3930000
1"
1-
11
1#
#3940000
b11000101 !
0"
19
0-
1.
01
1&
0#
#3950000
1"
1-
11
0.
1#
0&
#3960000
b11000111 !
b11000110 !
0"
09
18
0-
1/
01
1%
0#
#3970000
1"
1-
11
0/
1#
0%
#3980000
b11000111 !
0"
19
0-
1.
01
1/
1&
0#
1%
#3990000
1"
1-
11
0/
0.
1#
0%
0&
#4000000
b11001111 !
b11001011 !
b11001001 !
b11001000 !
0"
09
08
07
16
0-
00
0$
#4010000
1"
1-
10
1$
#4020000
b11001001 !
0"
19
0-
1.
00
1&
0$
#4030000
1"
1-
10
0.
1$
0&
#4040000
b11001011 !
b11001010 !
0"
09
18
0-
1/
00
1%
0$
#4050000
1"
1-
10
0/
1$
0%
#4060000
b11001011 !
0"
19
0-
1.
00
1/
1&
0$
1%
#4070000
1"
1-
10
0/
0.
1$
0%
0&
#4080000
b11001111 !
b11001101 !
b11001100 !
0"
09
08
17
0-
#4090000
1"
1-
#4100000
b11001101 !
0"
19
0-
1.
1&
#4110000
1"
1-
0.
0&
#4120000
b11001111 !
b11001110 !
0"
09
18
0-
1/
1%
#4130000
1"
1-
0/
0%
#4140000
b11001111 !
0"
19
0-
1.
1/
1&
1%
#4150000
1"
1-
0/
0.
0%
0&
#4160000
b11011111 !
b11010111 !
b11010011 !
b11010001 !
b11010000 !
0"
09
08
07
06
15
0-
00
01
0$
0#
#4170000
1"
1-
11
10
1.
1#
1$
1&
#4180000
b11010001 !
0"
19
0-
01
00
0#
0$
#4190000
1"
1-
11
10
1#
1$
#4200000
b11010011 !
b11010010 !
0"
09
18
0-
0.
1/
01
00
0&
1%
0#
0$
#4210000
1"
1-
11
10
0/
1.
1#
1$
0%
1&
#4220000
b11010011 !
0"
19
0-
01
00
1/
0#
0$
1%
#4230000
1"
1-
11
10
0/
1#
1$
0%
#4240000
b11010111 !
b11010101 !
b11010100 !
0"
09
08
17
0-
0.
01
0&
0#
#4250000
1"
1-
11
1.
1#
1&
#4260000
b11010101 !
0"
19
0-
01
0#
#4270000
1"
1-
11
1#
#4280000
b11010111 !
b11010110 !
0"
09
18
0-
0.
1/
01
0&
1%
0#
#4290000
1"
1-
11
0/
1.
1#
0%
1&
#4300000
b11010111 !
0"
19
0-
01
1/
0#
1%
#4310000
1"
1-
11
0/
1#
0%
#4320000
b11011111 !
b11011011 !
b11011001 !
b11011000 !
0"
09
08
07
16
0-
0.
00
0&
0$
#4330000
1"
1-
10
1.
1$
1&
#4340000
b11011001 !
0"
19
0-
00
0$
#4350000
1"
1-
10
1$
#4360000
b11011011 !
b11011010 !
0"
09
18
0-
0.
1/
00
0&
1%
0$
#4370000
1"
1-
10
0/
1.
1$
0%
1&
#4380000
b11011011 !
0"
19
0-
00
1/
0$
1%
#4390000
1"
1-
10
0/
1$
0%
#4400000
b11011111 !
b11011101 !
b11011100 !
0"
09
08
17
0-
0.
0&
#4410000
1"
1-
1.
1&
#4420000
b11011101 !
0"
19
0-
#4430000
1"
1-
#4440000
b11011111 !
b11011110 !
0"
09
18
0-
0.
1/
0&
1%
#4450000
1"
1-
0/
1.
0%
1&
#4460000
b11011111 !
0"
19
0-
1/
1%
#4470000
1"
1-
0/
0%
#4480000
b11111111 !
b11101111 !
b11100111 !
b11100011 !
b11100001 !
b11100000 !
0"
09
08
07
06
05
14
0-
0.
00
01
0&
0$
0#
#4490000
1"
1-
11
10
1/
1#
1$
1%
#4500000
b11100001 !
0"
19
0-
1.
01
00
0/
1&
0#
0$
0%
#4510000
1"
1-
11
10
1/
0.
1#
1$
1%
0&
#4520000
b11100011 !
b11100010 !
0"
09
18
0-
01
00
0#
0$
#4530000
1"
1-
11
10
1#
1$
#4540000
b11100011 !
0"
19
0-
1.
01
00
1&
0#
0$
#4550000
1"
1-
11
10
0.
1#
1$
0&
#4560000
b11100111 !
b11100101 !
b11100100 !
0"
09
08
17
0-
0/
01
0%
0#
#4570000
1"
1-
11
1/
1#
1%
#4580000
b11100101 !
0"
19
0-
1.
01
0/
1&
0#
0%
#4590000
1"
1-
11
1/
0.
1#
1%
0&
#4600000
b11100111 !
b11100110 !
0"
09
18
0-
01
0#
#4610000
1"
1-
11
1#
#4620000
b11100111 !
0"
19
0-
1.
01
1&
0#
#4630000
1"
1-
11
0.
1#
0&
#4640000
b11101111 !
b11101011 !
b11101001 !
b11101000 !
0"
09
08
07
16
0-
0/
00
0%
0$
#4650000
1"
1-
10
1/
1$
1%
#4660000
b11101001 !
0"
19
0-
1.
00
0/
1&
0$
0%
#4670000
1"
1-
10
1/
0.
1$
1%
0&
#4680000
b11101011 !
b11101010 !
0"
09
18
0-
00
0$
#4690000
1"
1-
10
1$
#4700000
b11101011 !
0"
19
0-
1.
00
1&
0$
