simulation/qsim/Placar.msim.vcd
$comment
	File created using the following command:
		vcd file Placar.msim.vcd -direction
$end
$date
	Wed Apr 13 02:28:16 2022
$end
$version
	ModelSim Version 10.5b
$end
$timescale
	1ps
$end

$scope module main_vlg_vec_tst $end
$var reg 3 ! cBotoes [2:0] $end
$var reg 1 " chaveNP $end
$var reg 1 # chaveTime $end
$var reg 1 $ clock $end
$var reg 7 % nSimulacao [6:0] $end
$var wire 1 & buzzer $end
$var wire 1 ' display [6] $end
$var wire 1 ( display [5] $end
$var wire 1 ) display [4] $end
$var wire 1 * display [3] $end
$var wire 1 + display [2] $end
$var wire 1 , display [1] $end
$var wire 1 - display [0] $end
$var wire 1 . escolhaDisplay [3] $end
$var wire 1 / escolhaDisplay [2] $end
$var wire 1 0 escolhaDisplay [1] $end
$var wire 1 1 escolhaDisplay [0] $end
$var wire 1 2 led $end

$scope module i1 $end
$var wire 1 3 gnd $end
$var wire 1 4 vcc $end
$var wire 1 5 unknown $end
$var tri1 1 6 devclrn $end
$var tri1 1 7 devpor $end
$var tri1 1 8 devoe $end
$var wire 1 9 chaveNP~combout $end
$var wire 1 : somaBotoes|Xor0~0_combout $end
$var wire 1 ; somador|r1|And0~combout $end
$var wire 1 < somador|xor1~combout $end
$var wire 1 = somador|r1|And1~combout $end
$var wire 1 > somador|r2|Or0~0_combout $end
$var wire 1 ? somador|r4|Or0~0_combout $end
$var wire 1 @ somador|r5|Xor1~0_combout $end
$var wire 1 A somador|r6|Or0~0_combout $end
$var wire 1 B bin_bcd|orP1~1_combout $end
$var wire 1 C somador|r4|Xor1~combout $end
$var wire 1 D somador|r3|Xor1~0_combout $end
$var wire 1 E somador|r2|Xor1~combout $end
$var wire 1 F bin_bcd|orP1~0_combout $end
$var wire 1 G somador|r3|Or0~0_combout $end
$var wire 1 H somador|r5|Or0~0_combout $end
$var wire 1 I somador|r6|Xor1~combout $end
$var wire 1 J bin_bcd|orP1~2_combout $end
$var wire 1 K comparar|and6~0_combout $end
$var wire 1 L somaBotoes|Xor1~0_combout $end
$var wire 1 M comparar|Or2~0_combout $end
$var wire 1 N comparar|and6~combout $end
$var wire 1 O digitoMostrarDisplay|ors10~15_combout $end
$var wire 1 P somador|r7|Xor1~0_combout $end
$var wire 1 Q digitoMostrarDisplay|ors10~16_combout $end
$var wire 1 R digitoMostrarDisplay|ors10~8_combout $end
$var wire 1 S digitoMostrarDisplay|ors10~14_combout $end
$var wire 1 T digitoMostrarDisplay|ors10~19_combout $end
$var wire 1 U digitoMostrarDisplay|ors10~11_combout $end
$var wire 1 V digitoMostrarDisplay|ors10~12_combout $end
$var wire 1 W digitoMostrarDisplay|ors10~13_combout $end
$var wire 1 X digitoMostrarDisplay|ors10~17_combout $end
$var wire 1 Y clock~combout $end
$var wire 1 Z somador|r2|Xor1~0_combout $end
$var wire 1 [ digitoMostrarDisplay|ors10~7_combout $end
$var wire 1 \ digitoMostrarDisplay|ors00~3_combout $end
$var wire 1 ] digitoMostrarDisplay|ors10~9_combout $end
$var wire 1 ^ somador|r4|Xor1~0_combout $end
$var wire 1 _ digitoMostrarDisplay|ors00~1_combout $end
$var wire 1 ` digitoMostrarDisplay|ors10~10_combout $end
$var wire 1 a digitoMostrarDisplay|ors00~6_combout $end
$var wire 1 b digitoMostrarDisplay|ors10~5_combout $end
$var wire 1 c digitoMostrarDisplay|ors10~6_combout $end
$var wire 1 d digitoMostrarDisplay|ors10~18_combout $end
$var wire 1 e digitoMostrarDisplay|ors20~0_combout $end
$var wire 1 f digitoMostrarDisplay|ors20~1_combout $end
$var wire 1 g digitoMostrarDisplay|ors20~2_combout $end
$var wire 1 h digitoMostrarDisplay|ors00~10_combout $end
$var wire 1 i digitoMostrarDisplay|ors20~8_combout $end
$var wire 1 j digitoMostrarDisplay|ors20~9_combout $end
$var wire 1 k digitoMostrarDisplay|ors20~3_combout $end
$var wire 1 l digitoMostrarDisplay|ors20~4_combout $end
$var wire 1 m digitoMostrarDisplay|ors20~5_combout $end
$var wire 1 n digitoMostrarDisplay|ors20~6_combout $end
$var wire 1 o digitoMostrarDisplay|ors20~7_combout $end
$var wire 1 p digitoMostrarDisplay|ors20~10_combout $end
$var wire 1 q digitoMostrarDisplay|ors30~6_combout $end
$var wire 1 r digitoMostrarDisplay|ors30~7_combout $end
$var wire 1 s digitoMostrarDisplay|ors30~4_combout $end
$var wire 1 t digitoMostrarDisplay|ors30~5_combout $end
$var wire 1 u digitoMostrarDisplay|ors30~8_combout $end
$var wire 1 v digitoMostrarDisplay|ors30~9_combout $end
$var wire 1 w digitoMostrarDisplay|ors30~1_combout $end
$var wire 1 x digitoMostrarDisplay|ors30~2_combout $end
$var wire 1 y digitoMostrarDisplay|ors30~0_combout $end
$var wire 1 z digitoMostrarDisplay|ors30~3_combout $end
$var wire 1 { digitoMostrarDisplay|ors30~10_combout $end
$var wire 1 | digitoMostrarDisplay|ors10~4_combout $end
$var wire 1 } digitoMostrarDisplay|ors00~12_combout $end
$var wire 1 ~ bin_bcd|orP1~3_combout $end
$var wire 1 !! digitoMostrarDisplay|ors00~13_combout $end
$var wire 1 "! digitoMostrarDisplay|ors00~9_combout $end
$var wire 1 #! digitoMostrarDisplay|ors00~8_combout $end
$var wire 1 $! digitoMostrarDisplay|ors00~11_combout $end
$var wire 1 %! digitoMostrarDisplay|ors00~0_combout $end
$var wire 1 &! digitoMostrarDisplay|ors00~2_combout $end
$var wire 1 '! digitoMostrarDisplay|ors00~4_combout $end
$var wire 1 (! digitoMostrarDisplay|ors00~5_combout $end
$var wire 1 )! digitoMostrarDisplay|ors00~7_combout $end
$var wire 1 *! digitoMostrarDisplay|ors00~14_combout $end
$var wire 1 +! decodificador7segs|ors00~0_combout $end
$var wire 1 ,! decodificador7segs|ors01~0_combout $end
$var wire 1 -! decodificador7segs|ors02~0_combout $end
$var wire 1 .! decodificador7segs|ors03~0_combout $end
$var wire 1 /! decodificador7segs|ors04~combout $end
$var wire 1 0! decodificador7segs|ors05~0_combout $end
$var wire 1 1! decodificador7segs|ors06~0_combout $end
$var wire 1 2! chaveTime~combout $end
$var wire 1 3! escolherDisplay|saida[0]~0_combout $end
$var wire 1 4! escolherDisplay|saida[1]~1_combout $end
$var wire 1 5! escolherDisplay|saida[2]~2_combout $end
$var wire 1 6! escolherDisplay|saida[3]~3_combout $end
$var wire 1 7! nSimulacao~combout [6] $end
$var wire 1 8! nSimulacao~combout [5] $end
$var wire 1 9! nSimulacao~combout [4] $end
$var wire 1 :! nSimulacao~combout [3] $end
$var wire 1 ;! nSimulacao~combout [2] $end
$var wire 1 <! nSimulacao~combout [1] $end
$var wire 1 =! nSimulacao~combout [0] $end
$var wire 1 >! cBotoes~combout [2] $end
$var wire 1 ?! cBotoes~combout [1] $end
$var wire 1 @! cBotoes~combout [0] $end
$upscope $end
$upscope $end
$enddefinitions $end
#0
$dumpvars
b0 !
0"
0#
0$
b0 %
0&
1-
1,
1+
1*
1)
1(
0'
11
10
1/
0.
02
03
14
x5
16
17
18
09
0:
0;
0<
0=
0>
0?
0@
0A
0B
0C
0D
0E
0F
0G
0H
0I
0J
1K
0L
0M
0N
0O
0P
0Q
1R
0S
0T
0U
0V
0W
0X
0Y
0Z
0[
0\
0]
0^
1_
0`
0a
0b
0c
0d
0e
0f
0g
1h
0i
0j
0k
1l
1m
0n
0o
0p
0q
0r
0s
0t
0u
0v
0w
0x
0y
0z
0{
0|
0}
0~
0!!
0"!
0#!
0$!
0%!
0&!
0'!
0(!
0)!
0*!
0+!
0,!
0-!
0.!
0/!
00!
11!
02!
13!
14!
15!
06!
0=!
0<!
0;!
0:!
09!
08!
07!
0@!
0?!
0>!
$end
#1000
b1 !
1@!
#2000
b11 !
b10 !
0@!
1?!
#3000
b11 !
1@!
1L
1<
1:
1[
1M
1E
1%!
1`
1|
1x
0l
0h
1f
1V
0R
1&!
1d
1(!
1/!
1.!
1,!
1+!
1)!
1*!
0-
0,
0*
0)
0/!
1-!
0+
1)
#4000
b111 !
b101 !
b100 !
0@!
0?!
1>!
0L
0<
0:
0[
0M
0E
0%!
0`
0|
0x
1l
1h
0f
0V
1R
0&!
0d
0(!
01!
0.!
0+!
0)!
0*!
1-
1*
1'
11!
0-!
0,!
1,
1+
0'
#5000
1$
b101 !
1Y
1@!
16!
05!
1L
1<
1[
1M
1E
1.
0/
1`
1|
1x
0l
0h
1f
1V
0R
#6000
b111 !
b110 !
0@!
1?!
0L
0<
1:
0[
0E
0`
0|
0x
1l
1h
0f
0V
1R
#7000
b111 !
1@!
0:
0M
#8000
b1 %
b11 !
b1 !
b0 !
0@!
0?!
0>!
1=!
#9000
b1 !
1@!
#10000
0$
b11 !
b10 !
0Y
0@!
1?!
06!
15!
1%!
1&!
0.
1/
1(!
1)!
1*!
01!
1-!
1,!
0,
0+
1'
#11000
b11 !
1@!
1L
1<
1:
1[
1M
1E
0%!
1Z
1;
1`
1|
1x
0l
0h
1f
1V
0R
0&!
0[
0E
1>
1d
0(!
0`
0|
0x
1l
0f
0V
1R
1D
11!
1.!
1+!
0)!
0d
1n
1F
0*!
01!
0.!
0+!
1o
0-
0*
0'
11!
0-!
0,!
1p
1-
1*
1'
10!
1-!
1,!
1,
1+
0'
0,
0+
0(
#12000
b111 !
b101 !
b100 !
0@!
0?!
1>!
0L
0<
0:
1[
0M
1E
0>
1%!
0Z
0;
1|
1x
0l
1V
0R
0D
1&!
0[
0E
0n
1(!
0F
0|
0x
1l
1h
0V
1R
0o
1)!
0p
1*!
01!
00!
1(
1'
#13000
b101 !
1@!
1L
1<
1[
1M
1E
1`
1|
1x
0l
0h
1f
1V
0R
1d
11!
1.!
1+!
0-
0*
0'
#14000
b111 !
b110 !
0@!
1?!
0L
0<
1:
0[
0M
0E
0%!
1Z
1;
0`
0|
0x
1l
1h
0f
0V
1R
0&!
1[
1E
0d
0(!
1`
1|
1x
0l
0h
1f
1V
0R
01!
0.!
0+!
0)!
1d
0*!
11!
1.!
1+!
1-
1*
1'
1/!
0-!
0-
0*
0'
1+
0)
#15000
1$
b111 !
1Y
1@!
16!
05!
0d
0:
0/!
0.!
0,!
0+!
0Z
0;
1.
0/
0[
0E
1-
1,
1*
1)
0`
0|
0x
1l
1h
0f
0V
1R
#16000
b11 %
b10 %
b11 !
b1 !
b0 !
0@!
0?!
0>!
0=!
1<!
1Z
1E
1[
1|
1x
0l
0h
1f
1V
0R
1`
#17000
b1 !
1@!
#18000
b11 !
b10 !
0@!
1?!
#19000
b11 !
1@!
1L
1<
1:
0[
1M
0E
1>
0`
0|
0x
1l
0f
0V
1R
1D
1n
1F
#20000
0$
b111 !
b101 !
b100 !
0Y
0@!
0?!
1>!
06!
15!
1%!
1o
0L
0<
0:
1&!
1p
1[
0M
1E
0>
0%!
0.
1/
1(!
10!
1-!
1,!
1|
1x
0l
1V
0R
0D
0&!
1)!
0n
0(!
1f
1`
0F
0,
0+
0(
1*!
0o
0)!
1d
01!
00!
1+!
0p
0*!
11!
1/!
1.!
0-!
0-
1(
1'
1+
0*
0)
0'
#21000
b101 !
1@!
1L
1<
0[
0E
1>
0`
0|
0x
1l
0f
0V
1R
1D
0d
1n
1F
0/!
0.!
0,!
0+!
1o
1p
1-
1,
1*
1)
10!
1-!
1,!
0,
0+
0(
#22000
b111 !
b110 !
0@!
1?!
0L
0<
1:
1[
1E
0>
1%!
1|
1x
0l
1V
0R
0D
1&!
0n
1(!
1f
1`
0F
0o
1)!
1d
0p
1*!
1/!
1.!
0,!
1+!
00!
0/!
1,!
0-
1,
0*
0)
0,
1)
1(
#23000
b111 !
1@!
0:
0%!
0&!
0(!
0)!
0*!
1/!
0-!
1+
0)
#24000
b11 %
b11 !
b1 !
b0 !
0@!
0?!
0>!
1=!
1%!
1&!
1(!
1)!
1*!
0/!
1-!
0+
1)
#25000
1$
b1 !
1Y
1@!
16!
05!
0%!
0d
0&!
01!
0.!
0+!
1.
0/
0(!
1-
1*
1'
0)!
0*!
11!
0-!
0,!
1,
1+
0'
#26000
b11 !
b10 !
0@!
1?!
#27000
b11 !
1@!
1L
1<
1:
0[
0E
1>
0Z
1;
0`
0|
0x
1l
0f
0V
1R
1D
1[
1E
1n
1F
1|
1x
0l
1V
0R
1}
1W
1!!
1X
#28000
b111 !
b101 !
b100 !
0@!
0?!
1>!
0L
0<
0:
0[
0E
1Z
0;
0|
0x
1l
0V
1R
1[
1E
0>
0}
0W
1|
1x
0l
1V
0R
0D
0!!
0X
0n
1f
1`
0F
#29000
b101 !
1@!
1L
1<
0[
0E
1>
0`
0|
0x
1l
0f
0V
1R
1D
1n
1F
#30000
0$
b111 !
b110 !
0Y
0@!
1?!
06!
15!
1%!
1o
0L
0<
1:
1&!
1p
1[
1E
0>
0%!
0Z
1;
0.
1/
1(!
10!
1-!
1,!
1|
1x
0l
1V
0R
0D
0&!
0[
0E
1>
1)!
0n
0(!
0F
0|
0x
1l
0V
1R
1D
0,
0+
0(
1*!
0o
0)!
1n
1F
00!
1/!
1.!
0,!
1+!
0p
0*!
1o
0/!
0.!
0-!
0+!
1p
0-
1,
0*
0)
1(
10!
1-!
1,!
1-
1+
1*
1)
0,
0+
0(
#31000
b111 !
1@!
0:
1%!
1Z
0;
1&!
1[
1E
0>
1(!
1|
1x
0l
1V
0R
0D
1)!
0n
1f
1`
0F
1*!
0o
1d
01!
00!
1+!
0p
11!
1.!
0-
1(
1'
0*
0'
#32000
b111 %
b101 %
b100 %
b11 !
b1 !
b0 !
0@!
0?!
0>!
0=!
0<!
1;!
0%!
0Z
0E
0K
1D
0&!
0[
0|
0x
1l
0f
0V
1R
1F
1n
0`
1W
0(!
0W
1o
0d
1X
0)!
0X
1p
01!
0.!
0+!
1d
0*!
0d
1+!
1-
1*
1'
11!
10!
0+!
0-
1-
0(
0'
#33000
b1 !
1@!
#34000
b11 !
b10 !
0@!
1?!
#35000
1$
b11 !
1Y
1@!
16!
05!
0o
1L
1<
1:
0p
1[
1M
1E
1.
0/
00!
0-!
0,!
1|
1x
0l
1V
0R
1}
1W
1,
1+
1(
1!!
1X
#36000
b111 !
b101 !
b100 !
0@!
0?!
1>!
0L
0<
0:
0[
0M
0E
0|
0x
1l
0V
1R
0}
0W
0!!
0X
#37000
b101 !
1@!
1L
1<
1[
1M
1E
1|
1x
0l
1V
0R
1}
1W
1!!
1X
#38000
b111 !
b110 !
0@!
1?!
0L
0<
1:
0[
0E
0|
0x
1l
0V
1R
0}
0W
0!!
0X
#39000
b111 !
1@!
0:
0M
#40000
b101 %
0$
b11 !
b1 !
b0 !
0Y
0@!
0?!
0>!
1=!
06!
15!
1%!
1o
1&!
1p
0.
1/
1(!
10!
1-!
1,!
1)!
0,
0+
0(
1*!
00!
1/!
1.!
0,!
1+!
0-
1,
0*
0)
1(
#41000
b1 !
1@!
#42000
b11 !
b10 !
0@!
1?!
#43000
b11 !
1@!
1L
1<
1:
1[
1M
1E
0%!
1Z
1;
1|
1x
0l
1V
0R
0&!
0[
0E
1>
1W
0(!
0|
0x
1l
1h
0V
1R
1^
1G
0D
1C
1X
0)!
0n
0W
0m
0_
1e
1~
1q
1O
1"!
1d
0*!
0o
0X
1r
10!
0p
0d
1{
1,!
0(
0,
#44000
b111 !
b101 !
b100 !
0@!
0?!
1>!
0L
0<
0:
1[
0M
1E
0>
1%!
0Z
0;
0~
1|
0r
1m
0h
1f
1V
0R
0F
0^
0G
1D
0C
1&!
0[
0E
0{
1n
1W
1_
0e
1(!
0q
0O
1F
0"!
0V
0|
1r
1R
00!
0/!
0.!
0-!
0,!
0+!
1o
1X
0f
1)!
0r
0W
1{
1p
1d
1*!
0{
0X
10!
1/!
1.!
1-!
1,!
1+!
1-
1,
1+
1*
1)
1(
01!
00!
0/!
0.!
0d
0-
0,
0+
0*
0)
0(
11!
1/!
1.!
0,!
1*
1)
1(
1'
1,
0*
0)
0'
#45000
1$
b101 !
1Y
1@!
16!
05!
0%!
0o
1L
1<
0&!
0p
1[
1M
1E
1.
0/
0(!
01!
0/!
0.!
1,!
0+!
1|
1x
0l
1V
0R
0)!
1}
1W
1-
0,
1*
1)
1'
0*!
1!!
1X
11!
0-!
0,!
1,
1+
0'
#46000
b111 !
b110 !
0@!
1?!
0L
0<
1:
0[
0M
0E
1Z
1;
0|
0x
1l
0V
1R
1[
1E
0}
0W
1|
1x
0l
1V
0R
0!!
0X
1}
1W
1!!
1X
#47000
b111 !
1@!
0:
0Z
0;
0[
0E
0|
0x
1l
0V
1R
0}
0W
0!!
0X
#48000
b111 %
b110 %
b11 !
b1 !
b0 !
0@!
0?!
0>!
0=!
1<!
1Z
1E
1[
1|
1x
0l
1V
0R
1}
1W
1!!
1X
#49000
b1 !
1@!
#50000
0$
b11 !
b10 !
0Y
0@!
1?!
06!
15!
0}
1o
1d
0!!
1p
1/!
1.!
1,!
1+!
0.
1/
10!
1-!
0,!
0-
0,
0*
0)
1,
0+
0(
#51000
b11 !
1@!
1L
1<
1:
0[
1M
0E
1>
1%!
0|
0x
1l
1h
0V
1R
1^
1G
0D
1C
1&!
0n
0W
0m
0_
1e
1(!
1~
1q
1O
1"!
0o
0X
1)!
1r
0p
0d
1*!
1{
0/!
1,!
0,
1)
#52000
b111 !
b101 !
b100 !
0@!
0?!
1>!
0L
0<
0:
1[
0M
1E
0>
0%!
0~
1|
0r
1m
0h
1f
1V
0R
0F
0^
0G
1D
0C
0&!
0{
1n
1W
1_
0e
0(!
0q
0f
0O
1F
0"!
1x
0l
01!
00!
0.!
0+!
1o
1X
0)!
1p
1d
0*!
1-
1*
1(
1'
11!
10!
1/!
1.!
0,!
1+!
0-
1,
0*
0)
0(
0'
#53000
b101 !
1@!
1L
1<
0[
0E
1>
0|
0x
1l
1h
0V
1R
1^
1G
0D
1C
0n
0W
0m
0_
1e
1~
1q
1O
1"!
0o
0X
1r
0p
0d
1{
1,!
0,
#54000
b111 !
b110 !
0@!
1?!
0L
0<
1:
1[
1E
0>
1%!
0~
1|
0r
1m
0h
1f
1V
0R
0F
0^
0G
1D
0C
1&!
0{
1n
1W
1_
0e
1(!
0q
0f
0O
1F
0"!
1x
0l
00!
0/!
0.!
0-!
0,!
0+!
1o
1X
1)!
1p
1d
1*!
1-
1,
1+
1*
1)
1(
01!
1-!
1,!
1+!
0-
0,
0+
1'
#55000
1$
b111 !
1Y
1@!
16!
05!
0%!
1}
0o
0d
0:
0&!
1!!
0p
11!
1/!
1.!
0,!
1.
0/
0(!
01!
0/!
0.!
1,!
0+!
1,
0*
0)
0'
0)!
1-
0,
1*
1)
1'
0*!
11!
0-!
0,!
1,
1+
0'
#56000
b111 %
b11 !
b1 !
b0 !
0@!
0?!
0>!
1=!
#57000
b1 !
1@!
#58000
b11 !
b10 !
0@!
1?!
#59000
b11 !
1@!
1L
1<
1:
0[
0E
1>
0Z
1;
0|
0x
1l
1h
0V
1R
1^
1G
0D
1C
1[
1E
0}
0n
0W
0_
1e
1q
1f
1`
1O
0F
1"!
1V
1|
0h
0R
0!!
0X
0`
1$!
1*!
01!
1-!
1,!
0,
0+
1'
#60000
0$
b111 !
b101 !
b100 !
0Y
0@!
0?!
1>!
06!
15!
0$!
0L
0<
0:
0*!
0[
0E
1%!
1Z
0;
0.
1/
11!
0-!
0,!
1~
0|
1r
0m
1h
0f
0V
1R
1F
1&!
1[
1E
0>
1{
1(!
0~
1|
0r
1m
0h
1f
1V
0R
0F
0^
0G
1D
0C
1,
1+
0'
10!
1/!
1.!
1-!
1,!
1+!
1)!
0{
1n
1W
1_
0e
0q
0f
0O
1F
0"!
1x
0l
1*!
00!
0/!
0.!
0-!
0,!
0+!
1o
1X
0-
0,
0+
0*
0)
0(
01!
1-!
1,!
1p
1d
1-
1,
1+
1*
1)
1(
1+!
0,
0+
1'
0-
#61000
b101 !
1@!
1L
1<
0[
0E
1>
0|
0x
1l
1h
0V
1R
1^
1G
0D
1C
0n
0W
0m
0_
1e
1~
1q
1O
1"!
0o
0X
1r
0p
0d
1{
11!
10!
1.!
0*
0(
0'
#62000
b111 !
b110 !
0@!
1?!
0L
0<
1:
1[
1E
0>
0%!
0Z
1;
0~
1|
0r
1m
0h
1f
1V
0R
0F
0^
0G
1D
0C
0&!
0[
0E
1>
0{
1n
1W
1_
0e
0(!
0q
0O
1F
0"!
0V
0|
1r
1h
1R
1^
1G
0D
1C
01!
00!
0.!
0+!
1o
1X
0f
0)!
0r
0W
1{
0m
0_
1e
1~
1q
0n
1O
1"!
1p
1d
0*!
0{
0X
11!
10!
1.!
1+!
1r
0o
1-
1*
1(
1'
1/!
0,!
0d
1{
0p
0-
0*
0(
0'
1,!
1,
0)
0,
#63000
b111 !
1@!
0:
1%!
1Z
0;
1&!
1[
1E
0>
1(!
0~
1|
0r
1m
0h
1f
1V
0R
0F
0^
0G
1D
0C
1)!
0{
1n
1W
1_
0e
0q
0f
0O
1F
0"!
1x
0l
1*!
00!
0/!
0.!
0-!
0,!
0+!
1o
1X
01!
1-!
1,!
1p
1d
1-
1,
1+
1*
1)
1(
1+!
0,
0+
1'
0-
#64000
b1111 %
b1011 %
b1001 %
b1000 %
b11 !
b1 !
b0 !
0@!
0?!
0>!
0=!
0<!
0;!
1:!
0%!
0Z
0E
1^
0D
1C
1e
0&!
0[
1~
0|
0x
0m
1l
1h
0V
1R
0_
1q
0n
1`
0W
1O
1"!
0(!
0`
1r
0o
0X
0)!
0d
1{
0p
0*!
11!
10!
1.!
1/!
0*
0(
0'
0)
#65000
1$
b1 !
1Y
1@!
16!
05!
1!!
0r
0{
1.
0/
00!
0/!
0.!
0-!
0,!
0+!
1-
1,
1+
1*
1)
1(
#66000
b11 !
b10 !
0@!
1?!
#67000
b11 !
1@!
1L
1<
1:
1[
1M
1E
0~
1|
1m
0h
1f
1V
0R
0F
0!!
1$!
1*!
01!
1-!
1,!
0,
0+
1'
#68000
b111 !
b101 !
b100 !
0@!
0?!
1>!
0L
0<
0:
0[
0M
0E
1~
0|
0m
1h
0f
0V
1R
1F
1!!
0$!
0*!
11!
0-!
0,!
1,
1+
0'
#69000
b101 !
1@!
1L
1<
1[
1M
1E
0~
1|
1m
0h
1f
1V
0R
0F
0!!
1$!
1*!
01!
1-!
1,!
0,
0+
1'
#70000
0$
b111 !
b110 !
0Y
0@!
1?!
06!
15!
0$!
0L
0<
1:
0*!
0[
0E
1%!
0.
1/
11!
0-!
0,!
1~
0|
1r
0m
1h
0f
0V
1R
1F
1&!
1{
1(!
1,
1+
0'
10!
1/!
1.!
1-!
1,!
1+!
1)!
1*!
0-
0,
0+
0*
0)
0(
0/!
1)
#71000
b111 !
1@!
0:
0%!
0M
0&!
0(!
0)!
0*!
1/!
0)
#72000
b1001 %
b11 !
b1 !
b0 !
0@!
0?!
0>!
1=!
1%!
1&!
1(!
1)!
1*!
0/!
1)
#73000
b1 !
1@!
#74000
b11 !
b10 !
0@!
1?!
#75000
1$
b11 !
1Y
1@!
16!
05!
0%!
1!!
0r
1L
1<
1:
0&!
0{
1[
1M
1E
1Z
1;
1.
0/
0(!
01!
00!
0.!
0+!
0~
1|
1m
0h
1f
1V
0R
0F
0[
0E
1>
0)!
0!!
1$!
1~
0|
0m
0f
0V
1R
1F
1D
1-
1*
1(
1'
1!!
1y
1S
0~
0q
1f
0F
1X
0!!
#76000
b111 !
b101 !
b100 !
0@!
0?!
1>!
0L
0<
0:
1[
0M
1E
0>
0Z
0;
1|
1m
0f
1V
0R
0D
0[
0E
0y
0S
1~
1q
1F
0|
0m
1h
0V
1R
0X
1!!
0$!
0*!
11!
0-!
0,!
1,
1+
0'
#77000
b101 !
1@!
1L
1<
1[
1M
1E
0~
1|
1m
0h
1f
1V
0R
0F
0!!
1$!
1*!
01!
1-!
1,!
0,
0+
1'
#78000
b111 !
b110 !
0@!
1?!
0L
0<
1:
0[
0M
0E
1Z
1;
1~
0|
0m
1h
0f
0V
1R
1F
1[
1E
1!!
0$!
0~
1|
1m
0h
1f
1V
0R
0F
0*!
0!!
1$!
11!
0-!
0,!
1*!
01!
1-!
1,!
1,
1+
0'
0,
0+
1'
#79000
b111 !
1@!
0:
0Z
0;
0[
0E
1~
0|
0m
1h
0f
0V
1R
1F
1!!
0$!
0*!
11!
0-!
0,!
1,
1+
0'
#80000
b1011 %
b1010 %
0$
b11 !
b1 !
b0 !
0Y
0@!
0?!
0>!
0=!
1<!
06!
15!
0!!
1r
1Z
1E
1{
1[
0~
1|
0r
1m
0h
1f
1V
0R
0F
0.
1/
10!
1/!
1.!
1-!
1,!
1+!
0{
00!
0/!
0.!
0-!
0,!
0+!
0-
0,
0+
0*
0)
0(
1-
1,
1+
1*
1)
1(
#81000
b1 !
1@!
#82000
b11 !
b10 !
0@!
1?!
#83000
b11 !
1@!
1L
1<
1:
0[
1M
0E
1>
1%!
1~
0|
1r
0m
0f
0V
1R
1F
1D
1&!
1{
1y
1S
1(!
0~
0q
1f
0F
10!
1/!
1.!
1-!
1,!
1+!
1X
1)!
0r
1d
1*!
0{
0-
0,
0+
0*
0)
0(
00!
0/!
1)
1(
#84000
b111 !
b101 !
b100 !
0@!
0?!
1>!
0L
0<
0:
1[
0M
1E
0>
0%!
1|
1m
0f
1V
0R
0D
0&!
0y
0S
0(!
1q
1f
0X
0)!
0d
0*!
0.!
0-!
0,!
0+!
1-
1,
1+
1*
#85000
1$
b101 !
1Y
1@!
16!
05!
1$!
1L
1<
1*!
0[
0E
1>
1.
0/
01!
1-!
1,!
1~
0|
0m
0f
0V
1R
1F
1D
1!!
1y
1S
0~
0q
1f
0F
0,
0+
1'
1X
0!!
#86000
b111 !
b110 !
0@!
1?!
0L
0<
1:
1[
1E
0>
1|
1m
0f
1V
0R
0D
0y
0S
1q
1f
0X
#87000
b111 !
1@!
0:
#88000
b1011 %
b11 !
b1 !
b0 !
0@!
0?!
0>!
1=!
#89000
b1 !
1@!
#90000
0$
b11 !
b10 !
0Y
0@!
1?!
06!
15!
1%!
0$!
1&!
0*!
0.
1/
1(!
11!
0-!
0,!
1)!
1,
1+
0'
1*!
01!
1-!
1,!
0,
0+
1'
#91000
b11 !
1@!
1L
1<
1:
0[
0E
1>
0%!
0Z
1;
1~
0|
1r
0m
0f
0V
1R
1F
1D
0&!
1[
1E
1{
1y
1S
0(!
0~
0q
0F
1|
0r
1m
1V
0R
11!
10!
1.!
1+!
1X
0)!
0{
1n
1W
0y
0S
1d
0*!
01!
00!
0.!
0+!
1o
0-
0*
0(
0'
11!
1/!
1.!
0-!
1+!
1p
1-
1*
1(
1'
10!
1-!
0,!
0-
1+
0*
0)
0'
1,
0+
0(
#92000
b111 !
b101 !
b100 !
0@!
0?!
1>!
0L
0<
0:
0[
0E
1%!
1Z
0;
0|
0m
1f
0V
1R
1&!
1[
1E
0>
0n
0W
1y
1S
1(!
1|
1m
0f
1V
0R
0D
0o
1)!
0y
0S
1q
1f
0p
1*!
0X
00!
0/!
1,!
0d
01!
0.!
0+!
0,
1)
1(
1-
1*
1'
#93000
b101 !
1@!
1L
1<
0[
0E
1>
1~
0|
1r
0m
0f
0V
1R
1F
1D
1{
1y
1S
0~
0q
1f
0F
11!
10!
1.!
1+!
1X
0r
1d
0{
0-
0*
0(
0'
00!
1(
#94000
b111 !
b110 !
0@!
1?!
0L
0<
1:
1[
1E
0>
0%!
0Z
1;
1|
1m
0f
1V
0R
0D
0&!
0[
0E
1>
0y
0S
0(!
1~
1q
1F
0|
0m
0V
1R
1D
0X
0)!
1r
1y
1S
0~
0q
1f
0F
0d
0*!
1{
1X
0r
10!
1/!
1d
0{
00!
0-!
0)
0(
1+
1(
#95000
1$
b111 !
1Y
1@!
16!
05!
1$!
0d
0:
1*!
0/!
0.!
0,!
0+!
1Z
0;
1.
0/
01!
1-!
1,!
1[
1E
0>
1-
1,
1*
1)
1|
1m
0f
1V
0R
0D
0,
0+
1'
0y
0S
1q
1f
0X
#96000
b1111 %
b1101 %
b1100 %
b11 !
b1 !
b0 !
0@!
0?!
0>!
0=!
0<!
1;!
0Z
0E
1D
0[
0|
0m
0V
1R
1#!
1}
0q
1n
1W
0#!
0}
0n
0W
1y
1S
1!!
1X
0!!
#97000
b1 !
1@!
#98000
b11 !
b10 !
0@!
1?!
#99000
b11 !
1@!
1L
1<
1:
1[
1M
1E
1|
1m
0f
1V
0R
1#!
1}
1n
1W
0y
0S
1!!
#100000
0$
b111 !
b101 !
b100 !
0Y
0@!
0?!
1>!
06!
15!
1%!
0#!
0}
1o
1d
0L
0<
0:
1&!
0$!
0!!
1p
11!
1.!
1+!
0[
0M
0E
0%!
0.
1/
1(!
0*!
01!
0.!
0|
0m
1f
0V
1R
0&!
0-
0*
0'
1)!
11!
10!
1/!
1.!
0,!
0n
0W
1y
1S
0(!
1*
1'
1*!
0o
0)!
1,
0*
0)
0(
0'
01!
00!
0/!
0.!
1,!
0p
0*!
11!
1/!
1.!
0-!
0,
1*
1)
1(
1'
1+
0*
0)
0'
#101000
b101 !
1@!
1L
1<
1[
1M
1E
1|
1m
0f
1V
0R
1n
1W
0y
0S
1o
1p
10!
1-!
0,!
1,
0+
0(
#102000
b111 !
b110 !
0@!
1?!
0L
0<
1:
0[
0E
1%!
0|
0m
1f
0V
1R
1&!
0n
0W
1y
1S
1(!
0o
1)!
0p
1*!
00!
0/!
1,!
0,
1)
1(
#103000
b111 !
1@!
0:
0%!
0M
0&!
0(!
0)!
0*!
1/!
0-!
1+
0)
#104000
b1101 %
b11 !
b1 !
b0 !
0@!
0?!
0>!
1=!
1%!
1&!
1(!
1)!
1*!
0/!
1-!
0+
1)
#105000
1$
b1 !
1Y
1@!
16!
05!
0%!
1$!
0d
0&!
01!
0.!
0+!
1.
0/
0(!
1-
1*
1'
0)!
#106000
b11 !
b10 !
0@!
1?!
