simulation/qsim/placarDigital.msim.vcd
$comment
	File created using the following command:
		vcd file placarDigital.msim.vcd -direction
$end
$date
	Tue May 24 16:33:28 2022
$end
$version
	ModelSim Version 10.5b
$end
$timescale
	1ps
$end

$scope module clockDivider_vlg_vec_tst $end
$var reg 1 ! clock_in $end
$var wire 1 " frequencias [4] $end
$var wire 1 # frequencias [3] $end
$var wire 1 $ frequencias [2] $end
$var wire 1 % frequencias [1] $end
$var wire 1 & frequencias [0] $end

$scope module i1 $end
$var wire 1 ' gnd $end
$var wire 1 ( vcc $end
$var wire 1 ) unknown $end
$var tri1 1 * devclrn $end
$var tri1 1 + devpor $end
$var tri1 1 , devoe $end
$var wire 1 - clock_in~combout $end
$var wire 1 . counter[0]~55 $end
$var wire 1 / counter[0]~55COUT1_57 $end
$var wire 1 0 counter[1]~53 $end
$var wire 1 1 counter[1]~53COUT1_58 $end
$var wire 1 2 counter[2]~51 $end
$var wire 1 3 counter[2]~51COUT1_59 $end
$var wire 1 4 counter[3]~49 $end
$var wire 1 5 counter[4]~47 $end
$var wire 1 6 counter[4]~47COUT1_60 $end
$var wire 1 7 counter[5]~45 $end
$var wire 1 8 counter[5]~45COUT1_61 $end
$var wire 1 9 counter[6]~43 $end
$var wire 1 : counter[6]~43COUT1_62 $end
$var wire 1 ; counter[7]~41 $end
$var wire 1 < counter[7]~41COUT1_63 $end
$var wire 1 = counter[8]~39 $end
$var wire 1 > counter[9]~37 $end
$var wire 1 ? counter[9]~37COUT1_64 $end
$var wire 1 @ counter[10]~35 $end
$var wire 1 A counter[10]~35COUT1_65 $end
$var wire 1 B counter[11]~33 $end
$var wire 1 C counter[11]~33COUT1_66 $end
$var wire 1 D counter[12]~31 $end
$var wire 1 E counter[12]~31COUT1_67 $end
$var wire 1 F counter[13]~29 $end
$var wire 1 G counter[14]~25 $end
$var wire 1 H counter[14]~25COUT1_68 $end
$var wire 1 I counter[15]~21 $end
$var wire 1 J counter[15]~21COUT1_69 $end
$var wire 1 K counter[16]~15 $end
$var wire 1 L counter[16]~15COUT1_70 $end
$var wire 1 M counter[17]~9 $end
$var wire 1 N counter[17]~9COUT1_71 $end
$var wire 1 O counter[18]~1 $end
$var wire 1 P counter[19]~3 $end
$var wire 1 Q counter[19]~3COUT1_72 $end
$var wire 1 R counter[20]~27 $end
$var wire 1 S counter[20]~27COUT1_73 $end
$var wire 1 T counter[21]~23 $end
$var wire 1 U counter[21]~23COUT1_74 $end
$var wire 1 V counter[22]~17 $end
$var wire 1 W counter[22]~17COUT1_75 $end
$var wire 1 X counter[23]~11 $end
$var wire 1 Y counter[24]~5 $end
$var wire 1 Z counter[24]~5COUT1_76 $end
$var wire 1 [ counter[25]~19 $end
$var wire 1 \ counter[25]~19COUT1_77 $end
$var wire 1 ] counter[26]~13 $end
$var wire 1 ^ counter[26]~13COUT1_78 $end
$var wire 1 _ counter [27] $end
$var wire 1 ` counter [26] $end
$var wire 1 a counter [25] $end
$var wire 1 b counter [24] $end
$var wire 1 c counter [23] $end
$var wire 1 d counter [22] $end
$var wire 1 e counter [21] $end
$var wire 1 f counter [20] $end
$var wire 1 g counter [19] $end
$var wire 1 h counter [18] $end
$var wire 1 i counter [17] $end
$var wire 1 j counter [16] $end
$var wire 1 k counter [15] $end
$var wire 1 l counter [14] $end
$var wire 1 m counter [13] $end
$var wire 1 n counter [12] $end
$var wire 1 o counter [11] $end
$var wire 1 p counter [10] $end
$var wire 1 q counter [9] $end
$var wire 1 r counter [8] $end
$var wire 1 s counter [7] $end
$var wire 1 t counter [6] $end
$var wire 1 u counter [5] $end
$var wire 1 v counter [4] $end
$var wire 1 w counter [3] $end
$var wire 1 x counter [2] $end
$var wire 1 y counter [1] $end
$var wire 1 z counter [0] $end
$upscope $end
$upscope $end
$enddefinitions $end
#0
$dumpvars
0!
x&
x%
x$
x#
0"
0'
1(
x)
1*
1+
1,
x-
x.
x/
x0
x1
x2
x3
x4
x5
06
x7
18
x9
0:
x;
1<
0=
1>
x?
0@
xA
1B
xC
0D
xE
1F
xG
0H
xI
1J
xK
0L
xM
1N
0O
1P
xQ
0R
xS
1T
xU
0V
xW
1X
xY
0Z
x[
1\
x]
0^
0z
0y
0x
0w
0v
0u
0t
0s
0r
0q
0p
0o
0n
0m
0l
0k
0j
0i
0h
0g
0f
0e
0d
0c
0b
0a
0`
0_
$end
#1163
0-
#1639
09
#1643
1Q
1?
#1644
1U
0S
#1648
0]
0K
#1653
1C
0A
11
0/
#1657
10
0.
#1856
0W
0E
03
#1861
1M
1;
02
#1870
0Y
0G
05
#1871
1[
1I
17
#1970
14
#3722
0%
#3738
0#
#3742
0$
#4185
0&
#10000
1!
#11163
1-
#13724
1z
#15377
1/
#15381
1.
#20000
0!
#21163
0-
#30000
1!
#31163
1-
#33724
0z
1y
#35377
0/
01
#35381
0.
00
#35488
11
#35504
10
#40000
0!
#41163
0-
#50000
1!
#51163
1-
#53724
1z
#55377
1/
#55381
1.
#55488
01
#55504
00
#60000
0!
#61163
0-
#70000
1!
#71163
1-
#73724
0z
0y
1x
#75377
0/
11
#75381
0.
10
#80000
0!
#81163
0-
#90000
1!
#91163
1-
#93724
1z
#95377
1/
#95381
1.
#100000
0!
#101163
0-
#110000
1!
#111163
1-
#113724
0z
1y
#115377
0/
01
#115381
0.
00
#115488
11
13
#115504
10
12
#115599
03
#115627
02
#120000
0!
#121163
0-
#130000
1!
#131163
1-
#133724
1z
#135377
1/
#135381
1.
#135488
01
#135504
00
#135599
13
#135627
12
#140000
0!
#141163
0-
#150000
1!
#151163
1-
#153724
0z
0y
0x
1w
#155377
0/
11
#155381
0.
10
#155580
03
#155585
02
#160000
0!
#161163
0-
#170000
1!
#171163
1-
#173724
1z
#175377
1/
#175381
1.
#180000
0!
#181163
0-
#190000
1!
#191163
1-
#193724
0z
1y
#195377
0/
01
#195381
0.
00
#195488
11
#195504
10
#200000
0!
#201163
0-
#210000
1!
#211163
1-
#213724
1z
#215377
1/
#215381
1.
#215488
01
#215504
00
#220000
0!
#221163
0-
#230000
1!
#231163
1-
#233724
0z
0y
1x
#235377
0/
11
#235381
0.
10
#240000
0!
#241163
0-
#250000
1!
#251163
1-
#253724
1z
#255377
1/
#255381
1.
#260000
0!
#261163
0-
#270000
1!
#271163
1-
#273724
0z
1y
#275377
0/
01
#275381
0.
00
#275488
11
13
#275504
10
12
#275599
03
#275627
02
#280000
0!
#281163
0-
#290000
1!
#291163
1-
#293724
1z
#295377
1/
#295381
1.
#295488
01
#295504
00
#295599
13
#295627
12
#295888
04
#300000
0!
#301163
0-
#310000
1!
#311163
1-
#313724
0z
0y
0x
0w
1v
#315377
0/
11
#315381
0.
10
#315580
03
#315585
02
#315594
15
#315694
14
#320000
0!
#321163
0-
#330000
1!
#331163
1-
#333724
1z
#335377
1/
#335381
1.
#340000
0!
#341163
0-
#350000
1!
#351163
1-
#353724
0z
1y
#355377
0/
01
#355381
0.
00
#355488
11
#355504
10
#360000
0!
#361163
0-
#370000
1!
#371163
1-
#373724
1z
#375377
1/
#375381
1.
#375488
01
#375504
00
#380000
0!
#381163
0-
#390000
1!
#391163
1-
#393724
0z
0y
1x
#395377
0/
11
#395381
0.
10
#400000
0!
#401163
0-
#410000
1!
#411163
1-
#413724
1z
#415377
1/
#415381
1.
#420000
0!
#421163
0-
#430000
1!
#431163
1-
#433724
0z
1y
#435377
0/
01
#435381
0.
00
#435488
11
13
#435504
10
12
#435599
03
#435627
02
#440000
0!
#441163
0-
#450000
1!
#451163
1-
#453724
1z
#455377
1/
#455381
1.
#455488
01
#455504
00
#455599
13
#455627
12
#460000
0!
#461163
0-
#470000
1!
#471163
1-
#473724
0z
0y
0x
1w
#475377
0/
11
#475381
0.
10
#475580
03
#475585
02
#480000
0!
#481163
0-
#490000
1!
#491163
1-
#493724
1z
#495377
1/
#495381
1.
#500000
0!
#501163
0-
#510000
1!
#511163
1-
#513724
0z
1y
#515377
0/
01
#515381
0.
00
#515488
11
#515504
10
#520000
0!
#521163
0-
#530000
1!
#531163
1-
#533724
1z
#535377
1/
#535381
1.
#535488
01
#535504
00
#540000
0!
#541163
0-
#550000
1!
#551163
1-
#553724
0z
0y
1x
#555377
0/
11
#555381
0.
10
#560000
0!
#561163
0-
#570000
1!
#571163
1-
#573724
1z
#575377
1/
#575381
1.
#580000
0!
#581163
0-
#590000
1!
#591163
1-
#593724
0z
1y
#595377
0/
01
#595381
0.
00
#595488
11
13
#595504
10
12
#595599
03
#595627
02
#600000
0!
#601163
0-
#610000
1!
#611163
1-
#613724
1z
#615377
1/
#615381
1.
#615488
01
#615504
00
#615599
13
#615627
12
#615888
04
#620000
0!
#621163
0-
#630000
1!
#631163
1-
#633724
0z
0y
0x
0w
0v
1u
#635377
0/
11
#635381
0.
10
#635580
03
#635585
02
#635594
05
#635694
14
#640000
0!
#641163
0-
#650000
1!
#651163
1-
#653724
1z
#655377
1/
#655381
1.
#660000
0!
#661163
0-
#670000
1!
#671163
1-
#673724
0z
1y
#675377
0/
01
#675381
0.
00
#675488
11
#675504
10
#680000
0!
#681163
0-
#690000
1!
#691163
1-
#693724
1z
#695377
1/
#695381
1.
#695488
01
#695504
00
#700000
0!
#701163
0-
#710000
1!
#711163
1-
#713724
0z
0y
1x
#715377
0/
11
#715381
0.
10
#720000
0!
#721163
0-
#730000
1!
#731163
1-
#733724
1z
#735377
1/
#735381
1.
#740000
0!
#741163
0-
#750000
1!
#751163
1-
#753724
0z
1y
#755377
0/
01
#755381
0.
00
#755488
11
13
#755504
10
12
#755599
03
#755627
02
#760000
0!
#761163
0-
#770000
1!
#771163
1-
#773724
1z
#775377
1/
#775381
1.
#775488
01
#775504
00
#775599
13
#775627
12
#780000
0!
#781163
0-
#790000
1!
#791163
1-
#793724
0z
0y
0x
1w
#795377
0/
11
#795381
0.
10
#795580
03
#795585
02
#800000
0!
#801163
0-
#810000
1!
#811163
1-
#813724
1z
#815377
1/
#815381
1.
#820000
0!
#821163
0-
#830000
1!
#831163
1-
#833724
0z
1y
#835377
0/
01
#835381
0.
00
#835488
11
#835504
10
#840000
0!
#841163
0-
#850000
1!
#851163
1-
#853724
1z
#855377
1/
#855381
1.
#855488
01
#855504
00
#860000
0!
#861163
0-
#870000
1!
#871163
1-
#873724
0z
0y
1x
#875377
0/
11
#875381
0.
10
#880000
0!
#881163
0-
#890000
1!
#891163
1-
#893724
1z
#895377
1/
#895381
1.
#900000
0!
#901163
0-
#910000
1!
#911163
1-
#913724
0z
1y
#915377
0/
01
#915381
0.
00
#915488
11
13
#915504
10
12
#915599
03
#915627
02
#920000
0!
#921163
0-
#930000
1!
#931163
1-
#933724
1z
#935377
1/
#935381
1.
#935488
01
#935504
00
#935599
13
#935627
12
#935888
04
#940000
0!
#941163
0-
#950000
1!
#951163
1-
#953724
0z
0y
0x
0w
1v
#955377
0/
11
#955381
0.
10
#955580
03
#955585
02
#955594
15
#955694
14
#955717
07
#960000
0!
#961163
0-
#970000
1!
#971163
1-
#973724
1z
#975377
1/
#975381
1.
#980000
0!
#981163
0-
#990000
1!
#991163
1-
#993724
0z
1y
#995377
0/
01
#995381
0.
00
#995488
11
#995504
10
#1000000
0!
#1001163
0-
#1010000
1!
#1011163
1-
#1013724
1z
#1015377
1/
#1015381
1.
#1015488
01
#1015504
00
#1020000
0!
#1021163
0-
#1030000
1!
#1031163
1-
#1033724
0z
0y
1x
#1035377
0/
11
#1035381
0.
10
#1040000
0!
#1041163
0-
#1050000
1!
#1051163
1-
#1053724
1z
#1055377
1/
#1055381
1.
#1060000
0!
#1061163
0-
#1070000
1!
#1071163
1-
#1073724
0z
1y
#1075377
0/
01
#1075381
0.
00
#1075488
11
13
#1075504
10
12
#1075599
03
#1075627
02
#1080000
0!
#1081163
0-
#1090000
1!
#1091163
1-
#1093724
1z
#1095377
1/
#1095381
1.
#1095488
01
#1095504
00
#1095599
13
#1095627
12
#1100000
0!
#1101163
0-
#1110000
1!
#1111163
1-
#1113724
0z
0y
0x
1w
#1115377
0/
11
#1115381
0.
10
#1115580
03
#1115585
02
#1120000
0!
#1121163
0-
#1130000
1!
#1131163
1-
#1133724
1z
#1135377
1/
#1135381
1.
#1140000
0!
#1141163
0-
#1150000
1!
#1151163
1-
#1153724
0z
1y
#1155377
0/
01
#1155381
0.
00
#1155488
11
#1155504
10
#1160000
0!
#1161163
0-
#1170000
1!
#1171163
1-
#1173724
1z
#1175377
1/
#1175381
1.
#1175488
01
#1175504
00
#1180000
0!
#1181163
0-
#1190000
1!
#1191163
1-
#1193724
0z
0y
1x
#1195377
0/
11
#1195381
0.
10
#1200000
0!
#1201163
0-
#1210000
1!
#1211163
1-
#1213724
1z
#1215377
1/
#1215381
1.
#1220000
0!
#1221163
0-
#1230000
1!
#1231163
1-
#1233724
0z
1y
#1235377
0/
01
#1235381
0.
00
#1235488
11
13
#1235504
10
12
#1235599
03
#1235627
02
#1240000
0!
#1241163
0-
#1250000
1!
#1251163
1-
#1253724
1z
#1255377
1/
#1255381
1.
#1255488
01
#1255504
00
#1255599
13
#1255627
12
#1255888
04
#1260000
0!
#1261163
0-
#1270000
1!
#1271163
1-
#1273724
0z
0y
0x
0w
0v
0u
1t
#1275363
19
#1275377
0/
11
#1275381
0.
10
#1275580
03
#1275585
02
#1275594
05
#1275595
17
#1275694
14
#1275718
09
#1280000
0!
#1281163
0-
#1290000
1!
#1291163
1-
#1293724
1z
#1295377
1/
#1295381
1.
#1300000
0!
#1301163
0-
#1310000
1!
#1311163
1-
#1313724
0z
1y
#1315377
0/
01
#1315381
0.
00
#1315488
11
#1315504
10
#1320000
0!
#1321163
0-
#1330000
1!
#1331163
1-
#1333724
1z
#1335377
1/
#1335381
1.
#1335488
01
#1335504
00
#1340000
0!
#1341163
0-
#1350000
1!
#1351163
1-
#1353724
0z
0y
1x
#1355377
0/
11
#1355381
0.
10
#1360000
0!
#1361163
0-
#1370000
1!
#1371163
1-
#1373724
1z
#1375377
1/
#1375381
1.
#1380000
0!
#1381163
0-
#1390000
1!
#1391163
1-
#1393724
0z
1y
#1395377
0/
01
#1395381
0.
00
#1395488
11
13
#1395504
10
12
#1395599
03
#1395627
02
#1400000
0!
#1401163
0-
#1410000
1!
#1411163
1-
#1413724
1z
#1415377
1/
#1415381
1.
#1415488
01
#1415504
00
#1415599
13
#1415627
12
#1420000
0!
#1421163
0-
#1430000
1!
#1431163
1-
#1433724
0z
0y
0x
1w
#1435377
0/
11
#1435381
0.
10
#1435580
03
#1435585
02
#1440000
0!
#1441163
0-
#1450000
1!
#1451163
1-
#1453724
1z
#1455377
1/
#1455381
1.
#1460000
0!
#1461163
0-
#1470000
1!
#1471163
1-
#1473724
0z
1y
#1475377
0/
01
#1475381
0.
00
#1475488
11
#1475504
10
#1480000
0!
#1481163
0-
#1490000
1!
#1491163
1-
#1493724
1z
#1495377
1/
#1495381
1.
#1495488
01
#1495504
00
#1500000
0!
#1501163
0-
#1510000
1!
#1511163
1-
#1513724
0z
0y
1x
#1515377
0/
11
#1515381
0.
10
#1520000
0!
#1521163
0-
#1530000
1!
#1531163
1-
#1533724
1z
#1535377
1/
#1535381
1.
#1540000
0!
#1541163
0-
#1550000
1!
#1551163
1-
#1553724
0z
1y
#1555377
0/
01
#1555381
0.
00
#1555488
11
13
#1555504
10
12
#1555599
03
#1555627
02
#1560000
0!
#1561163
0-
#1570000
1!
#1571163
1-
#1573724
1z
#1575377
1/
#1575381
1.
#1575488
01
#1575504
00
#1575599
13
#1575627
12
#1575888
04
#1580000
0!
#1581163
0-
#1590000
1!
#1591163
1-
#1593724
0z
0y
0x
0w
1v
#1595377
0/
11
#1595381
0.
10
#1595580
03
#1595585
02
#1595594
15
#1595694
14
#1600000
0!
#1601163
0-
#1610000
1!
#1611163
1-
#1613724
1z
#1615377
1/
#1615381
1.
#1620000
0!
#1621163
0-
#1630000
1!
#1631163
1-
#1633724
0z
1y
#1635377
0/
01
#1635381
0.
00
#1635488
11
#1635504
10
#1640000
0!
#1641163
0-
#1650000
1!
#1651163
1-
#1653724
1z
#1655377
1/
#1655381
1.
#1655488
01
#1655504
00
#1660000
0!
#1661163
0-
#1670000
1!
#1671163
1-
#1673724
0z
0y
1x
#1675377
0/
11
#1675381
0.
10
#1680000
0!
#1681163
0-
#1690000
1!
#1691163
1-
#1693724
1z
#1695377
1/
#1695381
1.
#1700000
0!
#1701163
0-
#1710000
1!
#1711163
1-
#1713724
0z
1y
#1715377
0/
01
#1715381
0.
00
#1715488
11
13
#1715504
10
12
#1715599
03
#1715627
02
#1720000
0!
#1721163
0-
#1730000
1!
#1731163
1-
#1733724
1z
#1735377
1/
#1735381
1.
#1735488
01
#1735504
00
#1735599
13
#1735627
12
#1740000
0!
#1741163
0-
#1750000
1!
#1751163
1-
#1753724
0z
0y
0x
1w
#1755377
0/
11
#1755381
0.
10
#1755580
03
#1755585
02
#1760000
0!
#1761163
0-
#1770000
1!
#1771163
1-
#1773724
1z
#1775377
1/
#1775381
1.
#1780000
0!
#1781163
0-
#1790000
1!
#1791163
1-
#1793724
0z
1y
#1795377
0/
01
#1795381
0.
00
#1795488
11
#1795504
10
#1800000
0!
#1801163
0-
#1810000
1!
#1811163
1-
#1813724
1z
#1815377
1/
#1815381
1.
#1815488
01
#1815504
00
#1820000
0!
#1821163
0-
#1830000
1!
#1831163
1-
#1833724
0z
0y
1x
#1835377
0/
11
#1835381
0.
10
#1840000
0!
#1841163
0-
#1850000
1!
#1851163
1-
#1853724
1z
#1855377
1/
#1855381
1.
#1860000
0!
#1861163
0-
#1870000
1!
#1871163
1-
#1873724
0z
1y
#1875377
0/
01
#1875381
0.
00
#1875488
11
13
#1875504
10
12
#1875599
03
#1875627
02
#1880000
0!
#1881163
0-
#1890000
1!
#1891163
1-
#1893724
1z
#1895377
1/
#1895381
1.
#1895488
01
#1895504
00
#1895599
13
#1895627
12
#1895888
04
#1900000
0!
#1901163
0-
#1910000
1!
#1911163
1-
#1913724
0z
0y
0x
0w
0v
1u
#1915377
0/
11
#1915381
0.
10
#1915580
03
#1915585
02
#1915594
05
#1915694
14
#1920000
0!
#1921163
0-
#1930000
1!
#1931163
1-
#1933724
1z
#1935377
1/
#1935381
1.
#1940000
0!
#1941163
0-
#1950000
1!
#1951163
1-
#1953724
0z
1y
#1955377
0/
01
#1955381
0.
00
#1955488
11
#1955504
10
#1960000
0!
#1961163
0-
#1970000
1!
#1971163
1-
#1973724
1z
#1975377
1/
#1975381
1.
#1975488
01
#1975504
00
#1980000
0!
#1981163
0-
#1990000
1!
#1991163
1-
#1993724
0z
0y
1x
#1995377
0/
11
#1995381
0.
10
#2000000
0!
#2001163
0-
#2010000
1!
#2011163
1-
#2013724
1z
#2015377
1/
#2015381
1.
#2020000
0!
#2021163
0-
#2030000
1!
#2031163
1-
#2033724
0z
1y
#2035377
0/
01
#2035381
0.
00
#2035488
11
13
#2035504
10
12
#2035599
03
#2035627
02
#2040000
0!
#2041163
0-
#2050000
1!
#2051163
1-
#2053724
1z
#2055377
1/
#2055381
1.
#2055488
01
#2055504
00
#2055599
13
#2055627
12
#2060000
0!
#2061163
0-
#2070000
1!
#2071163
1-
#2073724
0z
0y
0x
1w
#2075377
0/
11
#2075381
0.
10
#2075580
03
#2075585
02
#2080000
0!
#2081163
0-
#2090000
1!
#2091163
1-
#2093724
1z
#2095377
1/
#2095381
1.
#2100000
0!
#2101163
0-
#2110000
1!
#2111163
1-
#2113724
0z
1y
#2115377
0/
01
#2115381
0.
00
#2115488
11
#2115504
10
#2120000
0!
#2121163
0-
#2130000
1!
#2131163
1-
#2133724
1z
#2135377
1/
#2135381
1.
#2135488
01
#2135504
00
#2140000
0!
#2141163
0-
#2150000
1!
#2151163
1-
#2153724
0z
0y
1x
#2155377
0/
11
#2155381
0.
10
#2160000
0!
#2161163
0-
#2170000
1!
#2171163
1-
#2173724
1z
#2175377
1/
#2175381
1.
#2180000
0!
#2181163
0-
#2190000
1!
#2191163
1-
#2193724
0z
1y
#2195377
0/
01
#2195381
0.
00
#2195488
11
13
#2195504
10
12
#2195599
03
#2195627
02
#2200000
0!
#2201163
0-
#2210000
1!
#2211163
1-
#2213724
1z
#2215377
1/
#2215381
1.
#2215488
01
#2215504
00
#2215599
13
#2215627
12
#2215888
04
#2220000
0!
#2221163
0-
#2230000
1!
#2231163
1-
#2233724
0z
0y
0x
0w
1v
#2235377
0/
11
#2235381
0.
10
#2235580
03
#2235585
02
#2235594
15
#2235694
14
#2235717
07
#2235840
19
#2240000
0!
#2241163
0-
#2250000
1!
#2251163
1-
#2253724
1z
#2255377
1/
#2255381
1.
#2260000
0!
#2261163
0-
#2270000
1!
#2271163
1-
#2273724
0z
1y
#2275377
0/
01
#2275381
0.
00
#2275488
11
#2275504
10
#2280000
0!
#2281163
0-
#2290000
1!
#2291163
1-
#2293724
1z
#2295377
1/
#2295381
1.
#2295488
01
#2295504
00
#2300000
0!
#2301163
0-
#2310000
1!
#2311163
1-
#2313724
0z
0y
1x
#2315377
0/
11
#2315381
0.
10
#2320000
0!
#2321163
0-
#2330000
1!
#2331163
1-
#2333724
1z
#2335377
1/
#2335381
1.
#2340000
0!
#2341163
0-
#2350000
1!
#2351163
1-
#2353724
0z
1y
#2355377
0/
01
#2355381
0.
00
#2355488
11
13
#2355504
10
12
#2355599
03
#2355627
02
#2360000
0!
#2361163
0-
#2370000
1!
#2371163
1-
#2373724
1z
#2375377
1/
#2375381
1.
#2375488
01
#2375504
00
#2375599
13
#2375627
12
#2380000
0!
#2381163
0-
#2390000
1!
#2391163
1-
#2393724
0z
0y
0x
1w
#2395377
0/
11
#2395381
0.
10
#2395580
03
#2395585
02
#2400000
0!
#2401163
0-
#2410000
1!
#2411163
1-
#2413724
1z
#2415377
1/
#2415381
1.
#2420000
0!
#2421163
0-
#2430000
1!
#2431163
1-
#2433724
0z
1y
#2435377
0/
01
#2435381
0.
00
#2435488
11
#2435504
10
#2440000
0!
#2441163
0-
#2450000
1!
#2451163
1-
#2453724
1z
#2455377
1/
#2455381
1.
#2455488
01
#2455504
00
#2460000
0!
#2461163
0-
#2470000
1!
#2471163
1-
#2473724
0z
0y
1x
#2475377
0/
11
#2475381
0.
10
#2480000
0!
#2481163
0-
#2490000
1!
#2491163
1-
#2493724
1z
#2495377
1/
#2495381
1.
#2500000
0!
#2501163
0-
#2510000
1!
#2511163
1-
#2513724
0z
1y
#2515377
0/
01
#2515381
0.
00
#2515488
11
13
#2515504
10
12
#2515599
03
#2515627
02
#2520000
0!
#2521163
0-
#2530000
1!
#2531163
1-
#2533724
1z
#2535377
1/
#2535381
1.
#2535488
01
#2535504
00
#2535599
13
#2535627
12
#2535888
04
#2540000
0!
#2541163
0-
#2550000
1!
#2551163
1-
#2553724
0z
0y
0x
0w
0v
0u
0t
1s
#2555363
09
#2555377
0/
11
#2555381
0.
10
#2555580
03
#2555585
02
#2555594
05
#2555595
17
#2555694
14
#2560000
0!
#2561163
0-
#2570000
1!
#2571163
1-
#2573724
1z
#2575377
1/
#2575381
1.
#2580000
0!
#2581163
0-
#2590000
1!
#2591163
1-
#2593724
0z
1y
#2595377
0/
01
#2595381
0.
00
#2595488
11
#2595504
10
#2600000
0!
#2601163
0-
#2610000
1!
#2611163
1-
#2613724
1z
#2615377
1/
#2615381
1.
#2615488
01
#2615504
00
#2620000
0!
#2621163
0-
#2630000
1!
#2631163
1-
#2633724
0z
0y
1x
#2635377
0/
11
#2635381
0.
10
#2640000
0!
#2641163
0-
#2650000
1!
#2651163
1-
#2653724
1z
#2655377
1/
#2655381
1.
#2660000
0!
#2661163
0-
#2670000
1!
#2671163
1-
#2673724
0z
1y
#2675377
0/
01
#2675381
0.
00
#2675488
11
13
#2675504
10
12
#2675599
03
#2675627
02
#2680000
0!
#2681163
0-
#2690000
1!
#2691163
1-
#2693724
1z
#2695377
1/
#2695381
1.
#2695488
01
#2695504
00
#2695599
13
#2695627
12
#2700000
0!
#2701163
0-
#2710000
1!
#2711163
1-
#2713724
0z
0y
0x
1w
#2715377
0/
11
#2715381
0.
10
#2715580
03
#2715585
02
#2720000
0!
#2721163
0-
#2730000
1!
#2731163
1-
#2733724
1z
#2735377
1/
#2735381
1.
#2740000
0!
#2741163
0-
#2750000
1!
#2751163
1-
#2753724
0z
1y
#2755377
0/
01
#2755381
0.
00
#2755488
11
#2755504
10
#2760000
0!
#2761163
0-
#2770000
1!
#2771163
1-
#2773724
1z
#2775377
1/
#2775381
1.
#2775488
01
#2775504
00
#2780000
0!
#2781163
0-
#2790000
1!
#2791163
1-
#2793724
0z
0y
1x
#2795377
0/
11
#2795381
0.
10
#2800000
0!
#2801163
0-
#2810000
1!
#2811163
1-
#2813724
1z
#2815377
1/
#2815381
1.
#2820000
0!
#2821163
0-
#2830000
1!
#2831163
1-
#2833724
0z
1y
#2835377
0/
01
#2835381
0.
00
#2835488
11
13
#2835504
10
12
#2835599
03
#2835627
02
#2840000
0!
#2841163
0-
#2850000
1!
#2851163
1-
#2853724
1z
#2855377
1/
#2855381
1.
#2855488
01
#2855504
00
#2855599
13
#2855627
12
#2855888
04
#2860000
0!
#2861163
0-
#2870000
1!
#2871163
1-
#2873724
0z
0y
0x
0w
1v
#2875377
0/
11
#2875381
0.
10
#2875580
03
#2875585
02
#2875594
15
#2875694
14
#2880000
0!
#2881163
0-
#2890000
1!
#2891163
1-
#2893724
1z
#2895377
1/
#2895381
1.
#2900000
0!
#2901163
0-
#2910000
1!
#2911163
1-
#2913724
0z
1y
#2915377
0/
01
#2915381
0.
00
#2915488
11
#2915504
10
#2920000
0!
#2921163
0-
#2930000
1!
#2931163
1-
#2933724
1z
#2935377
1/
#2935381
1.
#2935488
01
#2935504
00
#2940000
0!
#2941163
0-
#2950000
1!
#2951163
1-
#2953724
0z
0y
1x
#2955377
0/
11
#2955381
0.
10
#2960000
0!
#2961163
0-
#2970000
1!
#2971163
1-
#2973724
1z
#2975377
1/
#2975381
1.
#2980000
0!
#2981163
0-
#2990000
1!
#2991163
1-
#2993724
0z
1y
#2995377
0/
01
#2995381
0.
00
#2995488
11
13
#2995504
10
12
#2995599
03
#2995627
02
#3000000
0!
#3001163
0-
#3010000
1!
#3011163
1-
#3013724
1z
#3015377
1/
#3015381
1.
#3015488
01
#3015504
00
#3015599
13
#3015627
12
#3020000
0!
#3021163
0-
#3030000
1!
#3031163
1-
#3033724
0z
0y
0x
1w
#3035377
0/
11
#3035381
0.
10
#3035580
03
#3035585
02
#3040000
0!
#3041163
0-
#3050000
1!
#3051163
1-
#3053724
1z
#3055377
1/
#3055381
1.
#3060000
0!
#3061163
0-
#3070000
1!
#3071163
1-
#3073724
0z
1y
#3075377
0/
01
#3075381
0.
00
#3075488
11
#3075504
10
#3080000
0!
#3081163
0-
#3090000
1!
#3091163
1-
#3093724
1z
#3095377
1/
#3095381
1.
#3095488
01
#3095504
00
#3100000
0!
#3101163
0-
#3110000
1!
#3111163
1-
#3113724
0z
0y
1x
#3115377
0/
11
#3115381
0.
10
#3120000
0!
#3121163
0-
#3130000
1!
#3131163
1-
#3133724
1z
#3135377
1/
#3135381
1.
#3140000
0!
#3141163
0-
#3150000
1!
#3151163
1-
#3153724
0z
1y
#3155377
0/
01
#3155381
0.
00
#3155488
11
13
#3155504
10
12
#3155599
03
#3155627
02
#3160000
0!
#3161163
0-
#3170000
1!
#3171163
1-
#3173724
1z
#3175377
1/
#3175381
1.
#3175488
01
#3175504
00
#3175599
13
#3175627
12
#3175888
04
#3180000
0!
#3181163
0-
#3190000
1!
#3191163
1-
#3193724
0z
0y
0x
0w
0v
1u
#3195377
0/
11
#3195381
0.
10
#3195580
03
#3195585
02
#3195594
05
#3195694
14
#3200000
0!
#3201163
0-
#3210000
1!
#3211163
1-
#3213724
1z
#3215377
1/
#3215381
1.
#3220000
0!
#3221163
0-
#3230000
1!
#3231163
1-
#3233724
0z
1y
#3235377
0/
01
#3235381
0.
00
#3235488
11
#3235504
10
#3240000
0!
#3241163
0-
#3250000
1!
#3251163
1-
#3253724
1z
#3255377
1/
#3255381
1.
#3255488
01
#3255504
00
#3260000
0!
#3261163
0-
#3270000
1!
#3271163
1-
#3273724
0z
0y
1x
#3275377
0/
11
#3275381
0.
10
#3280000
0!
#3281163
0-
#3290000
1!
#3291163
1-
#3293724
1z
#3295377
1/
#3295381
1.
#3300000
0!
#3301163
0-
#3310000
1!
#3311163
1-
#3313724
0z
1y
#3315377
0/
01
#3315381
0.
00
#3315488
11
13
#3315504
10
12
#3315599
03
#3315627
02
#3320000
0!
#3321163
0-
#3330000
1!
#3331163
1-
#3333724
1z
#3335377
1/
#3335381
1.
#3335488
01
#3335504
00
#3335599
13
#3335627
12
#3340000
0!
#3341163
0-
#3350000
1!
#3351163
1-
#3353724
0z
0y
0x
1w
#3355377
0/
11
#3355381
0.
10
#3355580
03
#3355585
02
#3360000
0!
#3361163
0-
#3370000
1!
#3371163
1-
#3373724
1z
#3375377
1/
#3375381
1.
#3380000
0!
#3381163
0-
#3390000
1!
#3391163
1-
#3393724
0z
1y
#3395377
0/
01
#3395381
0.
00
#3395488
11
#3395504
10
#3400000
0!
#3401163
0-
#3410000
1!
#3411163
1-
#3413724
1z
#3415377
1/
#3415381
1.
#3415488
01
#3415504
00
#3420000
0!
#3421163
0-
#3430000
1!
#3431163
1-
#3433724
0z
0y
1x
#3435377
0/
11
#3435381
0.
10
#3440000
0!
#3441163
0-
#3450000
1!
#3451163
1-
#3453724
1z
#3455377
1/
#3455381
1.
#3460000
0!
#3461163
0-
#3470000
1!
#3471163
1-
#3473724
0z
1y
#3475377
0/
01
#3475381
0.
00
#3475488
11
13
#3475504
10
12
#3475599
03
#3475627
02
#3480000
0!
#3481163
0-
#3490000
1!
#3491163
1-
