simulation/qsim/Placar.msim.vcd
$comment
	File created using the following command:
		vcd file Placar.msim.vcd -direction
$end
$date
	Sun Apr 24 23:39:25 2022
$end
$version
	ModelSim Version 10.5b
$end
$timescale
	1ps
$end

$scope module clockDivider_vlg_vec_tst $end
$var reg 1 ! clock_in $end
$var wire 1 " frequencias [4] $end
$var wire 1 # frequencias [3] $end
$var wire 1 $ frequencias [2] $end
$var wire 1 % frequencias [1] $end
$var wire 1 & frequencias [0] $end

$scope module i1 $end
$var wire 1 ' gnd $end
$var wire 1 ( vcc $end
$var wire 1 ) unknown $end
$var tri1 1 * devclrn $end
$var tri1 1 + devpor $end
$var tri1 1 , devoe $end
$var wire 1 - clock_in~combout $end
$var wire 1 . counter[0]~1 $end
$var wire 1 / counter[0]~1COUT1_11 $end
$var wire 1 0 counter[1]~3 $end
$var wire 1 1 counter[1]~3COUT1_12 $end
$var wire 1 2 counter[2]~5 $end
$var wire 1 3 counter[2]~5COUT1_13 $end
$var wire 1 4 counter[3]~7 $end
$var wire 1 5 counter[3]~7COUT1_14 $end
$var wire 1 6 counter [4] $end
$var wire 1 7 counter [3] $end
$var wire 1 8 counter [2] $end
$var wire 1 9 counter [1] $end
$var wire 1 : counter [0] $end
$upscope $end
$upscope $end
$enddefinitions $end
#0
$dumpvars
0!
0&
0%
0$
0#
0"
0'
1(
x)
1*
1+
1,
0-
0.
0/
10
11
02
03
14
15
0:
09
08
07
06
$end
#5000
1!
1-
1:
1/
1.
1&
#10000
0!
0-
#15000
1!
1-
19
0:
01
00
0/
0.
1%
0&
11
10
#20000
0!
0-
#25000
1!
1-
1:
1/
1.
1&
01
00
#30000
0!
0-
#35000
1!
1-
18
09
0:
13
12
11
10
0/
0.
1$
0%
0&
03
02
#40000
0!
0-
#45000
1!
1-
1:
1/
1.
1&
#50000
0!
0-
#55000
1!
1-
19
0:
01
00
0/
0.
1%
0&
13
12
11
10
03
02
#60000
0!
0-
#65000
1!
1-
1:
1/
1.
1&
01
00
13
12
#70000
0!
0-
#75000
1!
1-
17
08
09
0:
05
04
03
02
11
10
0/
0.
1#
0$
0%
0&
15
14
#80000
0!
0-
#85000
1!
1-
1:
1/
1.
1&
#90000
0!
0-
#95000
1!
1-
19
0:
01
00
0/
0.
1%
0&
11
10
#100000
0!
0-
#105000
1!
1-
1:
1/
1.
1&
01
00
#110000
0!
0-
#115000
1!
1-
18
09
0:
13
12
11
10
0/
0.
1$
0%
0&
05
04
03
02
15
14
#120000
0!
0-
#125000
1!
1-
1:
1/
1.
1&
#130000
0!
0-
#135000
1!
1-
19
0:
01
00
0/
0.
1%
0&
13
12
11
10
05
04
03
02
15
14
#140000
0!
0-
#145000
1!
1-
1:
1/
1.
1&
01
00
13
12
05
04
#150000
0!
0-
#155000
1!
1-
16
07
08
09
0:
15
14
03
02
11
10
0/
0.
1"
0#
0$
0%
0&
#160000
0!
0-
#165000
1!
1-
1:
1/
1.
1&
#170000
0!
0-
#175000
1!
1-
19
0:
01
00
0/
0.
1%
0&
11
10
#180000
0!
0-
#185000
1!
1-
1:
1/
1.
1&
01
00
#190000
0!
0-
#195000
1!
1-
18
09
0:
13
12
11
10
0/
0.
1$
0%
0&
03
02
#200000
0!
0-
#205000
1!
1-
1:
1/
1.
1&
#210000
0!
0-
#215000
1!
1-
19
0:
01
00
0/
0.
1%
0&
13
12
11
10
03
02
#220000
0!
0-
#225000
1!
1-
1:
1/
1.
1&
01
00
13
12
#230000
0!
0-
#235000
1!
1-
17
08
09
0:
05
04
03
02
11
10
0/
0.
1#
0$
0%
0&
15
14
#240000
0!
0-
#245000
1!
1-
1:
1/
1.
1&
#250000
0!
0-
#255000
1!
1-
19
0:
01
00
0/
0.
1%
0&
11
10
#260000
0!
0-
#265000
1!
1-
1:
1/
1.
1&
01
00
#270000
0!
0-
#275000
1!
1-
18
09
0:
13
12
11
10
0/
0.
1$
0%
0&
05
04
03
02
15
14
#280000
0!
0-
#285000
1!
1-
1:
1/
1.
1&
#290000
0!
0-
#295000
1!
1-
19
0:
01
00
0/
0.
1%
0&
13
12
11
10
05
04
03
02
15
14
#300000
0!
0-
#305000
1!
1-
1:
1/
1.
1&
01
00
13
12
05
04
#310000
0!
0-
#315000
1!
1-
06
07
08
09
0:
15
14
03
02
11
10
0/
0.
0"
0#
0$
0%
0&
#320000
0!
0-
#325000
1!
1-
1:
1/
1.
1&
#330000
0!
0-
#335000
1!
1-
19
0:
01
00
0/
0.
1%
0&
11
10
#340000
0!
0-
#345000
1!
1-
1:
1/
1.
1&
01
00
#350000
0!
0-
#355000
1!
1-
18
09
0:
13
12
11
10
0/
0.
1$
0%
0&
03
02
#360000
0!
0-
#365000
1!
1-
1:
1/
1.
1&
#370000
0!
0-
#375000
1!
1-
19
0:
01
00
0/
0.
1%
0&
13
12
11
10
03
02
#380000
0!
0-
#385000
1!
1-
1:
1/
1.
1&
01
00
13
12
#390000
0!
0-
#395000
1!
1-
17
08
09
0:
05
04
03
02
11
10
0/
0.
1#
0$
0%
0&
15
14
#400000
0!
0-
#405000
1!
1-
1:
1/
1.
1&
#410000
0!
0-
#415000
1!
1-
19
0:
01
00
0/
0.
1%
0&
11
10
#420000
0!
0-
#425000
1!
1-
1:
1/
1.
1&
01
00
#430000
0!
0-
#435000
1!
1-
18
09
0:
13
12
11
10
0/
0.
1$
0%
0&
05
04
03
02
15
14
#440000
0!
0-
#445000
1!
1-
1:
1/
1.
1&
#450000
0!
0-
#455000
1!
1-
19
0:
01
00
0/
0.
1%
0&
13
12
11
10
05
04
03
02
15
14
#460000
0!
0-
#465000
1!
1-
1:
1/
1.
1&
01
00
13
12
05
04
#470000
0!
0-
#475000
1!
1-
16
07
08
09
0:
15
14
03
02
11
10
0/
0.
1"
0#
0$
0%
0&
#480000
0!
0-
#485000
1!
1-
1:
1/
1.
1&
#490000
0!
0-
#495000
1!
1-
19
0:
01
00
0/
0.
1%
0&
11
10
#500000
0!
0-
#505000
1!
1-
1:
1/
1.
1&
01
00
#510000
0!
0-
#515000
1!
1-
18
09
0:
13
12
11
10
0/
0.
1$
0%
0&
03
02
#520000
0!
0-
#525000
1!
1-
1:
1/
1.
1&
#530000
0!
0-
#535000
1!
1-
19
0:
01
00
0/
0.
1%
0&
13
12
11
10
03
02
#540000
0!
0-
#545000
1!
1-
1:
1/
1.
1&
01
00
13
12
#550000
0!
0-
#555000
1!
1-
17
08
09
0:
05
04
03
02
11
10
0/
0.
1#
0$
0%
0&
15
14
