simulation/qsim/placar.msim.vcd
$comment
	File created using the following command:
		vcd file placar.msim.vcd -direction
$end
$date
	Mon Apr 04 23:30:26 2022
$end
$version
	ModelSim Version 10.5b
$end
$timescale
	1ps
$end

$scope module decodificadordisplay7segmentos_vhd_vec_tst $end
$var wire 1 ! display1Time0 [10] $end
$var wire 1 " display1Time0 [9] $end
$var wire 1 # display1Time0 [8] $end
$var wire 1 $ display1Time0 [7] $end
$var wire 1 % display1Time0 [6] $end
$var wire 1 & display1Time0 [5] $end
$var wire 1 ' display1Time0 [4] $end
$var wire 1 ( display1Time0 [3] $end
$var wire 1 ) display1Time0 [2] $end
$var wire 1 * display1Time0 [1] $end
$var wire 1 + display1Time0 [0] $end
$var wire 1 , display1Time1 [10] $end
$var wire 1 - display1Time1 [9] $end
$var wire 1 . display1Time1 [8] $end
$var wire 1 / display1Time1 [7] $end
$var wire 1 0 display1Time1 [6] $end
$var wire 1 1 display1Time1 [5] $end
$var wire 1 2 display1Time1 [4] $end
$var wire 1 3 display1Time1 [3] $end
$var wire 1 4 display1Time1 [2] $end
$var wire 1 5 display1Time1 [1] $end
$var wire 1 6 display1Time1 [0] $end
$var wire 1 7 display2Time0 [10] $end
$var wire 1 8 display2Time0 [9] $end
$var wire 1 9 display2Time0 [8] $end
$var wire 1 : display2Time0 [7] $end
$var wire 1 ; display2Time0 [6] $end
$var wire 1 < display2Time0 [5] $end
$var wire 1 = display2Time0 [4] $end
$var wire 1 > display2Time0 [3] $end
$var wire 1 ? display2Time0 [2] $end
$var wire 1 @ display2Time0 [1] $end
$var wire 1 A display2Time0 [0] $end
$var wire 1 B display2Time1 [10] $end
$var wire 1 C display2Time1 [9] $end
$var wire 1 D display2Time1 [8] $end
$var wire 1 E display2Time1 [7] $end
$var wire 1 F display2Time1 [6] $end
$var wire 1 G display2Time1 [5] $end
$var wire 1 H display2Time1 [4] $end
$var wire 1 I display2Time1 [3] $end
$var wire 1 J display2Time1 [2] $end
$var wire 1 K display2Time1 [1] $end
$var wire 1 L display2Time1 [0] $end
$var wire 1 M pontos [6] $end
$var wire 1 N pontos [5] $end
$var wire 1 O pontos [4] $end
$var wire 1 P pontos [3] $end
$var wire 1 Q pontos [2] $end
$var wire 1 R pontos [1] $end
$var wire 1 S pontos [0] $end
$var wire 1 T timeBasquete $end

$scope module i1 $end
$var wire 1 U gnd $end
$var wire 1 V vcc $end
$var wire 1 W unknown $end
$var wire 1 X devoe $end
$var wire 1 Y devclrn $end
$var wire 1 Z devpor $end
$var wire 1 [ ww_devoe $end
$var wire 1 \ ww_devclrn $end
$var wire 1 ] ww_devpor $end
$var wire 1 ^ ww_pontos [6] $end
$var wire 1 _ ww_pontos [5] $end
$var wire 1 ` ww_pontos [4] $end
$var wire 1 a ww_pontos [3] $end
$var wire 1 b ww_pontos [2] $end
$var wire 1 c ww_pontos [1] $end
$var wire 1 d ww_pontos [0] $end
$var wire 1 e ww_timeBasquete $end
$var wire 1 f ww_display1Time0 [10] $end
$var wire 1 g ww_display1Time0 [9] $end
$var wire 1 h ww_display1Time0 [8] $end
$var wire 1 i ww_display1Time0 [7] $end
$var wire 1 j ww_display1Time0 [6] $end
$var wire 1 k ww_display1Time0 [5] $end
$var wire 1 l ww_display1Time0 [4] $end
$var wire 1 m ww_display1Time0 [3] $end
$var wire 1 n ww_display1Time0 [2] $end
$var wire 1 o ww_display1Time0 [1] $end
$var wire 1 p ww_display1Time0 [0] $end
$var wire 1 q ww_display2Time0 [10] $end
$var wire 1 r ww_display2Time0 [9] $end
$var wire 1 s ww_display2Time0 [8] $end
$var wire 1 t ww_display2Time0 [7] $end
$var wire 1 u ww_display2Time0 [6] $end
$var wire 1 v ww_display2Time0 [5] $end
$var wire 1 w ww_display2Time0 [4] $end
$var wire 1 x ww_display2Time0 [3] $end
$var wire 1 y ww_display2Time0 [2] $end
$var wire 1 z ww_display2Time0 [1] $end
$var wire 1 { ww_display2Time0 [0] $end
$var wire 1 | ww_display1Time1 [10] $end
$var wire 1 } ww_display1Time1 [9] $end
$var wire 1 ~ ww_display1Time1 [8] $end
$var wire 1 !! ww_display1Time1 [7] $end
$var wire 1 "! ww_display1Time1 [6] $end
$var wire 1 #! ww_display1Time1 [5] $end
$var wire 1 $! ww_display1Time1 [4] $end
$var wire 1 %! ww_display1Time1 [3] $end
$var wire 1 &! ww_display1Time1 [2] $end
$var wire 1 '! ww_display1Time1 [1] $end
$var wire 1 (! ww_display1Time1 [0] $end
$var wire 1 )! ww_display2Time1 [10] $end
$var wire 1 *! ww_display2Time1 [9] $end
$var wire 1 +! ww_display2Time1 [8] $end
$var wire 1 ,! ww_display2Time1 [7] $end
$var wire 1 -! ww_display2Time1 [6] $end
$var wire 1 .! ww_display2Time1 [5] $end
$var wire 1 /! ww_display2Time1 [4] $end
$var wire 1 0! ww_display2Time1 [3] $end
$var wire 1 1! ww_display2Time1 [2] $end
$var wire 1 2! ww_display2Time1 [1] $end
$var wire 1 3! ww_display2Time1 [0] $end
$var wire 1 4! \Ram0~0_combout\ $end
$var wire 1 5! \Ram0~1_combout\ $end
$var wire 1 6! \Mux13~10_combout\ $end
$var wire 1 7! \Mux13~11_combout\ $end
$var wire 1 8! \Mux13~13_combout\ $end
$var wire 1 9! \Mux13~12_combout\ $end
$var wire 1 :! \Mux13~14_combout\ $end
$var wire 1 ;! \timeBasquete~combout\ $end
$var wire 1 <! \Mux13~2_combout\ $end
$var wire 1 =! \Mux13~3_combout\ $end
$var wire 1 >! \Mux13~18_combout\ $end
$var wire 1 ?! \Mux13~19_combout\ $end
$var wire 1 @! \Mux13~20_combout\ $end
$var wire 1 A! \Mux13~5_combout\ $end
$var wire 1 B! \Mux13~7_combout\ $end
$var wire 1 C! \Mux13~17_combout\ $end
$var wire 1 D! \Mux13~4_combout\ $end
$var wire 1 E! \Mux13~8_combout\ $end
$var wire 1 F! \Mux5~2_combout\ $end
$var wire 1 G! \Mux13~6_combout\ $end
$var wire 1 H! \Mux13~9_combout\ $end
$var wire 1 I! \Mux6~0_combout\ $end
$var wire 1 J! \Mux5~15_combout\ $end
$var wire 1 K! \Mux5~6_combout\ $end
$var wire 1 L! \Mux5~5_combout\ $end
$var wire 1 M! \Mux5~7_combout\ $end
$var wire 1 N! \Mux5~17_combout\ $end
$var wire 1 O! \Mux5~26_combout\ $end
$var wire 1 P! \Mux5~16_combout\ $end
$var wire 1 Q! \Mux12~4_combout\ $end
$var wire 1 R! \Mux5~18_combout\ $end
$var wire 1 S! \Mux5~11_combout\ $end
$var wire 1 T! \Mux5~12_combout\ $end
$var wire 1 U! \Mux5~10_combout\ $end
$var wire 1 V! \Mux5~9_combout\ $end
$var wire 1 W! \Mux5~13_combout\ $end
$var wire 1 X! \Mux5~8_combout\ $end
$var wire 1 Y! \Mux5~4_combout\ $end
$var wire 1 Z! \Mux5~3_combout\ $end
$var wire 1 [! \Mux5~14_combout\ $end
$var wire 1 \! \Mux5~19_combout\ $end
$var wire 1 ]! \Mux11~4_combout\ $end
$var wire 1 ^! \Mux11~5_combout\ $end
$var wire 1 _! \Mux10~0_combout\ $end
$var wire 1 `! \Mux11~0_combout\ $end
$var wire 1 a! \Mux11~1_combout\ $end
$var wire 1 b! \Mux11~3_combout\ $end
$var wire 1 c! \Mux11~6_combout\ $end
$var wire 1 d! \Mux11~7_combout\ $end
$var wire 1 e! \Mux11~2_combout\ $end
$var wire 1 f! \Mux4~0_combout\ $end
$var wire 1 g! \Mux4~1_combout\ $end
$var wire 1 h! \Mux10~1_combout\ $end
$var wire 1 i! \Mux10~2_combout\ $end
$var wire 1 j! \Mux3~0_combout\ $end
$var wire 1 k! \Mux10~3_combout\ $end
$var wire 1 l! \Mux10~4_combout\ $end
$var wire 1 m! \Mux10~7_combout\ $end
$var wire 1 n! \Mux10~6_combout\ $end
$var wire 1 o! \Mux3~1_combout\ $end
$var wire 1 p! \Mux5~20_combout\ $end
$var wire 1 q! \Mux3~2_combout\ $end
$var wire 1 r! \Mux10~5_combout\ $end
$var wire 1 s! \Mux3~3_combout\ $end
$var wire 1 t! \Mux5~21_combout\ $end
$var wire 1 u! \Mux3~4_combout\ $end
$var wire 1 v! \Mux0~0_combout\ $end
$var wire 1 w! \Mux3~5_combout\ $end
$var wire 1 x! \Mux3~6_combout\ $end
$var wire 1 y! \Mux5~22_combout\ $end
$var wire 1 z! \Mux2~0_combout\ $end
$var wire 1 {! \Mux2~1_combout\ $end
$var wire 1 |! \Mux2~3_combout\ $end
$var wire 1 }! \Mux5~23_combout\ $end
$var wire 1 ~! \Mux2~4_combout\ $end
$var wire 1 !" \Mux2~2_combout\ $end
$var wire 1 "" \Mux2~5_combout\ $end
$var wire 1 #" \Mux2~6_combout\ $end
$var wire 1 $" \Mux5~25_combout\ $end
$var wire 1 %" \Mux8~4_combout\ $end
$var wire 1 &" \Mux13~15_combout\ $end
$var wire 1 '" \Mux8~5_combout\ $end
$var wire 1 (" \Mux8~6_combout\ $end
$var wire 1 )" \Mux1~1_combout\ $end
$var wire 1 *" \Mux5~24_combout\ $end
$var wire 1 +" \Mux8~11_combout\ $end
$var wire 1 ," \Mux1~0_combout\ $end
$var wire 1 -" \Mux1~2_combout\ $end
$var wire 1 ." \Mux1~3_combout\ $end
$var wire 1 /" \Mux1~4_combout\ $end
$var wire 1 0" \Mux0~5_combout\ $end
$var wire 1 1" \Mux2~7_combout\ $end
$var wire 1 2" \Mux0~1_combout\ $end
$var wire 1 3" \Mux0~2_combout\ $end
$var wire 1 4" \Mux0~3_combout\ $end
$var wire 1 5" \Mux0~4_combout\ $end
$var wire 1 6" \Mux0~6_combout\ $end
$var wire 1 7" \Mux13~16_combout\ $end
$var wire 1 8" \Mux11~8_combout\ $end
$var wire 1 9" \Mux12~8_combout\ $end
$var wire 1 :" \Mux12~5_combout\ $end
$var wire 1 ;" \Mux12~6_combout\ $end
$var wire 1 <" \Mux12~7_combout\ $end
$var wire 1 =" \Mux11~9_combout\ $end
$var wire 1 >" \Mux10~8_combout\ $end
$var wire 1 ?" \Mux11~10_combout\ $end
$var wire 1 @" \Mux6~1_combout\ $end
$var wire 1 A" \Mux10~9_combout\ $end
$var wire 1 B" \Mux11~11_combout\ $end
$var wire 1 C" \Mux10~10_combout\ $end
$var wire 1 D" \Mux6~2_combout\ $end
$var wire 1 E" \Mux10~11_combout\ $end
$var wire 1 F" \Mux10~12_combout\ $end
$var wire 1 G" \Mux10~13_combout\ $end
$var wire 1 H" \Mux9~0_combout\ $end
$var wire 1 I" \Mux9~1_combout\ $end
$var wire 1 J" \Mux11~12_combout\ $end
$var wire 1 K" \Mux9~2_combout\ $end
$var wire 1 L" \Mux9~3_combout\ $end
$var wire 1 M" \Mux11~13_combout\ $end
$var wire 1 N" \Mux6~3_combout\ $end
$var wire 1 O" \Mux8~8_combout\ $end
$var wire 1 P" \Mux8~7_combout\ $end
$var wire 1 Q" \Mux8~9_combout\ $end
$var wire 1 R" \Mux8~10_combout\ $end
$var wire 1 S" \Mux7~0_combout\ $end
$var wire 1 T" \Mux7~1_combout\ $end
$var wire 1 U" \Mux7~2_combout\ $end
$var wire 1 V" \Mux7~3_combout\ $end
$var wire 1 W" \pontos~combout\ [6] $end
$var wire 1 X" \pontos~combout\ [5] $end
$var wire 1 Y" \pontos~combout\ [4] $end
$var wire 1 Z" \pontos~combout\ [3] $end
$var wire 1 [" \pontos~combout\ [2] $end
$var wire 1 \" \pontos~combout\ [1] $end
$var wire 1 ]" \pontos~combout\ [0] $end
$upscope $end
$upscope $end
$enddefinitions $end
#0
$dumpvars
0T
0U
1V
xW
1X
1Y
1Z
1[
1\
1]
0e
04!
05!
06!
07!
08!
09!
1:!
0;!
0<!
1=!
0>!
0?!
0@!
0A!
1B!
0C!
0D!
0E!
0F!
1G!
0H!
1I!
0J!
1K!
0L!
0M!
1N!
0O!
0P!
0Q!
0R!
1S!
0T!
0U!
0V!
1W!
1X!
1Y!
0Z!
0[!
0\!
0]!
0^!
0_!
0`!
0a!
1b!
1c!
0d!
1e!
0f!
0g!
0h!
0i!
0j!
1k!
1l!
1m!
0n!
0o!
1p!
1q!
1r!
0s!
1t!
1u!
1v!
0w!
0x!
0y!
1z!
0{!
0|!
1}!
1~!
1!"
0""
0#"
0$"
0%"
1&"
1'"
0("
0)"
1*"
1+"
1,"
0-"
0."
0/"
10"
01"
12"
03"
04"
15"
06"
17"
08"
09"
1:"
0;"
0<"
0="
0>"
0?"
0@"
0A"
0B"
0C"
0D"
1E"
0F"
0G"
0H"
0I"
0J"
0K"
0L"
0M"
0N"
0O"
0P"
0Q"
0R"
0S"
0T"
0U"
0V"
0M
0N
0O
0P
0Q
0R
0S
0!
1"
1#
1$
0%
0&
0'
0(
0)
0*
1+
17
08
19
1:
0;
0<
0=
0>
0?
0@
1A
1,
1-
0.
1/
00
01
02
03
04
05
16
1B
1C
1D
0E
0F
0G
0H
0I
0J
0K
1L
0^
0_
0`
0a
0b
0c
0d
0f
1g
1h
1i
0j
0k
0l
0m
0n
0o
1p
1q
0r
1s
1t
0u
0v
0w
0x
0y
0z
1{
1|
1}
0~
1!!
0"!
0#!
0$!
0%!
0&!
0'!
1(!
1)!
1*!
1+!
0,!
0-!
0.!
0/!
00!
01!
02!
13!
0W"
0X"
0Y"
0Z"
0["
0\"
0]"
$end
#5000
1S
1d
1]"
1Q!
0Y!
1Z!
1d!
1o!
0v!
1$"
1."
05"
1g!
1[!
1w!
16"
1\!
1z
1u
1x!
1y
1@
1?
1;
1x
1>
#10000
0S
1R
0d
1c
1\"
0]"
1v!
1?!
1H!
1Y!
0Z!
0d!
0o!
0p!
0t!
1y!
0!"
1""
0g!
0q!
0[!
06"
0I!
1@!
0w!
0x!
0{
0u
1s!
0y
1#"
0A
0?
0;
1w
0x
0>
1=
#15000
1S
1d
1]"
1V!
1d!
1j!
1p!
1t!
0v!
1!"
0*"
0."
0""
1q!
1g!
1y
0s!
0#"
1?
0w
0=
#20000
0S
0R
1Q
0d
0c
1b
1["
0\"
0]"
1v!
0H!
0Q!
0V!
0d!
0j!
0y!
0$"
1*"
16!
0=!
1D!
0G!
1J!
1O!
1_!
1`!
0b!
0~!
1%"
0&"
0+"
0,"
00"
1+"
0c!
0l!
0m!
1a!
1i!
1P!
1Z!
19"
1E!
19!
1,"
0g!
0\!
1I!
15"
16"
1{
0z
0y
1H!
1l!
1F"
0u!
1w!
0E"
1d!
1A
0@
0?
1g!
0F"
1x!
1G"
0I!
1u
1;
0{
10!
1x
0G"
1y
0A
1?
1>
1I
00!
0I
#25000
1S
1d
1]"
0:!
0Y!
1o!
0v!
1$"
1."
1/"
05"
1[!
0w!
0x!
06"
1v
1<
0u
0x
0>
0;
#30000
0S
1R
0d
1c
1\"
0]"
1v!
1:!
1<!
1Y!
1c!
0o!
0p!
0t!
1y!
0!"
0q!
0d!
0[!
1>!
1w!
1A!
0g!
1s!
0y
0?
#35000
1S
1d
1]"
0:!
1Q!
1V!
1d!
1j!
1p!
1t!
0v!
1!"
0*"
0."
0/"
0w!
1q!
1x!
0,"
1g!
1\!
1I!
1{
1z
1y
1-"
1x
0s!
0v
1A
1@
1?
1>
0<
#40000
0S
0R
0Q
1P
0d
0c
0b
1a
1Z"
0["
0\"
0]"
1v!
1:!
0Q!
0c!
0d!
0j!
0$"
0<!
1=!
0D!
0J!
0O!
0_!
1b!
1~!
0%"
1&"
1,"
10"
06!
17!
0>!
0?!
1C!
1M!
0V!
1]!
0`!
0i!
0}!
1*"
14"
1O!
1T!
1U!
0X!
0@!
0A!
18!
09!
0-"
1m!
0a!
1>!
0x!
0g!
1d!
0\!
0I!
1w!
1x!
0{
0z
1g!
0y
0x
1c!
0d!
1u!
1E"
1A!
1[!
1;"
0:"
0A
0@
0?
0>
0;"
0w!
0g!
1y
1x
1?
1>
0y
0x!
0?
0x
0>
#45000
1S
1d
1]"
1V!
1d!
1o!
0p!
0v!
1}!
1$"
1."
04"
0q!
1g!
1y
1s!
1?
#50000
0S
1R
0d
1c
1\"
0]"
1v!
0:!
0T!
0V!
0d!
0o!
1p!
0t!
0y!
1q!
0g!
0W!
1I!
15"
1{
0[!
0y
0s!
1A
0?
#55000
1S
1d
1]"
1Q!
0Y!
1d!
1j!
1t!
0v!
0."
05"
1g!
1w!
16"
1\!
1z
1u
1x!
1y
1@
1?
1;
1x
1>
#60000
0S
0R
1Q
0d
0c
1b
1["
0\"
0]"
1v!
1:!
0Q!
1T!
1Y!
0d!
0j!
1y!
0}!
0$"
16!
0=!
1?!
1D!
1J!
0]!
1_!
0b!
0~!
1%"
0&"
0+"
0,"
00"
1+"
0c!
0l!
0m!
0N!
1@!
0>!
08!
1""
14"
1,"
0g!
06"
1W!
0\!
0I!
0w!
0x!
0{
0z
1[!
0u
0y
1#"
0A!
1R!
1F"
0u!
1w!
0E"
0A
0@
0?
0;
0F"
1x!
0w!
1G"
1w
1\!
0x
0>
1=
1z
10!
0x!
1x
0G"
1@
1>
1I
0x
00!
0>
0I
#65000
1S
1d
1]"
1V!
1d!
1o!
0p!
0v!
1}!
1$"
1."
0""
04"
0q!
1g!
1y
1s!
0#"
1?
0w
0=
#70000
0S
1R
0d
1c
1\"
0]"
1v!
1<!
0?!
0T!
0V!
0o!
1p!
0t!
0y!
1u!
1q!
0W!
0@!
15"
16"
0[!
0s!
1w!
1x!
0\!
1u
1;
0z
1x
0@
1>
#75000
1S
1d
1]"
0Y!
1j!
1t!
0v!
0."
05"
0u!
0,"
1-"
0w!
06"
0u
0x!
1/"
0;
1v
0x
0>
1<
#80000
0S
0R
0Q
0P
1O
0d
0c
0b
0a
1`
1Y"
0Z"
0["
0\"
0]"
1v!
1T!
0d!
0j!
0$"
06!
07!
1>!
0C!
0M!
1Y!
1i!
18!
0B!
0K!
1]!
0_!
1b!
0k!
0r!
1{!
1|!
0%"
1("
1,"
11"
0-"
1O"
0'"
0+"
1""
1K"
1#"
1L"
1c!
0i!
1l!
0T!
0U!
1X!
1A!
08!
19!
1)"
0g!
1W!
0y
1;"
1:"
1w!
0l!
1m!
1/!
1w
0L"
0#"
1-"
0O"
1Q"
0/"
0?
1=
1H
0v
1R"
0Q"
1/"
0w
0/!
0w!
1x!
0;"
1<"
0=
0<
0H
12!
0<"
1x
0x!
0R"
1.!
1v
1K
1G
1>
1<
0.!
0x
02!
0K
0G
0>
#85000
1S
1d
1]"
0:!
0Y!
1d!
1o!
0v!
1$"
1."
0)"
1s!
1g!
1[!
1I!
1{
1\!
1y
1u!
0-"
1A
1?
0/"
1w!
1z
1@
1x!
0v
0<
1x
1>
#90000
0S
1R
0d
1c
1\"
0]"
1v!
1:!
0<!
1=!
1Y!
0d!
0o!
0p!
0t!
1y!
0!"
0q!
0s!
0g!
0[!
0>!
0I!
0{
0A!
0\!
0y
0u!
0A
0?
0w!
0z
0@
0x!
0x
0>
#95000
1S
1d
1]"
0:!
1V!
1d!
1j!
1p!
1t!
0v!
1!"
0*"
0."
1q!
1g!
1y
1?
#100000
0S
0R
1Q
0d
0c
1b
1["
0\"
0]"
1v!
1:!
0V!
0d!
0j!
0y!
0$"
1*"
16!
1B!
0D!
0J!
0O!
1k!
1r!
0{!
0|!
1~!
1%"
0("
10"
1'"
1+"
0""
0K"
1#"
1L"
1l!
1N!
0P!
0E!
09!
0g!
0y
0H!
0R!
1u!
1w!
1E"
1/!
1w
0L"
0#"
0?
1=
1H
0w
0/!
1x!
0w!
1I!
0=
0H
1{
0x!
1x
1A
1>
0x
0>
#105000
1S
1d
1]"
1Q!
0Y!
1d!
1o!
0v!
1$"
1."
1g!
1[!
1w!
16"
1\!
1z
1u
1x!
1y
1@
1?
1;
1x
1>
#110000
0S
1R
0d
1c
1\"
0]"
1v!
1?!
1H!
1Y!
0d!
0o!
0p!
0t!
1y!
0!"
1""
0q!
0g!
0[!
06"
0I!
1@!
0w!
0x!
0{
0u
0y
1s!
1#"
0A
0?
0;
1w
0x
0>
1=
#115000
1S
1d
1]"
1V!
1d!
1j!
1p!
1t!
0v!
1!"
0*"
0."
0""
1q!
1g!
1y
0s!
0#"
1?
0w
0=
#120000
0S
0R
0Q
1P
0d
0c
0b
1a
1Z"
0["
0\"
0]"
1v!
0H!
0Q!
0d!
0j!
0$"
1<!
0=!
1D!
1J!
1O!
0k!
0r!
1{!
1|!
0~!
0%"
1("
00"
06!
17!
1>!
1C!
1P!
0V!
1`!
1h!
0}!
1*"
14"
1i!
1a!
1A!
19!
1O"
0'"
0+"
1""
1K"
1#"
1L"
0l!
0N!
1E!
0>!
1)"
0g!
0\!
1I!
1{
0z
0y
0A!
1H!
1R!
0u!
1w!
0E"
1/!
1w
0L"
0#"
1-"
0O"
1Q"
0I!
0c!
1l!
0m!
15"
1A
0@
0?
1=
1H
16"
1d!
0Q"
0w
0/!
1x!
0{
0A
0=
0H
1x
1g!
1u
1>
1;
1y
1?
#125000
1S
1d
1]"
0:!
1V!
1o!
0p!
0v!
1}!
1$"
1."
1/"
0)"
04"
0w!
0q!
1s!
0x!
05"
0-"
1v
1<
06"
0x
0>
0u
0;
#130000
0S
1R
0d
1c
1\"
0]"
1v!
1:!
0<!
1=!
0V!
1c!
0o!
1p!
0t!
0y!
1q!
0s!
0d!
1>!
1w!
1A!
0g!
0y
0?
#135000
1S
1d
1]"
0:!
0Y!
1d!
1j!
1t!
0v!
0."
0/"
1x!
1g!
1[!
0w!
1I!
1{
1\!
1y
1x
0v
1A
1?
1>
0<
1z
1@
#140000
0S
0R
1Q
0d
0c
1b
1["
0\"
0]"
1v!
1:!
1Y!
0c!
0d!
0j!
1y!
0}!
0$"
16!
0?!
0D!
0J!
0O!
0]!
0`!
0h!
1k!
1r!
0{!
0|!
1~!
1%"
0("
10"
1'"
1+"
0K"
1#"
1L"
0i!
0a!
1N!
0@!
18!
09!
0""
1)"
14"
0x!
0g!
1d!
0[!
0I!
1w!
0{
0\!
1g!
0y
0x
15"
0#"
0R!
1c!
0d!
1m!
1x!
1/!
1w
0L"
0)"
0A
0?
0>
1=
1H
0/!
1u!
1E"
0g!
0w
1x
1y
0z
0H
0@
1?
1>
0=
0y
0w!
0?
0x!
0x
0>
#145000
1S
1d
1]"
1V!
1d!
1o!
0p!
0v!
1}!
1$"
1."
04"
0q!
1g!
1y
1s!
05"
1?
#150000
0S
1R
0d
1c
1\"
0]"
1v!
0:!
0V!
0d!
0o!
1p!
0t!
0y!
1q!
0g!
1I!
1{
0y
0s!
1A
0?
#155000
1S
1d
1]"
1Q!
0Y!
1d!
1j!
1t!
0v!
0."
1g!
1[!
1w!
16"
1\!
1z
1u
1x!
1y
1@
1?
1;
1x
1>
#160000
0S
0R
0Q
0P
0O
1N
0d
0c
0b
0a
0`
1_
1X"
0Y"
0Z"
0["
0\"
0]"
1v!
1:!
0Q!
0d!
0j!
0$"
0>!
1Y!
08!
1G!
1K!
1&"
0=!
1@!
1L!
0N!
0P!
1^!
0k!
1{!
1|!
0~!
0%"
1("
00"
02"
1O"
1""
1K"
0l!
0c!
1M!
0Z!
09"
0[!
06"
0A!
1)"
0g!
0\!
0I!
0w!
0z!
0x!
0{
0z
0y
0u
1O!
1T!
1U!
0X!
0u!
1w!
0E"
1#"
0A
0@
0?
0;
1w
1x!
0w!
1[!
1;"
0:"
1P!
0x
0>
1=
1R!
0;"
0x!
1x
1>
0x
1\!
0>
1z
1@
#165000
1S
1d
1]"
0Y!
1Z!
1d!
1o!
0v!
1$"
1."
1z!
1g!
1y
0#"
1?
0w
0=
#170000
0S
1R
0d
1c
1\"
0]"
1v!
1?!
0T!
1Y!
0Z!
0o!
0p!
0t!
1y!
0!"
13"
0q!
0W!
0@!
0[!
1s!
14"
15"
1u!
0\!
0z
1w!
16"
0@
1u
1x!
1;
1x
1>
#175000
1S
1d
1]"
1V!
1j!
1p!
1t!
0v!
1!"
0*"
0."
1-"
1q!
03"
04"
0s!
1/"
1v
0u!
05"
1<
06"
0w!
0x!
0u
0;
0x
0>
#180000
0S
0R
1Q
0d
0c
1b
1["
0\"
0]"
1v!
1T!
0V!
0d!
0j!
0y!
0$"
1*"
14!
07!
1<!
1D!
0G!
1J!
0^!
1_!
1`!
0r!
0&"
0+"
0,"
12"
1Q"
0'"
1c!
1Z!
19"
0L!
1>!
19!
1,"
0g!
1W!
0y
1A!
0M!
1[!
0O"
1R"
0?
1.!
0Q"
1\!
0T!
0U!
1X!
1G
0[!
1;"
1:"
1z
0R"
1@
0.!
0;"
1<"
0\!
0G
0z
12!
0<"
0@
1K
02!
0K
#185000
1S
1d
1]"
0:!
0Y!
1d!
1o!
0v!
1$"
1."
0)"
1s!
1g!
1[!
1I!
1{
1\!
1y
1u!
0-"
1A
1?
0/"
1w!
1z
1@
1x!
0v
0<
1x
1>
#190000
0S
1R
0d
1c
1\"
0]"
1v!
1:!
0<!
1=!
1Y!
0d!
0o!
0p!
0t!
1y!
0!"
0q!
0s!
0g!
0[!
0>!
0I!
0{
0A!
0\!
0y
0u!
0A
0?
0w!
0z
0@
0x!
0x
0>
#195000
1S
1d
1]"
0:!
1V!
1d!
1j!
1p!
1t!
0v!
1!"
0*"
0."
1q!
0,"
1g!
1y
1?
#200000
0S
0R
0Q
1P
0d
0c
0b
1a
1Z"
0["
0\"
0]"
1v!
1:!
0d!
0j!
0$"
0=!
0D!
0J!
0O!
1^!
0_!
1r!
1&"
1+"
1,"
02"
06!
1>!
0?!
0C!
0V!
1]!
0`!
1a!
1i!
0}!
1*"
1l!
0m!
0^!
1A!
09!
1'"
0a!
0i!
0c!
0P!
0E!
0>!
1)"
0g!
0y
0A!
0H!
0R!
0l!
1m!
1O"
1c!
1w!
0?
1x!
0w!
1I!
1{
0x!
1x
1A
1>
0x
0>
#205000
1S
1d
1]"
1Q!
1V!
1d!
1o!
0p!
0v!
1}!
1$"
1."
0q!
13"
1g!
1\!
1z
1y
14"
1s!
1@
1?
1u!
15"
16"
1w!
1x!
1u
1;
1x
1>
#210000
0S
1R
0d
1c
1\"
0]"
1v!
1H!
0V!
0d!
0o!
1p!
0t!
0y!
1q!
03"
0g!
0I!
0z!
1#"
0{
0y
04"
0s!
0A
0?
0u!
05"
1w
1=
06"
0w!
0x!
0u
0;
0x
0>
#215000
1S
1d
1]"
0Y!
1d!
1j!
1t!
0v!
0."
1z!
1g!
1[!
1y
0#"
1?
0w
0=
#220000
0S
0R
1Q
0d
0c
1b
1["
0\"
0]"
1v!
0H!
0Q!
1Y!
0d!
0j!
1y!
0}!
0$"
16!
1<!
1?!
1D!
1J!
1O!
0]!
1^!
1_!
0r!
0&"
0+"
0,"
12"
1-"
1Q"
0'"
1a!
1i!
0c!
0^!
1P!
1E!
19!
14"
1,"
0g!
0[!
0\!
1I!
1{
0z
0y
15"
1H!
1R!
1l!
0m!
1d!
0O"
1A
0@
0?
0Q"
1g!
1w!
0I!
16"
1u
0{
1x!
1y
0A
1?
1;
1x
1>
#225000
1S
1d
1]"
0:!
1V!
1o!
0p!
0v!
1}!
1$"
1."
1/"
0)"
04"
0w!
0q!
1s!
0x!
05"
0-"
1v
1<
06"
0x
0>
0u
0;
#230000
0S
1R
0d
1c
1\"
0]"
1v!
1:!
0<!
1=!
0?!
0V!
1c!
0o!
1p!
0t!
0y!
1q!
0s!
0d!
1>!
1w!
1A!
0g!
0y
0?
#235000
1S
1d
1]"
0:!
0Y!
1d!
1j!
1t!
0v!
0."
0/"
1x!
0,"
1g!
1[!
0w!
1I!
1{
1\!
1y
1x
0v
1A
1?
1>
0<
1z
1@
#240000
0S
0R
0Q
0P
1O
0d
0c
0b
0a
1`
1Y"
0Z"
0["
0\"
0]"
1v!
1:!
0c!
0d!
0j!
0$"
1^!
17!
0>!
1C!
1Y!
0a!
0i!
09!
1<!
0K!
0S!
0X!
1]!
0_!
1n!
0("
1,"
0q!
13"
1A"
1C"
1S"
1T"
0^!
1;"
1T!
1>!
0l!
1m!
0A!
18!
0x!
0g!
0I!
1w!
1x!
0{
0y
0x
0w!
1A!
0W!
0:"
1<"
1c!
1U"
0T"
1F"
0C"
0A
0?
0>
0F"
1G"
0U"
1V"
12!
0;"
0[!
0x!
1x
1K
1>
0x
0\!
0<"
1-!
0V"
10!
0G"
0>
1I
1F
00!
0-!
02!
0z
0K
0I
0F
0@
#245000
1S
1d
1]"
0Y!
1d!
0v!
1$"
1."
1g!
1y
1?
#250000
0S
1R
0d
1c
1\"
0]"
1v!
0:!
0=!
1Y!
0d!
0p!
0t!
1y!
0!"
0g!
1I!
1{
0y
1A
0?
#255000
1S
1d
1]"
1V!
1d!
1j!
1o!
1p!
1t!
0v!
1!"
0*"
0."
14"
1s!
1g!
1W!
1[!
1y
1u!
15"
1?
16"
1w!
1\!
1z
1x!
1u
1@
1;
1x
1>
#260000
0S
0R
1Q
0d
0c
1b
1["
0\"
0]"
1v!
1:!
0V!
0d!
0j!
0o!
0y!
0$"
1*"
07!
0<!
0D!
0J!
0O!
1^!
0n!
1r!
1%"
1("
02"
1'"
1+"
1q!
03"
0A"
1C"
0S"
1T"
0c!
0P!
1L!
0>!
08!
1)"
0g!
0W!
0I!
0z!
1#"
0{
0[!
0y
0A!
1M!
0R!
1U"
0T"
1F"
0C"
04"
0s!
1O"
0A
0?
0u!
05"
0F"
1G"
0U"
1V"
1O!
1U!
0\!
1w
1=
0z
1W!
1P!
1-!
0V"
10!
0G"
06"
0w!
0@
1I
1F
0x!
0u
00!
0-!
1R!
1[!
0;
0I
0F
1\!
0x
0>
1z
1@
#265000
1S
1d
1]"
0Y!
1d!
1o!
0v!
1$"
1."
1z!
1g!
1y
0#"
1?
0w
0=
