simulation/qsim/placar.msim.vcd
$comment
	File created using the following command:
		vcd file placar.msim.vcd -direction
$end
$date
	Tue Apr 05 12:32:01 2022
$end
$version
	ModelSim Version 10.5b
$end
$timescale
	1ps
$end

$scope module decodificadordisplay7segmentos_vhd_vec_tst $end
$var wire 1 ! display1Time0 [10] $end
$var wire 1 " display1Time0 [9] $end
$var wire 1 # display1Time0 [8] $end
$var wire 1 $ display1Time0 [7] $end
$var wire 1 % display1Time0 [6] $end
$var wire 1 & display1Time0 [5] $end
$var wire 1 ' display1Time0 [4] $end
$var wire 1 ( display1Time0 [3] $end
$var wire 1 ) display1Time0 [2] $end
$var wire 1 * display1Time0 [1] $end
$var wire 1 + display1Time0 [0] $end
$var wire 1 , display1Time1 [10] $end
$var wire 1 - display1Time1 [9] $end
$var wire 1 . display1Time1 [8] $end
$var wire 1 / display1Time1 [7] $end
$var wire 1 0 display1Time1 [6] $end
$var wire 1 1 display1Time1 [5] $end
$var wire 1 2 display1Time1 [4] $end
$var wire 1 3 display1Time1 [3] $end
$var wire 1 4 display1Time1 [2] $end
$var wire 1 5 display1Time1 [1] $end
$var wire 1 6 display1Time1 [0] $end
$var wire 1 7 display2Time0 [10] $end
$var wire 1 8 display2Time0 [9] $end
$var wire 1 9 display2Time0 [8] $end
$var wire 1 : display2Time0 [7] $end
$var wire 1 ; display2Time0 [6] $end
$var wire 1 < display2Time0 [5] $end
$var wire 1 = display2Time0 [4] $end
$var wire 1 > display2Time0 [3] $end
$var wire 1 ? display2Time0 [2] $end
$var wire 1 @ display2Time0 [1] $end
$var wire 1 A display2Time0 [0] $end
$var wire 1 B display2Time1 [10] $end
$var wire 1 C display2Time1 [9] $end
$var wire 1 D display2Time1 [8] $end
$var wire 1 E display2Time1 [7] $end
$var wire 1 F display2Time1 [6] $end
$var wire 1 G display2Time1 [5] $end
$var wire 1 H display2Time1 [4] $end
$var wire 1 I display2Time1 [3] $end
$var wire 1 J display2Time1 [2] $end
$var wire 1 K display2Time1 [1] $end
$var wire 1 L display2Time1 [0] $end
$var wire 1 M pontos [6] $end
$var wire 1 N pontos [5] $end
$var wire 1 O pontos [4] $end
$var wire 1 P pontos [3] $end
$var wire 1 Q pontos [2] $end
$var wire 1 R pontos [1] $end
$var wire 1 S pontos [0] $end
$var wire 1 T timeBasquete $end

$scope module i1 $end
$var wire 1 U gnd $end
$var wire 1 V vcc $end
$var wire 1 W unknown $end
$var wire 1 X devoe $end
$var wire 1 Y devclrn $end
$var wire 1 Z devpor $end
$var wire 1 [ ww_devoe $end
$var wire 1 \ ww_devclrn $end
$var wire 1 ] ww_devpor $end
$var wire 1 ^ ww_pontos [6] $end
$var wire 1 _ ww_pontos [5] $end
$var wire 1 ` ww_pontos [4] $end
$var wire 1 a ww_pontos [3] $end
$var wire 1 b ww_pontos [2] $end
$var wire 1 c ww_pontos [1] $end
$var wire 1 d ww_pontos [0] $end
$var wire 1 e ww_timeBasquete $end
$var wire 1 f ww_display1Time0 [10] $end
$var wire 1 g ww_display1Time0 [9] $end
$var wire 1 h ww_display1Time0 [8] $end
$var wire 1 i ww_display1Time0 [7] $end
$var wire 1 j ww_display1Time0 [6] $end
$var wire 1 k ww_display1Time0 [5] $end
$var wire 1 l ww_display1Time0 [4] $end
$var wire 1 m ww_display1Time0 [3] $end
$var wire 1 n ww_display1Time0 [2] $end
$var wire 1 o ww_display1Time0 [1] $end
$var wire 1 p ww_display1Time0 [0] $end
$var wire 1 q ww_display2Time0 [10] $end
$var wire 1 r ww_display2Time0 [9] $end
$var wire 1 s ww_display2Time0 [8] $end
$var wire 1 t ww_display2Time0 [7] $end
$var wire 1 u ww_display2Time0 [6] $end
$var wire 1 v ww_display2Time0 [5] $end
$var wire 1 w ww_display2Time0 [4] $end
$var wire 1 x ww_display2Time0 [3] $end
$var wire 1 y ww_display2Time0 [2] $end
$var wire 1 z ww_display2Time0 [1] $end
$var wire 1 { ww_display2Time0 [0] $end
$var wire 1 | ww_display1Time1 [10] $end
$var wire 1 } ww_display1Time1 [9] $end
$var wire 1 ~ ww_display1Time1 [8] $end
$var wire 1 !! ww_display1Time1 [7] $end
$var wire 1 "! ww_display1Time1 [6] $end
$var wire 1 #! ww_display1Time1 [5] $end
$var wire 1 $! ww_display1Time1 [4] $end
$var wire 1 %! ww_display1Time1 [3] $end
$var wire 1 &! ww_display1Time1 [2] $end
$var wire 1 '! ww_display1Time1 [1] $end
$var wire 1 (! ww_display1Time1 [0] $end
$var wire 1 )! ww_display2Time1 [10] $end
$var wire 1 *! ww_display2Time1 [9] $end
$var wire 1 +! ww_display2Time1 [8] $end
$var wire 1 ,! ww_display2Time1 [7] $end
$var wire 1 -! ww_display2Time1 [6] $end
$var wire 1 .! ww_display2Time1 [5] $end
$var wire 1 /! ww_display2Time1 [4] $end
$var wire 1 0! ww_display2Time1 [3] $end
$var wire 1 1! ww_display2Time1 [2] $end
$var wire 1 2! ww_display2Time1 [1] $end
$var wire 1 3! ww_display2Time1 [0] $end
$var wire 1 4! \Mux6~7_combout\ $end
$var wire 1 5! \Mux6~0_combout\ $end
$var wire 1 6! \Mux7~2_combout\ $end
$var wire 1 7! \Mux6~8_combout\ $end
$var wire 1 8! \Mux6~1_combout\ $end
$var wire 1 9! \timeBasquete~combout\ $end
$var wire 1 :! \Mux6~4_combout\ $end
$var wire 1 ;! \Mux6~2_combout\ $end
$var wire 1 <! \Mux6~3_combout\ $end
$var wire 1 =! \Mux6~5_combout\ $end
$var wire 1 >! \Mux6~6_combout\ $end
$var wire 1 ?! \Mux6~9_combout\ $end
$var wire 1 @! \Mux19~0_combout\ $end
$var wire 1 A! \Mux4~1_combout\ $end
$var wire 1 B! \Mux6~19_combout\ $end
$var wire 1 C! \Mux19~1_combout\ $end
$var wire 1 D! \Mux5~2_combout\ $end
$var wire 1 E! \Mux4~0_combout\ $end
$var wire 1 F! \Mux19~2_combout\ $end
$var wire 1 G! \Mux5~4_combout\ $end
$var wire 1 H! \Mux5~3_combout\ $end
$var wire 1 I! \Mux4~6_combout\ $end
$var wire 1 J! \Mux18~3_combout\ $end
$var wire 1 K! \Mux15~4_combout\ $end
$var wire 1 L! \Mux18~4_combout\ $end
$var wire 1 M! \Mux4~7_combout\ $end
$var wire 1 N! \Mux18~0_combout\ $end
$var wire 1 O! \Mux18~1_combout\ $end
$var wire 1 P! \Mux4~2_combout\ $end
$var wire 1 Q! \Mux4~3_combout\ $end
$var wire 1 R! \Mux18~2_combout\ $end
$var wire 1 S! \Mux4~4_combout\ $end
$var wire 1 T! \Mux4~5_combout\ $end
$var wire 1 U! \Mux4~8_combout\ $end
$var wire 1 V! \Mux0~3_combout\ $end
$var wire 1 W! \Mux4~9_combout\ $end
$var wire 1 X! \Mux0~0_combout\ $end
$var wire 1 Y! \Mux6~10_combout\ $end
$var wire 1 Z! \Mux0~1_combout\ $end
$var wire 1 [! \Mux3~0_combout\ $end
$var wire 1 \! \Mux2~2_combout\ $end
$var wire 1 ]! \Mux2~3_combout\ $end
$var wire 1 ^! \Mux4~10_combout\ $end
$var wire 1 _! \Mux1~6_combout\ $end
$var wire 1 `! \Mux1~4_combout\ $end
$var wire 1 a! \Mux15~5_combout\ $end
$var wire 1 b! \Mux1~5_combout\ $end
$var wire 1 c! \Mux1~7_combout\ $end
$var wire 1 d! \Mux1~8_combout\ $end
$var wire 1 e! \Mux0~2_combout\ $end
$var wire 1 f! \Mux13~12_combout\ $end
$var wire 1 g! \Mux6~12_combout\ $end
$var wire 1 h! \Mux13~13_combout\ $end
$var wire 1 i! \Mux13~14_combout\ $end
$var wire 1 j! \Mux13~15_combout\ $end
$var wire 1 k! \Mux13~16_combout\ $end
$var wire 1 l! \Mux13~5_combout\ $end
$var wire 1 m! \Mux13~6_combout\ $end
$var wire 1 n! \Mux13~19_combout\ $end
$var wire 1 o! \Mux13~17_combout\ $end
$var wire 1 p! \Mux6~11_combout\ $end
$var wire 1 q! \Mux13~23_combout\ $end
$var wire 1 r! \Mux13~7_combout\ $end
$var wire 1 s! \Mux13~8_combout\ $end
$var wire 1 t! \Mux13~4_combout\ $end
$var wire 1 u! \Mux13~21_combout\ $end
$var wire 1 v! \Mux13~9_combout\ $end
$var wire 1 w! \Mux13~10_combout\ $end
$var wire 1 x! \Mux13~11_combout\ $end
$var wire 1 y! \Mux13~18_combout\ $end
$var wire 1 z! \Mux13~22_combout\ $end
$var wire 1 {! \Mux26~12_combout\ $end
$var wire 1 |! \Mux13~20_combout\ $end
$var wire 1 }! \Mux7~3_combout\ $end
$var wire 1 ~! \Mux9~0_combout\ $end
$var wire 1 !" \Mux9~1_combout\ $end
$var wire 1 "" \Mux9~2_combout\ $end
$var wire 1 #" \Mux9~3_combout\ $end
$var wire 1 $" \Mux26~11_combout\ $end
$var wire 1 %" \Mux12~11_combout\ $end
$var wire 1 &" \Mux12~14_combout\ $end
$var wire 1 '" \Mux12~15_combout\ $end
$var wire 1 (" \Mux12~5_combout\ $end
$var wire 1 )" \Mux12~4_combout\ $end
$var wire 1 *" \Mux12~3_combout\ $end
$var wire 1 +" \Mux12~13_combout\ $end
$var wire 1 ," \Mux12~12_combout\ $end
$var wire 1 -" \Mux25~14_combout\ $end
$var wire 1 ." \Mux25~13_combout\ $end
$var wire 1 /" \Mux25~15_combout\ $end
$var wire 1 0" \Mux25~16_combout\ $end
$var wire 1 1" \Mux11~6_combout\ $end
$var wire 1 2" \Mux11~7_combout\ $end
$var wire 1 3" \Mux11~5_combout\ $end
$var wire 1 4" \Mux11~16_combout\ $end
$var wire 1 5" \Mux11~17_combout\ $end
$var wire 1 6" \Mux11~15_combout\ $end
$var wire 1 7" \Mux11~14_combout\ $end
$var wire 1 8" \Mux11~13_combout\ $end
$var wire 1 9" \Mux10~7_combout\ $end
$var wire 1 :" \Mux10~8_combout\ $end
$var wire 1 ;" \Mux10~6_combout\ $end
$var wire 1 <" \Mux10~4_combout\ $end
$var wire 1 =" \Mux10~5_combout\ $end
$var wire 1 >" \Mux10~3_combout\ $end
$var wire 1 ?" \Mux10~12_combout\ $end
$var wire 1 @" \Mux7~5_combout\ $end
$var wire 1 A" \Mux7~4_combout\ $end
$var wire 1 B" \Mux7~14_combout\ $end
$var wire 1 C" \Mux19~3_combout\ $end
$var wire 1 D" \Mux4~11_combout\ $end
$var wire 1 E" \Mux7~6_combout\ $end
$var wire 1 F" \Mux10~11_combout\ $end
$var wire 1 G" \Mux9~4_combout\ $end
$var wire 1 H" \Mux22~0_combout\ $end
$var wire 1 I" \Mux7~8_combout\ $end
$var wire 1 J" \Mux7~9_combout\ $end
$var wire 1 K" \Mux22~1_combout\ $end
$var wire 1 L" \Mux21~0_combout\ $end
$var wire 1 M" \Mux8~0_combout\ $end
$var wire 1 N" \Mux4~14_combout\ $end
$var wire 1 O" \Mux7~7_combout\ $end
$var wire 1 P" \Mux8~1_combout\ $end
$var wire 1 Q" \Mux7~10_combout\ $end
$var wire 1 R" \Mux7~11_combout\ $end
$var wire 1 S" \Mux7~12_combout\ $end
$var wire 1 T" \Mux7~13_combout\ $end
$var wire 1 U" \Mux4~12_combout\ $end
$var wire 1 V" \Mux4~13_combout\ $end
$var wire 1 W" \Mux20~0_combout\ $end
$var wire 1 X" \Mux20~1_combout\ $end
$var wire 1 Y" \Mux20~2_combout\ $end
$var wire 1 Z" \Mux6~14_combout\ $end
$var wire 1 [" \Mux6~13_combout\ $end
$var wire 1 \" \Mux19~4_combout\ $end
$var wire 1 ]" \Mux6~20_combout\ $end
$var wire 1 ^" \Mux19~5_combout\ $end
$var wire 1 _" \Mux6~15_combout\ $end
$var wire 1 `" \Mux6~16_combout\ $end
$var wire 1 a" \Mux18~5_combout\ $end
$var wire 1 b" \Mux18~6_combout\ $end
$var wire 1 c" \Mux18~7_combout\ $end
$var wire 1 d" \Mux14~0_combout\ $end
$var wire 1 e" \Mux17~0_combout\ $end
$var wire 1 f" \Mux16~2_combout\ $end
$var wire 1 g" \Mux15~6_combout\ $end
$var wire 1 h" \Mux6~17_combout\ $end
$var wire 1 i" \Mux15~8_combout\ $end
$var wire 1 j" \Mux15~7_combout\ $end
$var wire 1 k" \Mux15~9_combout\ $end
$var wire 1 l" \Mux15~10_combout\ $end
$var wire 1 m" \Mux27~2_combout\ $end
$var wire 1 n" \Mux27~3_combout\ $end
$var wire 1 o" \Mux27~4_combout\ $end
$var wire 1 p" \Mux27~5_combout\ $end
$var wire 1 q" \Mux23~0_combout\ $end
$var wire 1 r" \Mux26~16_combout\ $end
$var wire 1 s" \Mux26~17_combout\ $end
$var wire 1 t" \Mux26~5_combout\ $end
$var wire 1 u" \Mux26~4_combout\ $end
$var wire 1 v" \Mux26~3_combout\ $end
$var wire 1 w" \Mux26~15_combout\ $end
$var wire 1 x" \Mux26~13_combout\ $end
$var wire 1 y" \Mux26~14_combout\ $end
$var wire 1 z" \Mux25~20_combout\ $end
$var wire 1 {" \Mux25~21_combout\ $end
$var wire 1 |" \Mux25~6_combout\ $end
$var wire 1 }" \Mux25~7_combout\ $end
$var wire 1 ~" \Mux25~5_combout\ $end
$var wire 1 !# \Mux25~19_combout\ $end
$var wire 1 "# \Mux25~18_combout\ $end
$var wire 1 ## \Mux25~17_combout\ $end
$var wire 1 $# \Mux24~12_combout\ $end
$var wire 1 %# \Mux21~1_combout\ $end
$var wire 1 &# \Mux24~11_combout\ $end
$var wire 1 '# \Mux23~1_combout\ $end
$var wire 1 (# \Mux6~21_combout\ $end
$var wire 1 )# \Mux21~2_combout\ $end
$var wire 1 *# \Mux22~2_combout\ $end
$var wire 1 +# \Mux6~18_combout\ $end
$var wire 1 ,# \Mux22~3_combout\ $end
$var wire 1 -# \Mux21~3_combout\ $end
$var wire 1 .# \Mux21~4_combout\ $end
$var wire 1 /# \pontos~combout\ [6] $end
$var wire 1 0# \pontos~combout\ [5] $end
$var wire 1 1# \pontos~combout\ [4] $end
$var wire 1 2# \pontos~combout\ [3] $end
$var wire 1 3# \pontos~combout\ [2] $end
$var wire 1 4# \pontos~combout\ [1] $end
$var wire 1 5# \pontos~combout\ [0] $end
$var wire 1 6# \ALT_INV_Mux2~3_combout\ $end
$var wire 1 7# \ALT_INV_Mux7~13_combout\ $end
$var wire 1 8# \ALT_INV_Mux9~4_combout\ $end
$upscope $end
$upscope $end
$enddefinitions $end
#0
$dumpvars
0T
0U
1V
xW
1X
1Y
1Z
1[
1\
1]
0e
04!
05!
06!
07!
18!
09!
0:!
0;!
0<!
0=!
1>!
1?!
0@!
1A!
1B!
0C!
0D!
1E!
0F!
0G!
0H!
0I!
1J!
0K!
1L!
0M!
0N!
1O!
1P!
0Q!
0R!
0S!
0T!
0U!
0V!
1W!
0X!
0Y!
1Z!
0[!
0\!
1]!
1^!
1_!
1`!
0a!
0b!
0c!
0d!
0e!
0f!
0g!
0h!
0i!
0j!
0k!
1l!
0m!
1n!
0o!
0p!
0q!
0r!
0s!
1t!
1u!
1v!
1w!
0x!
0y!
1z!
0{!
0|!
0}!
0~!
0!"
0""
0#"
0$"
0%"
0&"
0'"
0("
0)"
0*"
0+"
0,"
0-"
1."
1/"
00"
01"
02"
03"
14"
15"
06"
07"
08"
09"
1:"
0;"
1<"
1="
1>"
1?"
0@"
1A"
0B"
0C"
0D"
1E"
0F"
1G"
0H"
1I"
0J"
0K"
1L"
0M"
1N"
1O"
0P"
0Q"
0R"
0S"
1T"
1U"
1V"
0W"
1X"
1Y"
0Z"
0["
0\"
0]"
0^"
0_"
0`"
0a"
0b"
0c"
0d"
0e"
0f"
0g"
0h"
0i"
0j"
0k"
0l"
1m"
1n"
1o"
1p"
0q"
0r"
0s"
0t"
0u"
0v"
0w"
0x"
0y"
1z"
1{"
0|"
1}"
0~"
0!#
0"#
0##
0$#
0%#
0&#
0'#
0(#
0)#
0*#
0+#
0,#
1-#
0.#
06#
07#
08#
0M
0N
0O
0P
0Q
0R
0S
0^
0_
0`
0a
0b
0c
0d
0f
1g
1h
1i
0j
0k
0l
0m
0n
0o
1p
1q
0r
1s
1t
0u
0v
0w
0x
0y
0z
1{
1|
1}
0~
1!!
0"!
0#!
0$!
0%!
0&!
0'!
1(!
1)!
1*!
1+!
0,!
0-!
0.!
0/!
00!
01!
02!
13!
0/#
00#
01#
02#
03#
04#
05#
0!
1"
1#
1$
0%
0&
0'
0(
0)
0*
1+
1,
1-
0.
1/
00
01
02
03
04
05
16
17
08
19
1:
0;
0<
0=
0>
0?
0@
1A
1B
1C
1D
0E
0F
0G
0H
0I
0J
0K
1L
$end
#5000
1S
1d
15#
0t!
1{!
1-"
17"
1F"
1K"
0L"
1S"
0-#
0T"
1x
18"
10"
1%"
17#
1>
1,"
1y
1u
1?
1z
1;
1@
#10000
0S
1R
0d
1c
14#
05#
1t!
0{!
0-"
07"
0F"
0K"
1L"
0S"
1-#
1:!
0P!
0W!
0^!
0n!
1p!
1}!
1&"
1("
1)"
04"
19"
0:"
0<"
0="
1D"
0N"
1r"
1t"
1u"
0{"
0}"
1v"
1s"
0I"
0>"
1;"
05"
1*"
1'"
1#"
0O"
0z!
1T!
1T"
0x
00"
0%"
07#
0>
0,"
08"
0{
1%"
0G"
1+"
0?"
1J"
0u
18#
0A
1,"
0y
0z
0;
1w
0@
0?
1z
1=
1@
#15000
1S
1d
15#
0t!
1{!
1-"
17"
1G"
1K"
0L"
1Q"
1S"
0-#
08#
18"
10"
0w
1y
0=
1?
#20000
0S
0R
1Q
0d
0c
1b
13#
04#
05#
0-"
07"
0G"
0K"
0S"
0:!
1P!
1W!
1^!
1n!
0p!
0}!
0&"
0("
0)"
0D"
1N"
0r"
0t"
0u"
1{"
1}"
1@!
1\!
1a!
1f!
1j!
1m!
1q!
1r!
1t!
0{!
1|!
11"
09"
1="
1B"
1C"
1H"
0z"
18#
0{"
0;"
13"
0n!
1S"
1~"
0v"
0s"
0E"
0Q"
0*"
0'"
0#"
1O"
1z!
0T!
1M"
1*#
00"
1w
08"
1{
0%"
1G"
0+"
1F"
0T"
0z!
16"
1=
17#
08#
1A
17"
1x
0,"
0{
0y
0w
1u
0A
0?
1>
0z
18"
0=
1;
0@
1y
1?
#25000
1S
1d
15#
1h!
1s!
0t!
1$"
1-"
0F"
0H"
1K"
0S"
1-#
1T"
0*#
1P"
1,#
0x
10"
0v!
1k!
07#
0>
0w!
1x!
0m"
1.!
1v
0,#
0u
1G
1<
0.!
0x!
0;
0G
#30000
0S
1R
0d
1c
14#
05#
0h!
0s!
1t!
0$"
0-"
1F"
1H"
0K"
1S"
0-#
1:!
1F!
0P!
0W!
0^!
1n!
1p!
1}!
1&"
1("
1)"
01"
19"
1:"
1<"
0="
1D"
0N"
1r"
1t"
1u"
0}"
0~"
1v"
1s"
1E"
1Q"
1>"
1;"
03"
1*"
1'"
0O"
1z!
1T!
1G!
0T"
1*#
0P"
1x
00"
1v!
0k!
17#
1>
0n!
1w!
1x!
1m"
0v
1{
1P"
1+"
06"
1?"
1T"
0F"
1u
07#
1A
0<
0x
07"
1v
1y!
0x!
0z!
1;
0u
0>
1<
0{
0y!
1z!
08"
0;
0A
0y
0z!
1{
1A
0?
0{
0A
#35000
1S
1d
15#
1h!
1s!
0t!
1$"
1-"
17"
1F"
0H"
1K"
0Q"
0S"
1-#
0M"
0*#
1,#
1x
18"
10"
1,"
0v!
1k!
1>
1n!
0w!
1x!
0m"
1z
1y
1.!
0,#
0P"
1@
1?
1G
0v
0.!
0x!
1z!
0<
0G
1{
1A
#40000
0S
0R
0Q
1P
0d
0c
0b
1a
12#
03#
04#
05#
0h!
0s!
07"
0F"
0K"
1S"
0:!
1P!
1W!
1^!
0n!
0p!
0@!
0j!
0m!
0q!
1t!
0|!
0B"
0C"
1L"
0E!
0L!
1X!
0a!
0f!
0r!
0}!
1!"
0$"
0-"
12"
09"
0:"
0<"
1N"
1z"
0>"
0;"
1""
1O"
00"
0Z!
1U!
0S"
0z!
0X!
0T!
0,"
0T"
0x
1v!
17#
0>
1w!
1m"
0z
0U!
1Z!
0{
1T"
1n
1[!
1e!
08"
0?"
1u
07#
0A
0@
1)
0y
1j
1m
0[!
0e!
0n
1;
0u
0?
0)
1(
1%
0m
0j
0;
0(
0%
#45000
1S
1d
15#
0t!
1{!
1$"
1-"
17"
1K"
0L"
1Q"
1S"
0-#
18"
10"
1,"
1%"
1x"
0,"
1z
1y
1@
1?
0z
0@
#50000
0S
1R
0d
1c
14#
05#
1t!
0{!
0$"
0-"
07"
0K"
1L"
0Q"
0S"
1-#
1:!
0A!
0P!
0W!
0^!
1n!
1p!
0!"
0&"
0("
0)"
02"
14"
1:"
1<"
1="
0D"
0r"
0t"
0u"
1{"
1}"
0v"
0s"
1I"
1>"
15"
0*"
0'"
0""
1z!
1X!
1T!
1D!
00"
1,"
0%"
0x"
1y"
12!
0y"
0,"
1z
08"
1H!
1U!
0Z!
1{
0+"
1?"
0J"
1K
1A
1@
1[!
1e!
1n
1o
0y
0z
02!
1*
1)
0@
0?
0K
1j
1m
1(
1%
#55000
1S
1d
15#
0t!
1{!
1$"
1-"
17"
1F"
1K"
0L"
1S"
0-#
0T"
1x
18"
10"
1%"
1x"
17#
1>
1,"
1y
1u
1?
1z
1;
1@
#60000
0S
0R
1Q
0d
0c
1b
13#
04#
05#
0$"
0-"
07"
0F"
0K"
0S"
0:!
1A!
1P!
1W!
1^!
0n!
0p!
1!"
1&"
1("
1)"
1D"
1r"
1t"
1u"
0{"
0}"
1@!
1I!
1a!
1j!
1m!
1q!
1r!
1t!
0{!
1|!
04"
05"
19"
0:"
0<"
0="
1B"
1C"
1H"
0I"
0z"
1~"
1J"
0>"
1;"
1y"
0k!
1S"
1M!
0~"
1v"
1s"
1Q"
1*"
1'"
1""
0z!
0T!
0D!
1T"
1M"
1*#
0x
00"
0%"
0x"
07#
0>
0y"
0,"
08"
0{
1#"
1+"
12!
0?"
0u
0A
1K
1%"
0G"
0y
0z
02!
0;
18#
0@
0?
0K
1,"
1w
1z
1=
1@
#65000
1S
1d
15#
1s!
0t!
1$"
1-"
17"
1G"
0H"
1K"
0Q"
0S"
1-#
08#
0M"
0*#
1P"
1,#
18"
10"
0%"
0,"
0v!
0w
0w!
1x!
0m"
0z
1,"
1y
1.!
1v
0,#
0P"
0=
0@
1?
1<
1G
0v
0.!
1z
1y!
0x!
1@
0<
0G
0y!
1z!
1{
0z!
1A
0{
0A
#70000
0S
1R
0d
1c
14#
05#
0s!
1t!
0$"
0-"
07"
0G"
1H"
0K"
1Q"
1S"
0-#
1:!
0A!
0P!
0W!
0\!
0^!
1p!
0!"
0&"
0("
0)"
11"
14"
09"
1="
0D"
0r"
0t"
0u"
1}"
18#
1~"
0v"
0s"
0E"
0Q"
0;"
13"
0*"
0'"
0""
1T!
1M"
1*#
00"
1%"
0,"
1v!
1w
1w!
1x!
1m"
0z
1,"
08"
0#"
0+"
16"
0T"
1F"
1=
17#
0@
1x
17"
0%"
1G"
0y
1z
1y!
0x!
1u
08#
1@
0?
1>
0y!
1z!
0,"
18"
1;
0w
1y
0z
1{
0z!
0=
1A
0@
1?
0{
0A
#75000
1S
1d
15#
1s!
0t!
1$"
1-"
0F"
0H"
1K"
0S"
1-#
1T"
0*#
1P"
1,#
0x
10"
0v!
07#
0>
0w!
1x!
0m"
1.!
1v
0,#
0u
1G
1<
0.!
1y!
0x!
0;
0G
0y!
1z!
1{
0z!
1A
0{
0A
#80000
0S
0R
0Q
0P
1O
0d
0c
0b
0a
1`
11#
02#
03#
04#
05#
0s!
1F"
1S"
0:!
1P!
1W!
1^!
0p!
1I"
0~"
1A!
1E!
1L!
0$"
01"
1:"
1<"
0@!
1C!
0F!
0J!
1K!
1N!
1V!
0X!
0a!
1b!
1f!
0r!
1("
1)"
0-"
0."
03"
1>"
0A"
0C"
1L"
1j"
1t"
1u"
0}"
1v"
0M"
0B"
1?"
06"
1*"
1s!
00"
0b!
0j"
0O!
0L!
0G!
1;"
0H!
1D!
0J"
0T!
0T"
1x
1v!
17#
1>
1w!
1m"
1M"
0o
1H!
0v!
1+"
07"
1E"
0S"
0P"
1u
0*
0v
1T"
0F"
08"
0w!
0m"
1o
1P"
1x!
1;
07#
0<
1*
1y!
0x!
0y
0x
1v
0u
0?
0>
1<
0y!
1z!
0;
1{
0z!
1A
0{
0A
#85000
1S
1d
15#
16!
1i!
1$"
1-"
17"
1F"
0L"
0M"
1x
18"
10"
1,"
1n!
1o!
1>
1z!
1z
1y
0P"
1@
1?
0v
1{
1A
0<
#90000
0S
1R
0d
1c
14#
05#
06!
0i!
0$"
0-"
07"
0F"
1L"
1:!
0P!
0W!
0^!
0n!
1p!
1}!
1&"
0)"
04"
19"
0:"
0<"
0="
1D"
0N"
1r"
0u"
0v"
1s"
0I"
0>"
0;"
0*"
1'"
0O"
0z!
1M"
0x
00"
0,"
0o!
0>
0z
08"
0{
1P"
0+"
0?"
1J"
0A
0@
0M"
1v
0y
0?
1<
0P"
0v
0<
#95000
1S
1d
15#
16!
1i!
1$"
1-"
17"
0L"
18"
10"
1o!
1y
1?
#100000
0S
0R
1Q
0d
0c
1b
13#
04#
05#
06!
0$"
0-"
07"
0:!
1P!
1W!
1^!
1n!
0p!
0}!
0&"
1)"
0D"
1N"
0r"
1u"
14!
08!
1<!
0I!
0V!
1\!
1a!
0f!
0i!
0j!
0m!
0o!
0u!
0|!
1+"
11"
09"
1="
1L"
1>"
1m"
0n"
0s!
1b!
1j"
0]!
1Z!
0M!
0>!
1W"
0X"
1v"
0s"
1*"
0'"
1O"
1z!
00"
17!
16#
08"
1{
0+"
1X"
0?!
0U!
0[!
0e!
1u!
1v!
0o"
1n"
1?"
1l
1A
1o"
1w!
0j
0m
0n
0p
0y
1'
0+
0)
0(
0%
0?
#105000
1S
1d
15#
16!
18!
1t!
1{!
1-"
17"
1F"
0L"
1S"
0-#
0T"
1x
18"
10"
1%"
1=!
1>!
17#
1>
0>!
1,"
1y
1u
1?
1z
1;
1@
#110000
0S
1R
0d
1c
14#
05#
06!
08!
0t!
0{!
0-"
07"
0F"
1L"
0S"
1-#
1:!
0P!
0W!
0^!
0n!
1p!
1}!
1&"
0)"
0/"
01"
19"
1:"
1<"
0="
1D"
0N"
1r"
0u"
0v"
1s"
0>"
1;"
0*"
1'"
1#"
0O"
0z!
1T"
0x
00"
0%"
0=!
1>!
07#
0>
0>!
0,"
08"
0{
1%"
0G"
1+"
0?"
0u
18#
0A
1,"
0y
0z
0;
1w
0@
0?
1z
1=
1@
#115000
1S
1d
15#
16!
18!
1t!
1{!
1-"
17"
1G"
0L"
1Q"
1S"
0-#
08#
18"
10"
1=!
1>!
0w
0>!
1y
0=
1?
#120000
0S
0R
0Q
1P
0d
0c
0b
1a
12#
03#
04#
05#
06!
07"
0G"
0S"
0:!
1P!
1W!
1^!
1n!
0p!
1/"
0<!
1V!
1j!
1m!
0t!
0{!
1|!
0+"
1L"
0Q"
1-#
0E!
1L!
1k!
1o!
1r!
0}!
0("
0-"
1."
12"
09"
0:"
0<"
1N"
0t"
1|"
18#
1~"
0;"
13"
1O"
0#"
0n!
0k!
0W"
00"
1z!
1A"
0=!
0o!
1w
1>!
1B"
1{
08"
0z!
0%"
1G"
16"
1=
08#
1A
17"
0,"
0y
0{
0E"
1S"
0w
0A
0?
0T"
1F"
0z
18"
0=
17#
0@
1y
1x
1u
1?
1>
1;
#125000
1S
1d
15#
16!
1i!
1s!
1$"
1-"
0F"
0L"
0S"
1T"
1M"
0x
10"
0v!
1k!
1n!
1o!
07#
0>
1z!
0n!
0w!
1x!
0m"
1P"
0u
1v
0x!
0z!
1{
0;
1A
1<
0{
0A
#130000
0S
1R
0d
1c
14#
05#
06!
0i!
0s!
0$"
0-"
1F"
1L"
1S"
1:!
0A!
0P!
0W!
0^!
1n!
1p!
0&"
1("
1)"
02"
14"
1:"
1<"
1="
0D"
0r"
1t"
1u"
0|"
0~"
1v"
0s"
1I"
1>"
1;"
03"
1*"
0'"
1z!
0A"
1S!
0T"
0M"
1x
00"
1v!
0k!
0o!
17#
1>
0n!
1w!
1x!
1m"
0P"
1T!
0B"
1{
1+"
06"
1?"
0J"
1u
1A
1M"
07"
1E"
0S"
0v
1y!
0x!
0z!
1;
0<
0{
0y!
1z!
1T"
0F"
08"
1P"
07#
0A
1v
0y
0x
0z!
1{
0u
1A
0?
0>
1<
0{
0;
0A
#135000
1S
1d
15#
16!
1i!
1s!
1$"
1-"
17"
1F"
0L"
0M"
1x
18"
10"
1,"
0v!
1k!
1o!
1>
1n!
0w!
1x!
0m"
1z
1y
0P"
1@
1?
0v
0x!
1z!
0<
1{
1A
#140000
0S
0R
1Q
0d
0c
1b
13#
04#
05#
06!
0s!
0$"
0-"
07"
0F"
0:!
1A!
1P!
1W!
1^!
0n!
0p!
1&"
0("
0)"
1D"
1r"
0t"
0u"
1|"
08!
1<!
0L!
0V!
0i!
0j!
0m!
0o!
0r!
0u!
0|!
0+"
04"
15"
19"
0:"
0<"
0="
0I"
1L"
1z"
1M"
1J"
0>"
0;"
05"
1m"
0n"
1U!
0>!
1W"
0X"
0v"
1s"
0*"
1'"
0z!
1A"
0S!
0x
00"
0,"
1u!
1v!
0>
1w!
0z
08"
0T!
0{
1+"
1X"
1n
1n"
0?"
0M"
1P"
0A
0@
1)
1v
0P"
0U!
0y
0?
1<
0n
0v
0)
0<
#145000
1S
1d
15#
16!
18!
1t!
1{!
1$"
1-"
17"
0L"
1Q"
1S"
0-#
18"
10"
1,"
1%"
1x"
1=!
1>!
0>!
0,"
1z
1y
1@
1?
0z
0@
