simulation/qsim/placar.msim.vcd
$comment
	File created using the following command:
		vcd file placar.msim.vcd -direction
$end
$date
	Mon Apr 04 13:29:45 2022
$end
$version
	ModelSim Version 10.5b
$end
$timescale
	1ps
$end

$scope module somador1bt_vlg_vec_tst $end
$var reg 1 ! A $end
$var reg 1 " B $end
$var reg 1 # Cin $end
$var wire 1 $ Cout $end
$var wire 1 % S $end

$scope module i1 $end
$var wire 1 & gnd $end
$var wire 1 ' vcc $end
$var wire 1 ( unknown $end
$var tri1 1 ) devclrn $end
$var tri1 1 * devpor $end
$var tri1 1 + devoe $end
$var wire 1 , Cin~combout $end
$var wire 1 - A~combout $end
$var wire 1 . B~combout $end
$var wire 1 / Xor1~0_combout $end
$var wire 1 0 Or0~0_combout $end
$upscope $end
$upscope $end
$enddefinitions $end
#0
$dumpvars
0!
0"
0#
0$
0%
0&
1'
x(
1)
1*
1+
0,
0-
0.
0/
00
$end
#10000
1#
1,
1/
1%
#20000
1"
0#
1.
0,
#30000
1#
1,
10
0/
1$
0%
#40000
1!
0"
0#
1-
0.
0,
00
1/
0$
1%
#50000
1#
1,
10
0/
1$
0%
#60000
1"
0#
1.
0,
#70000
1#
1,
1/
1%
#80000
0!
0"
0#
0-
0.
0,
00
0/
0$
0%
#90000
1#
1,
1/
1%
#100000
1"
0#
1.
0,
#110000
1#
1,
10
0/
1$
0%
#120000
1!
0"
0#
1-
0.
0,
00
1/
0$
1%
#130000
1#
1,
10
0/
1$
0%
#140000
1"
0#
1.
0,
#150000
1#
1,
1/
1%
#160000
0!
0"
0#
0-
0.
0,
00
0/
0$
0%
#170000
1#
1,
1/
1%
