simulation/qsim/Placar.msim.vcd
$comment
	File created using the following command:
		vcd file Placar.msim.vcd -direction
$end
$date
	Mon Apr 11 19:01:58 2022
$end
$version
	ModelSim Version 10.5b
$end
$timescale
	1ps
$end

$scope module somador1bt_vhd_vec_tst $end
$var wire 1 ! A $end
$var wire 1 " B $end
$var wire 1 # Cin $end
$var wire 1 $ Cout $end
$var wire 1 % S $end

$scope module i1 $end
$var wire 1 & gnd $end
$var wire 1 ' vcc $end
$var wire 1 ( unknown $end
$var wire 1 ) devoe $end
$var wire 1 * devclrn $end
$var wire 1 + devpor $end
$var wire 1 , ww_devoe $end
$var wire 1 - ww_devclrn $end
$var wire 1 . ww_devpor $end
$var wire 1 / ww_A $end
$var wire 1 0 ww_B $end
$var wire 1 1 ww_Cin $end
$var wire 1 2 ww_S $end
$var wire 1 3 ww_Cout $end
$var wire 1 4 \B~combout\ $end
$var wire 1 5 \A~combout\ $end
$var wire 1 6 \Cin~combout\ $end
$var wire 1 7 \Xor1~0_combout\ $end
$var wire 1 8 \Or0~0_combout\ $end
$upscope $end
$upscope $end
$enddefinitions $end
#0
$dumpvars
0!
0"
0#
0$
0%
0&
1'
x(
1)
1*
1+
1,
1-
1.
0/
00
01
02
03
04
05
06
07
08
$end
#5000
1!
1/
15
17
12
1%
#10000
0!
1"
0/
10
14
05
#15000
1!
1/
15
07
18
13
02
1$
0%
#20000
0!
0"
1#
0/
00
11
16
04
05
17
08
03
12
0$
1%
#25000
1!
1/
15
07
18
13
02
1$
0%
#30000
0!
1"
0/
10
14
05
#35000
1!
1/
15
17
12
1%
#40000
0!
0"
0#
0/
00
01
06
04
05
07
08
03
02
0$
0%
#45000
1!
1/
15
17
12
1%
#50000
0!
1"
0/
10
14
05
#55000
1!
1/
15
07
18
13
02
1$
0%
#60000
0!
0"
1#
0/
00
11
16
04
05
17
08
03
12
0$
1%
#65000
1!
1/
15
07
18
13
02
1$
0%
#70000
0!
1"
0/
10
14
05
#75000
1!
1/
15
17
12
1%
