simulation/qsim/Placar.msim.vcd
$comment
	File created using the following command:
		vcd file placar.msim.vcd -direction
$end
$date
	Mon Apr 11 20:12:16 2022
$end
$version
	ModelSim Version 10.5b
$end
$timescale
	1ps
$end

$scope module conversorBinarioBcd_vlg_vec_tst $end
$var reg 7 ! A [6:0] $end
$var wire 1 " B [7] $end
$var wire 1 # B [6] $end
$var wire 1 $ B [5] $end
$var wire 1 % B [4] $end
$var wire 1 & B [3] $end
$var wire 1 ' B [2] $end
$var wire 1 ( B [1] $end
$var wire 1 ) B [0] $end
$var wire 1 * Passou99 $end

$scope module i1 $end
$var wire 1 + gnd $end
$var wire 1 , vcc $end
$var wire 1 - unknown $end
$var tri1 1 . devclrn $end
$var tri1 1 / devpor $end
$var tri1 1 0 devoe $end
$var wire 1 1 orB00~0_combout $end
$var wire 1 2 orB00~1_combout $end
$var wire 1 3 orB10~0_combout $end
$var wire 1 4 orB20~4_combout $end
$var wire 1 5 orB20~5_combout $end
$var wire 1 6 orB30~6_combout $end
$var wire 1 7 orB30~4_combout $end
$var wire 1 8 orB30~3_combout $end
$var wire 1 9 orB30~8_combout $end
$var wire 1 : orB30~7_combout $end
$var wire 1 ; orB30~9_combout $end
$var wire 1 < orB40~9_combout $end
$var wire 1 = orB40~5_combout $end
$var wire 1 > orB40~6_combout $end
$var wire 1 ? orB40~10_combout $end
$var wire 1 @ orB40~8_combout $end
$var wire 1 A orB40~11_combout $end
$var wire 1 B orB50~6_combout $end
$var wire 1 C orB50~4_combout $end
$var wire 1 D orB50~3_combout $end
$var wire 1 E orB50~8_combout $end
$var wire 1 F orB50~7_combout $end
$var wire 1 G orB50~9_combout $end
$var wire 1 H orB60~6_combout $end
$var wire 1 I orB60~7_combout $end
$var wire 1 J orB60~3_combout $end
$var wire 1 K orB60~4_combout $end
$var wire 1 L orB60~8_combout $end
$var wire 1 M orB60~9_combout $end
$var wire 1 N orB70~2_combout $end
$var wire 1 O orB70~5_combout $end
$var wire 1 P orB70~3_combout $end
$var wire 1 Q orB70~4_combout $end
$var wire 1 R A~combout [6] $end
$var wire 1 S A~combout [5] $end
$var wire 1 T A~combout [4] $end
$var wire 1 U A~combout [3] $end
$var wire 1 V A~combout [2] $end
$var wire 1 W A~combout [1] $end
$var wire 1 X A~combout [0] $end
$upscope $end
$upscope $end
$enddefinitions $end
#0
$dumpvars
b0 !
0)
0(
0'
0&
0%
0$
0#
0"
0*
0+
1,
x-
1.
1/
10
11
02
03
04
05
16
07
08
09
0:
0;
0<
0=
0>
0?
0@
0A
0B
1C
0D
0E
1F
0G
0H
0I
0J
1K
0L
0M
0N
0O
0P
0Q
0X
0W
0V
0U
0T
0S
0R
$end
#10000
b1 !
1X
1Q
1"
#20000
b11 !
b10 !
0X
1W
0Q
0K
1J
1I
1H
1B
1L
0"
1M
1#
#30000
b11 !
1X
1Q
1"
#40000
b111 !
b101 !
b100 !
0X
0W
1V
0Q
1N
0J
0I
0H
0B
1E
1@
0L
1G
0"
0M
1$
0#
#50000
b101 !
1X
1Q
1"
#60000
b111 !
b110 !
0X
1W
0Q
1J
1I
1B
1L
0"
1M
1#
#70000
b111 !
1X
1Q
1"
#80000
b1111 !
b1011 !
b1001 !
b1000 !
0X
0W
0V
1U
0Q
0J
0I
1H
0C
0B
17
06
0E
1=
0L
0G
1?
0"
0M
1A
0$
0#
1%
#90000
b1001 !
1X
1Q
1"
#100000
b1011 !
b1010 !
0X
1W
0Q
0N
1K
0H
1C
0?
1:
18
01
0A
19
0"
1;
0%
1&
#110000
b1011 !
1X
1Q
1"
#120000
b1111 !
b1101 !
b1100 !
0X
0W
1V
0Q
0K
1J
1I
1H
0C
1?
0:
08
1E
0@
0=
1<
1L
0E
1A
1G
0?
0"
1M
0G
0A
1%
1$
1#
0$
0%
#130000
b1101 !
1X
1Q
1"
#140000
b1111 !
b1110 !
0X
1W
0Q
0I
0H
1C
1:
18
1E
0"
1G
1$
#150000
b1111 !
1X
1Q
1"
#160000
b11111 !
b10111 !
b10011 !
b10001 !
b10000 !
0X
0W
0V
0U
1T
0Q
1K
0J
0F
1D
0C
0:
08
07
16
11
0E
1@
1>
0<
09
0L
1L
0G
1E
0M
0"
1M
1G
0$
0#
1#
1$
#170000
b10001 !
1X
1Q
1"
#180000
b10011 !
b10010 !
0X
1W
0Q
0K
1J
1I
1H
1F
0D
1?
01
0L
0E
1A
0"
0M
0G
1%
0#
0$
#190000
b10011 !
1X
1Q
1"
#200000
b10111 !
b10101 !
b10100 !
0X
0W
1V
0Q
1N
0J
0I
0H
0F
1D
0?
0@
19
14
0A
0;
15
0"
0%
0&
1'
#210000
b10101 !
1X
1Q
1"
#220000
b10111 !
b10110 !
0X
1W
0Q
1J
1I
1F
0D
1?
1A
0"
1%
#230000
b10111 !
1X
1Q
1"
#240000
b11111 !
b11011 !
b11001 !
b11000 !
0X
0W
0V
1U
0Q
0J
0I
1H
0F
1D
1B
0?
17
06
11
1@
0>
09
04
1E
0A
05
0"
1G
0%
0'
1$
#250000
b11001 !
1X
1Q
1"
#260000
b11011 !
b11010 !
0X
1W
0Q
0N
1K
0H
0B
1:
18
01
1L
0"
1M
1#
#270000
b11011 !
1X
1Q
1"
#280000
b11111 !
b11101 !
b11100 !
0X
0W
1V
0Q
0K
1J
1I
1H
1B
0:
08
0E
0@
1=
19
14
0L
0G
1?
15
0"
0M
1A
0$
1'
0#
1%
#290000
b11101 !
1X
1Q
1"
#300000
b11111 !
b11110 !
0X
1W
0Q
0I
0H
0B
0?
1:
18
0A
1;
0"
0%
1&
#310000
b11111 !
1X
1Q
1"
#320000
b111111 !
b101111 !
b100111 !
b100011 !
b100001 !
b100000 !
0X
0W
0V
0U
0T
1S
0Q
1H
1F
0D
1C
1?
11
0=
1L
1M
1A
0?
0"
0A
1#
1%
0%
#330000
b100001 !
1X
1Q
1"
#340000
b100011 !
b100010 !
0X
1W
0Q
0J
0H
1B
16
0L
1G
0"
0M
1$
0#
#350000
b100011 !
1X
1Q
1"
#360000
b100111 !
b100101 !
b100100 !
0X
0W
1V
0Q
1N
1K
1J
0B
06
1E
1@
1>
1<
1L
0"
1M
1#
#370000
b100101 !
1X
1Q
1"
#380000
b100111 !
b100110 !
0X
1W
0Q
0K
0J
1B
1?
16
0L
1A
0"
0M
1%
0#
#390000
b100111 !
1X
1Q
1"
#400000
b101111 !
b101011 !
b101001 !
b101000 !
0X
0W
0V
1U
0Q
1K
0C
0B
0?
0:
08
07
0E
0>
0<
1P
05
13
0G
0A
09
0"
0'
1(
0;
0$
0%
0&
#410000
b101001 !
1X
1Q
1"
#420000
b101011 !
b101010 !
0X
1W
0Q
0N
0K
1J
1C
01
1L
0"
1M
1#
#430000
b101011 !
1X
1Q
1"
#440000
b101111 !
b101101 !
b101100 !
0X
0W
1V
0Q
0J
0C
1E
0@
0L
1G
0"
0M
1$
0#
#450000
b101101 !
1X
1Q
1"
#460000
b101111 !
b101110 !
0X
1W
0Q
1K
1J
1C
1L
0"
1M
1#
#470000
b101111 !
1X
1Q
1"
#480000
b111111 !
b110111 !
b110011 !
b110001 !
b110000 !
0X
0W
0V
0U
1T
0Q
0K
1H
0F
1D
0C
1:
18
17
06
11
0E
1>
1=
1<
04
1;
0L
0G
0;
1?
0"
1&
0M
1A
0$
0&
0#
1%
#490000
b110001 !
1X
1Q
1"
#500000
b110011 !
b110010 !
0X
1W
0Q
0J
0H
1F
0D
16
01
1;
0"
1&
#510000
b110011 !
1X
1Q
1"
#520000
b110111 !
b110101 !
b110100 !
0X
0W
1V
0Q
1N
1K
1J
0F
1D
06
1E
0=
19
14
1L
0?
0"
1M
0A
1#
0%
#530000
b110101 !
1X
1Q
1"
#540000
b110111 !
b110110 !
0X
1W
0Q
0K
0J
1F
0D
1?
16
0L
1G
1A
0"
0M
1$
1%
0#
#550000
b110111 !
1X
1Q
1"
#560000
b111111 !
b111011 !
b111001 !
b111000 !
0X
0W
0V
1U
0Q
1K
0F
1D
1B
0?
0:
08
07
11
0E
0<
09
04
15
1L
0A
05
0"
1'
1M
0%
0'
1#
#570000
b111001 !
1X
1Q
1"
#580000
b111011 !
b111010 !
0X
1W
0Q
0N
0K
1J
0B
1?
01
0L
0G
1A
0"
0M
0$
1%
0#
#590000
b111011 !
1X
1Q
1"
#600000
b111111 !
b111101 !
b111100 !
0X
0W
1V
0Q
0J
1B
0?
1E
0>
19
14
0A
0;
15
0"
0%
0&
1'
#610000
b111101 !
1X
1Q
1"
#620000
b111111 !
b111110 !
0X
1W
0Q
1K
1J
0B
1L
0"
1M
1#
#630000
b111111 !
1X
1Q
1"
#640000
b1111111 !
b1011111 !
b1001111 !
b1000111 !
b1000011 !
b1000001 !
b1000000 !
0X
0W
0V
0U
0T
0S
1R
0Q
0J
1B
06
11
09
0P
0L
1;
1G
0M
0;
0"
1&
1$
0#
0&
#650000
b1000001 !
1X
1Q
1"
#660000
b1000011 !
b1000010 !
0X
1W
0Q
0K
1J
1I
1H
0B
1?
17
1M
0"
1#
#670000
b1000011 !
1X
1Q
1"
#680000
b1000111 !
b1000101 !
b1000100 !
0X
0W
1V
0Q
1N
0J
0I
0H
1B
0?
07
0E
1@
19
0M
0G
1A
09
1;
0"
0;
0#
0$
1%
1&
0&
#690000
b1000101 !
1X
1Q
1"
#700000
b1000111 !
b1000110 !
0X
1W
0Q
1J
1I
0B
1?
17
0A
19
0"
1;
0%
1&
#710000
b1000111 !
1X
1Q
1"
#720000
b1001111 !
b1001011 !
b1001001 !
b1001000 !
0X
0W
0V
1U
0Q
0J
0I
1H
0D
1C
0?
1:
18
1E
1=
09
1M
0E
1A
0;
19
1G
0"
0G
1;
1#
1%
0&
1$
0$
1&
#730000
b1001001 !
1X
1Q
1"
#740000
b1001011 !
b1001010 !
0X
1W
0Q
0N
1K
0H
1D
0C
1?
16
01
0M
1E
0A
0"
1G
0#
0%
1$
#750000
b1001011 !
1X
1Q
1"
#760000
b1001111 !
b1001101 !
b1001100 !
0X
0W
1V
0Q
0K
1J
1I
1H
0D
1C
0?
06
0E
0@
0=
1<
1M
1E
0G
0"
1G
1#
0$
1$
#770000
b1001101 !
1X
1Q
1"
#780000
b1001111 !
b1001110 !
0X
1W
0Q
0I
0H
1D
0C
1?
16
0M
0E
1A
0"
0G
0#
1%
0$
#790000
b1001111 !
1X
1Q
1"
#800000
b1011111 !
b1010111 !
b1010011 !
b1010001 !
b1010000 !
0X
0W
0V
0U
1T
0Q
1K
0J
0D
1C
0?
0:
08
07
06
11
1E
1@
1>
0<
09
04
03
1L
12
0E
0;
1G
05
0"
0(
1)
0G
0&
1$
0'
0$
#810000
b1010001 !
1X
1Q
1"
#820000
b1010011 !
b1010010 !
0X
1W
0Q
0K
1J
1I
1H
1?
17
01
1M
0A
0"
1#
0%
#830000
b1010011 !
1X
1Q
1"
#840000
b1010111 !
b1010101 !
b1010100 !
0X
0W
1V
0Q
1N
0J
0I
0H
0?
07
1E
0@
19
0M
1G
0"
0#
1$
#850000
b1010101 !
1X
1Q
1"
#860000
b1010111 !
b1010110 !
0X
1W
0Q
1J
1I
1?
17
1M
0"
1#
#870000
b1010111 !
1X
1Q
1"
#880000
b1011111 !
b1011011 !
b1011001 !
b1011000 !
0X
0W
0V
1U
0Q
0J
0I
1H
0C
0?
1:
18
11
0E
1@
0>
09
0M
1A
0G
0"
0#
1%
0$
#890000
b1011001 !
1X
1Q
1"
#900000
b1011011 !
b1011010 !
0X
1W
0Q
0N
1K
0H
1C
1?
16
01
0A
1;
0"
0%
1&
#910000
b1011011 !
1X
1Q
1"
#920000
b1011111 !
b1011101 !
b1011100 !
0X
0W
1V
0Q
0K
1J
1I
1H
0C
0?
06
1E
0@
1=
19
1M
0E
1G
0"
0G
1#
1$
0$
#930000
b1011101 !
1X
1Q
1"
#940000
b1011111 !
b1011110 !
0X
1W
0Q
0I
0H
1C
1?
16
0M
1E
0"
1G
0#
1$
#950000
b1011111 !
1X
1Q
1"
#960000
b1111111 !
b1101111 !
b1100111 !
b1100011 !
b1100001 !
b1100000 !
0X
0W
0V
0U
0T
1S
0Q
1H
1D
0C
1B
0?
0:
06
11
0E
0=
0L
02
0G
1M
1G
12
0"
0)
0$
1#
1$
1)
#970000
b1100001 !
1X
1Q
1"
#980000
b1100011 !
b1100010 !
0X
1W
0Q
0J
0H
0B
1?
0M
0G
0"
0#
0$
#990000
b1100011 !
1X
1Q
1"
#1000000
b1100111 !
b1100101 !
b1100100 !
0X
0W
1V
0Q
1N
1K
1J
1B
0?
1E
1@
1>
1<
1O
1A
0"
1Q
1*
1%
1"
#1010000
b1100101 !
1X
#1020000
b1100111 !
b1100110 !
0X
1W
0K
0J
0B
1?
#1030000
b1100111 !
1X
#1040000
b1101111 !
b1101011 !
b1101001 !
b1101000 !
0X
0W
0V
1U
1K
0D
1C
0?
07
0E
0>
0<
1P
#1050000
b1101001 !
1X
#1060000
b1101011 !
b1101010 !
0X
1W
0N
0K
1J
1D
0C
1?
08
01
0O
0A
09
02
0Q
0;
0*
0%
0)
0"
0&
#1070000
b1101011 !
1X
#1080000
b1101111 !
b1101101 !
b1101100 !
0X
0W
1V
0J
0D
1C
0?
18
1E
0@
#1090000
b1101101 !
1X
#1100000
b1101111 !
b1101110 !
0X
1W
1K
1J
1D
0C
1?
08
#1110000
b1101111 !
1X
#1120000
b1111111 !
b1110111 !
b1110011 !
b1110001 !
b1110000 !
0X
0W
0V
0U
1T
0K
1H
0D
1C
0?
18
17
11
0E
1>
1=
1<
1L
12
1)
#1130000
b1110001 !
1X
#1140000
b1110011 !
b1110010 !
0X
1W
0J
0H
1?
01
1A
02
1%
0)
#1150000
b1110011 !
1X
#1160000
b1110111 !
b1110101 !
b1110100 !
0X
0W
1V
1N
1K
1J
0?
1E
0=
19
0A
0%
#1170000
b1110101 !
1X
#1180000
b1110111 !
b1110110 !
0X
1W
0K
0J
1?
1A
1%
#1190000
b1110111 !
1X
#1200000
b1111111 !
b1111011 !
b1111001 !
b1111000 !
0X
0W
0V
1U
1K
0C
0?
07
11
0E
0<
09
0A
12
0%
1)
#1210000
b1111001 !
1X
#1220000
b1111011 !
b1111010 !
0X
1W
0N
0K
1J
1C
1?
08
01
02
0)
#1230000
b1111011 !
1X
#1240000
b1111111 !
b1111101 !
b1111100 !
0X
0W
1V
0J
0C
0?
18
1E
0>
19
#1250000
b1111101 !
1X
#1260000
b1111111 !
b1111110 !
0X
1W
1K
1J
1C
1?
08
#1270000
b1111111 !
1X
