simulation/qsim/Placar.msim.vcd
$comment
	File created using the following command:
		vcd file Placar.msim.vcd -direction
$end
$date
	Mon Apr 11 19:49:06 2022
$end
$version
	ModelSim Version 10.5b
$end
$timescale
	1ps
$end

$scope module decod7segs_vhd_vec_tst $end
$var wire 1 ! BCD [3] $end
$var wire 1 " BCD [2] $end
$var wire 1 # BCD [1] $end
$var wire 1 $ BCD [0] $end
$var wire 1 % n7Segs [6] $end
$var wire 1 & n7Segs [5] $end
$var wire 1 ' n7Segs [4] $end
$var wire 1 ( n7Segs [3] $end
$var wire 1 ) n7Segs [2] $end
$var wire 1 * n7Segs [1] $end
$var wire 1 + n7Segs [0] $end

$scope module i1 $end
$var wire 1 , gnd $end
$var wire 1 - vcc $end
$var wire 1 . unknown $end
$var wire 1 / devoe $end
$var wire 1 0 devclrn $end
$var wire 1 1 devpor $end
$var wire 1 2 ww_devoe $end
$var wire 1 3 ww_devclrn $end
$var wire 1 4 ww_devpor $end
$var wire 1 5 ww_BCD [3] $end
$var wire 1 6 ww_BCD [2] $end
$var wire 1 7 ww_BCD [1] $end
$var wire 1 8 ww_BCD [0] $end
$var wire 1 9 ww_n7Segs [6] $end
$var wire 1 : ww_n7Segs [5] $end
$var wire 1 ; ww_n7Segs [4] $end
$var wire 1 < ww_n7Segs [3] $end
$var wire 1 = ww_n7Segs [2] $end
$var wire 1 > ww_n7Segs [1] $end
$var wire 1 ? ww_n7Segs [0] $end
$var wire 1 @ \ors00~combout\ $end
$var wire 1 A \ors01~0_combout\ $end
$var wire 1 B \ors02~0_combout\ $end
$var wire 1 C \ors00~0_combout\ $end
$var wire 1 D \ors04~0_combout\ $end
$var wire 1 E \ors05~combout\ $end
$var wire 1 F \ors06~combout\ $end
$var wire 1 G \BCD~combout\ [3] $end
$var wire 1 H \BCD~combout\ [2] $end
$var wire 1 I \BCD~combout\ [1] $end
$var wire 1 J \BCD~combout\ [0] $end
$var wire 1 K \ALT_INV_ors04~0_combout\ $end
$var wire 1 L \ALT_INV_ors00~0_combout\ $end
$upscope $end
$upscope $end
$enddefinitions $end
#0
$dumpvars
0,
1-
x.
1/
10
11
12
13
14
0@
0A
0B
1C
1D
0E
0F
0K
0L
0!
0"
0#
0$
0%
0&
0'
0(
0)
0*
0+
05
06
07
08
09
0:
0;
0<
0=
0>
0?
0G
0H
0I
0J
$end
#5000
1$
18
1J
1A
1B
1=
1>
1*
1)
#10000
0$
1#
08
17
1I
0J
1@
0B
0C
0D
1F
1K
1L
19
0=
1?
1<
1;
1+
0)
1%
1(
1'
#15000
1$
18
1J
1B
1D
0K
1=
0;
1)
0'
#20000
0$
0#
1"
08
07
16
1H
0I
0J
0@
1C
1E
0L
1:
0?
0<
0+
1&
0(
#25000
1$
18
1J
1@
0A
0C
0D
0E
1K
1L
0:
0>
1?
1<
1;
1+
0*
0&
1(
1'
#30000
0$
1#
08
17
1I
0J
1E
1:
1&
#35000
1$
18
1J
1A
1C
1D
0E
0F
0K
0L
09
0:
1>
0<
0;
1*
0&
0%
0(
0'
#40000
0$
0#
0"
1!
08
07
06
15
1G
0H
0I
0J
0C
0D
1E
1F
1K
1L
19
1:
1<
1;
1&
1%
1(
1'
#45000
1$
18
1J
1D
0K
0;
0'
