simulation/qsim/Placar.msim.vcd
$comment
	File created using the following command:
		vcd file Placar.msim.vcd -direction
$end
$date
	Sun May 01 11:55:58 2022
$end
$version
	ModelSim Version 10.5b
$end
$timescale
	1ps
$end

$scope module conversorBinarioBcd_vlg_vec_tst $end
$var reg 7 ! A [6:0] $end
$var wire 1 " B [7] $end
$var wire 1 # B [6] $end
$var wire 1 $ B [5] $end
$var wire 1 % B [4] $end
$var wire 1 & B [3] $end
$var wire 1 ' B [2] $end
$var wire 1 ( B [1] $end
$var wire 1 ) B [0] $end
$var wire 1 * Passou99 $end

$scope module i1 $end
$var wire 1 + gnd $end
$var wire 1 , vcc $end
$var wire 1 - unknown $end
$var tri1 1 . devclrn $end
$var tri1 1 / devpor $end
$var tri1 1 0 devoe $end
$var wire 1 1 Ram0~0_combout $end
$var wire 1 2 Ram0~1_combout $end
$var wire 1 3 Ram0~2_combout $end
$var wire 1 4 Ram0~4_combout $end
$var wire 1 5 Ram0~3_combout $end
$var wire 1 6 Ram0~5_combout $end
$var wire 1 7 Ram0~6_combout $end
$var wire 1 8 Ram0~8_combout $end
$var wire 1 9 Ram0~9_combout $end
$var wire 1 : Ram0~10_combout $end
$var wire 1 ; Ram0~7_combout $end
$var wire 1 < Ram0~11_combout $end
$var wire 1 = Ram0~12_combout $end
$var wire 1 > Ram0~14_combout $end
$var wire 1 ? Ram0~13_combout $end
$var wire 1 @ Ram0~15_combout $end
$var wire 1 A Ram0~16_combout $end
$var wire 1 B Ram0~17_combout $end
$var wire 1 C Ram0~18_combout $end
$var wire 1 D Ram0~19_combout $end
$var wire 1 E Ram0~20_combout $end
$var wire 1 F Ram0~21_combout $end
$var wire 1 G Ram0~25_combout $end
$var wire 1 H Ram0~26_combout $end
$var wire 1 I Ram0~22_combout $end
$var wire 1 J Ram0~23_combout $end
$var wire 1 K Ram0~24_combout $end
$var wire 1 L A~combout [6] $end
$var wire 1 M A~combout [5] $end
$var wire 1 N A~combout [4] $end
$var wire 1 O A~combout [3] $end
$var wire 1 P A~combout [2] $end
$var wire 1 Q A~combout [1] $end
$var wire 1 R A~combout [0] $end
$upscope $end
$upscope $end
$enddefinitions $end
#0
$dumpvars
b0 !
0)
0(
0'
0&
0%
0$
0#
0"
0*
0+
1,
x-
1.
1/
10
01
02
03
04
15
06
07
08
09
0:
0;
0<
0=
0>
0?
0@
0A
0B
0C
0D
0E
0F
0G
0H
0I
1J
0K
0R
0Q
0P
0O
0N
0M
0L
$end
#10000
b1 !
1R
12
1)
#20000
b11 !
b10 !
0R
1Q
02
1;
05
13
17
0)
1(
#30000
b11 !
1R
12
1)
#40000
b111 !
b101 !
b100 !
0R
0Q
1P
02
1=
19
18
03
1:
07
0)
1<
0(
1'
#50000
b101 !
1R
12
1)
#60000
b111 !
b110 !
0R
1Q
02
1B
1?
0=
0;
14
16
0)
17
1(
#70000
b111 !
1R
12
1)
#80000
b1111 !
b1011 !
b1001 !
b1000 !
0R
0Q
0P
1O
02
1C
0?
1>
09
13
1G
1@
0:
07
0)
1A
0<
0(
1&
0'
#90000
b1001 !
1R
12
1)
#100000
b1011 !
b1010 !
0R
1Q
02
1E
0>
08
04
03
1F
0@
06
17
0)
0A
07
1%
1(
0&
0(
#110000
b1011 !
1R
12
1)
#120000
b1111 !
b1101 !
b1100 !
0R
0Q
1P
02
1;
13
17
0)
1(
#130000
b1101 !
1R
12
1)
#140000
b1111 !
b1110 !
0R
1Q
02
1=
19
18
03
1:
07
0)
1<
0(
1'
#150000
b1111 !
1R
12
1)
#160000
b11111 !
b10111 !
b10011 !
b10001 !
b10000 !
0R
0Q
0P
0O
1N
02
0B
1?
0=
0;
14
0G
1H
16
0H
0)
1$
17
0$
1(
#170000
b10001 !
1R
12
1)
#180000
b10011 !
b10010 !
0R
1Q
02
0C
0?
1>
09
13
1@
0:
07
0)
1A
0<
0(
1&
0'
#190000
b10011 !
1R
12
1)
#200000
b10111 !
b10101 !
b10100 !
0R
0Q
1P
02
0E
0>
08
04
03
1G
0F
0@
06
17
1H
0)
0A
07
0%
1(
1$
0&
0(
#210000
b10101 !
1R
12
1)
#220000
b10111 !
b10110 !
0R
1Q
02
1;
13
17
0)
1(
#230000
b10111 !
1R
12
1)
#240000
b11111 !
b11011 !
b11001 !
b11000 !
0R
0Q
0P
1O
02
1=
19
18
03
1:
07
0)
1<
0(
1'
#250000
b11001 !
1R
12
1)
#260000
b11011 !
b11010 !
0R
1Q
02
1B
1?
0=
0;
14
16
0)
17
1(
#270000
b11011 !
1R
12
1)
#280000
b11111 !
b11101 !
b11100 !
0R
0Q
1P
02
1C
0?
1>
09
13
1@
0:
07
0)
1A
0<
0(
1&
0'
#290000
b11101 !
1R
12
1)
#300000
b11111 !
b11110 !
0R
1Q
02
1E
0>
08
04
03
1F
0@
06
17
0)
0A
07
1%
1(
0&
0(
#310000
b11111 !
1R
12
1)
#320000
b111111 !
b101111 !
b100111 !
b100011 !
b100001 !
b100000 !
0R
0Q
0P
0O
0N
1M
02
0E
0C
0B
15
0F
17
1D
0)
0%
1(
1F
1%
#330000
b100001 !
1R
12
1)
#340000
b100011 !
b100010 !
0R
1Q
02
1;
05
13
1<
07
0)
1'
0(
#350000
b100011 !
1R
12
1)
#360000
b100111 !
b100101 !
b100100 !
0R
0Q
1P
02
1=
19
18
03
11
17
0)
1(
#370000
b100101 !
1R
12
1)
#380000
b100111 !
b100110 !
0R
1Q
02
1B
1?
0=
0;
14
1@
0<
16
0)
1A
07
0'
1&
0(
#390000
b100111 !
1R
12
1)
#400000
b101111 !
b101011 !
b101001 !
b101000 !
0R
0Q
0P
1O
02
1C
0?
1>
09
13
0G
1I
0H
0D
0@
0)
1#
0$
0F
0A
0%
0&
#410000
b101001 !
1R
12
1)
#420000
b101011 !
b101010 !
0R
1Q
02
1E
0>
08
04
03
06
0)
17
1(
#430000
b101011 !
1R
12
1)
#440000
b101111 !
b101101 !
b101100 !
0R
0Q
1P
02
1;
13
1<
07
0)
1'
0(
#450000
b101101 !
1R
12
1)
#460000
b101111 !
b101110 !
0R
1Q
02
1=
19
18
03
17
0)
1(
#470000
b101111 !
1R
12
1)
#480000
b111111 !
b110111 !
b110011 !
b110001 !
b110000 !
0R
0Q
0P
0O
1N
02
0B
1?
0=
0;
14
1@
0<
16
0)
1A
07
0'
1&
0(
#490000
b110001 !
1R
12
1)
#500000
b110011 !
b110010 !
0R
1Q
02
0C
0?
1>
09
13
1D
0@
0)
1F
0A
1%
0&
#510000
b110011 !
1R
12
1)
#520000
b110111 !
b110101 !
b110100 !
0R
0Q
1P
02
0E
0>
08
04
03
06
0)
17
1(
#530000
b110101 !
1R
12
1)
#540000
b110111 !
b110110 !
0R
1Q
02
1;
13
1<
07
0)
1'
0(
#550000
b110111 !
1R
12
1)
#560000
b111111 !
b111011 !
b111001 !
b111000 !
0R
0Q
0P
1O
02
1=
19
18
03
17
0)
1(
#570000
b111001 !
1R
12
1)
#580000
b111011 !
b111010 !
0R
1Q
02
1B
1?
0=
0;
14
1@
0<
16
0)
1A
07
0'
1&
0(
#590000
b111011 !
1R
12
1)
#600000
b111111 !
b111101 !
b111100 !
0R
0Q
1P
02
1C
0?
1>
09
13
1G
0D
0@
1H
0)
0F
0A
1$
0%
0&
#610000
b111101 !
1R
12
1)
#620000
b111111 !
b111110 !
0R
1Q
02
1E
0>
08
04
03
06
0)
17
1(
#630000
b111111 !
1R
12
1)
#640000
b1111111 !
b1011111 !
b1001111 !
b1000111 !
b1000011 !
b1000001 !
b1000000 !
0R
0Q
0P
0O
0N
0M
1L
0E
0C
0B
15
0G
01
0H
1D
1:
07
1K
1F
0D
1<
16
1H
0K
02
0$
0(
1*
0F
1%
1'
1$
0*
0)
0%
#650000
b1000001 !
1R
12
1)
#660000
b1000011 !
b1000010 !
0R
1Q
02
1;
05
13
06
17
0)
1(
#670000
b1000011 !
1R
12
1)
#680000
b1000111 !
b1000101 !
b1000100 !
0R
0Q
1P
02
1=
19
18
03
1A
0:
07
0)
0<
1&
0(
0'
#690000
b1000101 !
1R
12
1)
#700000
b1000111 !
b1000110 !
0R
1Q
02
1B
1?
0=
0;
14
1D
0A
0)
1F
0&
1%
#710000
b1000111 !
1R
12
1)
#720000
b1001111 !
b1001011 !
b1001001 !
b1001000 !
0R
0Q
0P
1O
02
1C
0?
1>
09
13
1G
0H
17
1H
0)
0$
1(
1$
#730000
b1001001 !
1R
12
1)
#740000
b1001011 !
b1001010 !
0R
1Q
02
1E
0>
08
04
03
1:
07
0)
1<
0(
1'
#750000
b1001011 !
1R
12
1)
#760000
b1001111 !
b1001101 !
b1001100 !
0R
0Q
1P
02
1;
13
17
0)
1(
#770000
b1001101 !
1R
12
1)
#780000
b1001111 !
b1001110 !
0R
1Q
02
1=
19
18
03
1A
0:
07
0)
0<
1&
0(
0'
#790000
b1001111 !
1R
12
1)
#800000
b1011111 !
b1010111 !
b1010011 !
b1010001 !
b1010000 !
0R
0Q
0P
0O
1N
02
0B
1?
0=
0;
14
0G
0I
0H
0J
0D
0A
0)
0#
0$
1"
0F
0&
0%
#810000
b1010001 !
1R
12
1)
#820000
b1010011 !
b1010010 !
0R
1Q
02
0C
0?
1>
09
13
17
0)
1(
#830000
b1010011 !
1R
12
1)
#840000
b1010111 !
b1010101 !
b1010100 !
0R
0Q
1P
02
0E
0>
08
04
03
1G
1:
07
0)
1<
0(
1'
#850000
b1010101 !
1R
12
1)
#860000
b1010111 !
b1010110 !
0R
1Q
02
1;
13
17
0)
1(
#870000
b1010111 !
1R
12
1)
#880000
b1011111 !
b1011011 !
b1011001 !
b1011000 !
0R
0Q
0P
1O
02
1=
19
18
03
1A
0:
07
0)
0<
1&
0(
0'
#890000
b1011001 !
1R
12
1)
#900000
b1011011 !
b1011010 !
0R
1Q
02
1B
1?
0=
0;
14
1D
0A
0)
1F
0&
1%
#910000
b1011011 !
1R
12
1)
#920000
b1011111 !
b1011101 !
b1011100 !
0R
0Q
1P
02
1C
0?
1>
09
13
17
0)
1(
#930000
b1011101 !
1R
12
1)
#940000
b1011111 !
b1011110 !
0R
1Q
02
1E
0>
08
04
03
1:
07
0)
1<
0(
1'
#950000
b1011111 !
1R
12
1)
#960000
b1111111 !
b1101111 !
b1100111 !
b1100011 !
b1100001 !
b1100000 !
0R
0Q
0P
0O
0N
1M
02
0E
0C
0B
15
1@
0<
1<
16
0)
0'
17
1'
1(
#970000
b1100001 !
1R
12
1)
#980000
b1100011 !
b1100010 !
0R
1Q
02
1;
05
13
0<
1A
06
0)
07
0'
1&
0(
#990000
b1100011 !
1R
12
1)
#1000000
b1100111 !
b1100101 !
b1100100 !
0R
0Q
1P
02
1=
19
18
03
11
1K
12
0)
1*
1)
#1010000
b1100101 !
1R
#1020000
b1100111 !
b1100110 !
0R
1Q
1B
1?
0=
0;
14
#1030000
b1100111 !
1R
#1040000
b1101111 !
b1101011 !
b1101001 !
b1101000 !
0R
0Q
0P
1O
1C
0?
1>
09
13
0G
1H
0H
1$
0$
#1050000
b1101001 !
1R
#1060000
b1101011 !
b1101010 !
0R
1Q
1E
0>
08
04
03
#1070000
b1101011 !
1R
#1080000
b1101111 !
b1101101 !
b1101100 !
0R
0Q
1P
1;
13
#1090000
b1101101 !
1R
#1100000
b1101111 !
b1101110 !
0R
1Q
1=
19
18
03
#1110000
b1101111 !
1R
#1120000
b1111111 !
b1110111 !
b1110011 !
b1110001 !
b1110000 !
0R
0Q
0P
0O
1N
0B
1?
0=
0;
14
#1130000
b1110001 !
1R
#1140000
b1110011 !
b1110010 !
0R
1Q
0C
0?
1>
09
13
#1150000
b1110011 !
1R
#1160000
b1110111 !
b1110101 !
b1110100 !
0R
0Q
1P
0E
0>
08
04
03
#1170000
b1110101 !
1R
#1180000
b1110111 !
b1110110 !
0R
1Q
1;
13
#1190000
b1110111 !
1R
#1200000
b1111111 !
b1111011 !
b1111001 !
b1111000 !
0R
0Q
0P
1O
1=
19
18
03
#1210000
b1111001 !
1R
#1220000
b1111011 !
b1111010 !
0R
1Q
1B
1?
0=
0;
14
#1230000
b1111011 !
1R
#1240000
b1111111 !
b1111101 !
b1111100 !
0R
0Q
1P
1C
0?
1>
09
13
1G
#1250000
b1111101 !
1R
#1260000
b1111111 !
b1111110 !
0R
1Q
1E
0>
08
04
03
#1270000
b1111111 !
1R
