simulation/qsim/placar.msim.vcd
$comment
	File created using the following command:
		vcd file placar.msim.vcd -direction
$end
$date
	Tue Apr 05 01:14:17 2022
$end
$version
	ModelSim Version 10.5b
$end
$timescale
	1ps
$end

$scope module comparador_vhd_vec_tst $end
$var wire 1 ! N1 [1] $end
$var wire 1 " N1 [0] $end
$var wire 1 # N2 [6] $end
$var wire 1 $ N2 [5] $end
$var wire 1 % N2 [4] $end
$var wire 1 & N2 [3] $end
$var wire 1 ' N2 [2] $end
$var wire 1 ( N2 [1] $end
$var wire 1 ) N2 [0] $end
$var wire 1 * R $end

$scope module i1 $end
$var wire 1 + gnd $end
$var wire 1 , vcc $end
$var wire 1 - unknown $end
$var wire 1 . devoe $end
$var wire 1 / devclrn $end
$var wire 1 0 devpor $end
$var wire 1 1 ww_devoe $end
$var wire 1 2 ww_devclrn $end
$var wire 1 3 ww_devpor $end
$var wire 1 4 ww_N1 [1] $end
$var wire 1 5 ww_N1 [0] $end
$var wire 1 6 ww_N2 [6] $end
$var wire 1 7 ww_N2 [5] $end
$var wire 1 8 ww_N2 [4] $end
$var wire 1 9 ww_N2 [3] $end
$var wire 1 : ww_N2 [2] $end
$var wire 1 ; ww_N2 [1] $end
$var wire 1 < ww_N2 [0] $end
$var wire 1 = ww_R $end
$var wire 1 > \Selector0~1_combout\ $end
$var wire 1 ? \Selector0~0_combout\ $end
$var wire 1 @ \Selector0~2_combout\ $end
$var wire 1 A \N2~combout\ [6] $end
$var wire 1 B \N2~combout\ [5] $end
$var wire 1 C \N2~combout\ [4] $end
$var wire 1 D \N2~combout\ [3] $end
$var wire 1 E \N2~combout\ [2] $end
$var wire 1 F \N2~combout\ [1] $end
$var wire 1 G \N2~combout\ [0] $end
$var wire 1 H \N1~combout\ [1] $end
$var wire 1 I \N1~combout\ [0] $end
$upscope $end
$upscope $end
$enddefinitions $end
#0
$dumpvars
1*
0+
1,
x-
1.
1/
10
11
12
13
1=
0>
1?
1@
0!
0"
0#
0$
0%
0&
0'
1(
0)
04
05
06
07
08
09
0:
1;
0<
0A
0B
0C
0D
0E
1F
0G
0H
0I
$end
#10000
1)
1<
1G
#20000
0)
0(
0<
0;
0F
0G
#30000
1)
1<
1G
#40000
0)
1(
1'
0<
1;
1:
1E
1F
0G
1>
#50000
1)
1<
1G
#60000
0)
0(
0<
0;
0F
0G
#70000
1)
1<
1G
#80000
0)
1(
0'
1&
0<
1;
0:
19
1D
0E
1F
0G
#90000
1)
1<
1G
#100000
0)
0(
0<
0;
0F
0G
#110000
1)
1<
1G
#120000
0)
1(
1'
0<
1;
1:
1E
1F
0G
#130000
1)
1<
1G
#140000
0)
0(
0<
0;
0F
0G
#150000
1)
1<
1G
#160000
0)
1(
0'
0&
1%
0<
1;
0:
09
18
1C
0D
0E
1F
0G
#170000
1)
1<
1G
#180000
0)
0(
0<
0;
0F
0G
#190000
1)
1<
1G
#200000
0)
1(
1'
0<
1;
1:
1E
1F
0G
#210000
1)
1<
1G
#220000
0)
0(
0<
0;
0F
0G
#230000
1)
1<
1G
#240000
0)
1(
0'
1&
0<
1;
0:
19
1D
0E
1F
0G
#250000
1)
1<
1G
#260000
0)
0(
0<
0;
0F
0G
#270000
1)
1<
1G
#280000
0)
1(
1'
0<
1;
1:
1E
1F
0G
#290000
1)
1<
1G
#300000
0)
0(
0<
0;
0F
0G
#310000
1)
1<
1G
#320000
0)
1(
0'
0&
0%
1$
0<
1;
0:
09
08
17
1B
0C
0D
0E
1F
0G
#330000
1)
1<
1G
#340000
0)
0(
0<
0;
0F
0G
#350000
1)
1<
1G
#360000
0)
1(
1'
0<
1;
1:
1E
1F
0G
#370000
1)
1<
1G
#380000
0)
0(
0<
0;
0F
0G
#390000
1)
1<
1G
#400000
0)
1(
0'
1&
0<
1;
0:
19
1D
0E
1F
0G
#410000
1)
1<
1G
#420000
0)
0(
0<
0;
0F
0G
#430000
1)
1<
1G
#440000
0)
1(
1'
0<
1;
1:
1E
1F
0G
#450000
1)
1<
1G
#460000
0)
0(
0<
0;
0F
0G
#470000
1)
1<
1G
#480000
0)
1(
0'
0&
1%
0<
1;
0:
09
18
1C
0D
0E
1F
0G
#490000
1)
1<
1G
#500000
0)
0(
0<
0;
0F
0G
#510000
1)
1<
1G
#520000
0)
1(
1'
0<
1;
1:
1E
1F
0G
#530000
1)
1<
1G
#540000
0)
0(
0<
0;
0F
0G
#550000
1)
1<
1G
#560000
0)
1(
0'
1&
0<
1;
0:
19
1D
0E
1F
0G
#570000
1)
1<
1G
#580000
0)
0(
0<
0;
0F
0G
#590000
1)
1<
1G
#600000
0)
1(
1'
0<
1;
1:
1E
1F
0G
#610000
1)
1<
1G
#620000
0)
0(
0<
0;
0F
0G
#630000
1)
1<
1G
#640000
0)
1(
0'
0&
0%
0$
1#
0<
1;
0:
09
08
07
16
1A
0B
0C
0D
0E
1F
0G
0>
#650000
1)
1<
1G
#660000
0)
0(
0<
0;
0F
0G
#670000
1)
1<
1G
#680000
0)
1(
1'
0<
1;
1:
1E
1F
0G
1>
#690000
1)
1<
1G
#700000
0)
0(
0<
0;
0F
0G
#710000
1)
1<
1G
#720000
0)
1(
0'
1&
0<
1;
0:
19
1D
0E
1F
0G
#730000
1)
1<
1G
#740000
0)
0(
0<
0;
0F
0G
#750000
1)
1<
1G
#760000
0)
1(
1'
0<
1;
1:
1E
1F
0G
#770000
1)
1<
1G
#780000
0)
0(
0<
0;
0F
0G
#790000
1)
1<
1G
#800000
0)
1(
0'
0&
1%
0<
1;
0:
09
18
1C
0D
0E
1F
0G
#810000
1)
1<
1G
#820000
0)
0(
0<
0;
0F
0G
#830000
1)
1<
1G
#840000
0)
1(
1'
0<
1;
1:
1E
1F
0G
#850000
1)
1<
1G
#860000
0)
0(
0<
0;
0F
0G
#870000
1)
1<
1G
#880000
0)
1(
0'
1&
0<
1;
0:
19
1D
0E
1F
0G
#890000
1)
1<
1G
#900000
0)
0(
0<
0;
0F
0G
#910000
1)
1<
1G
#920000
0)
1(
1'
0<
1;
1:
1E
1F
0G
#930000
1)
1<
1G
#940000
0)
0(
0<
0;
0F
0G
#950000
1)
1<
1G
#960000
0)
1(
0'
0&
0%
1$
0<
1;
0:
09
08
17
1B
0C
0D
0E
1F
0G
#970000
1)
1<
1G
#980000
0)
0(
0<
0;
0F
0G
#990000
1)
1<
1G
#1000000
0)
1(
1'
0<
1;
1:
1E
1F
0G
#1010000
1)
1<
1G
#1020000
0)
0(
0<
0;
0F
0G
#1030000
1)
1<
1G
#1040000
0)
1(
0'
1&
0<
1;
0:
19
1D
0E
1F
0G
#1050000
1)
1<
1G
#1060000
0)
0(
0<
0;
0F
0G
#1070000
1)
1<
1G
#1080000
0)
1(
1'
0<
1;
1:
1E
1F
0G
#1090000
1)
1<
1G
#1100000
0)
0(
0<
0;
0F
0G
#1110000
1)
1<
1G
#1120000
0)
1(
0'
0&
1%
0<
1;
0:
09
18
1C
0D
0E
1F
0G
#1130000
1)
1<
1G
#1140000
0)
0(
0<
0;
0F
0G
#1150000
1)
1<
1G
#1160000
0)
1(
1'
0<
1;
1:
1E
1F
0G
#1170000
1)
1<
1G
#1180000
0)
0(
0<
0;
0F
0G
#1190000
1)
1<
1G
#1200000
0)
1(
0'
1&
0<
1;
0:
19
1D
0E
1F
0G
#1210000
1)
1<
1G
#1220000
0)
0(
0<
0;
0F
0G
#1230000
1)
1<
1G
#1240000
0)
1(
1'
0<
1;
1:
1E
1F
0G
#1250000
1)
1<
1G
#1260000
0)
0(
0<
0;
0F
0G
#1270000
1)
1<
1G
#1280000
0)
1(
0'
0&
0%
0$
0#
1"
0<
1;
0:
09
08
07
06
15
1I
0A
0B
0C
0D
0E
1F
0G
0>
#1290000
1)
1<
1G
#1300000
0)
0(
0<
0;
0F
0G
#1310000
1)
1<
1G
#1320000
0)
1(
1'
0<
1;
1:
1E
1F
0G
1>
#1330000
1)
1<
1G
#1340000
0)
0(
0<
0;
0F
0G
#1350000
1)
1<
1G
#1360000
0)
1(
0'
1&
0<
1;
0:
19
1D
0E
1F
0G
#1370000
1)
1<
1G
#1380000
0)
0(
0<
0;
0F
0G
#1390000
1)
1<
1G
#1400000
0)
1(
1'
0<
1;
1:
1E
1F
0G
#1410000
1)
1<
1G
#1420000
0)
0(
0<
0;
0F
0G
#1430000
1)
1<
1G
#1440000
0)
1(
0'
0&
1%
0<
1;
0:
09
18
1C
0D
0E
1F
0G
#1450000
1)
1<
1G
#1460000
0)
0(
0<
0;
0F
0G
#1470000
1)
1<
1G
#1480000
0)
1(
1'
0<
1;
1:
1E
1F
0G
#1490000
1)
1<
1G
#1500000
0)
0(
0<
0;
0F
0G
#1510000
1)
1<
1G
#1520000
0)
1(
0'
1&
0<
1;
0:
19
1D
0E
1F
0G
#1530000
1)
1<
1G
#1540000
0)
0(
0<
0;
0F
0G
#1550000
1)
1<
1G
#1560000
0)
1(
1'
0<
1;
1:
1E
1F
0G
#1570000
1)
1<
1G
#1580000
0)
0(
0<
0;
0F
0G
#1590000
1)
1<
1G
#1600000
0)
1(
0'
0&
0%
1$
0<
1;
0:
09
08
17
1B
0C
0D
0E
1F
0G
#1610000
1)
1<
1G
#1620000
0)
0(
0<
0;
0F
0G
#1630000
1)
1<
1G
#1640000
0)
1(
1'
0<
1;
1:
1E
1F
0G
#1650000
1)
1<
1G
#1660000
0)
0(
0<
0;
0F
0G
#1670000
1)
1<
1G
#1680000
0)
1(
0'
1&
0<
1;
0:
19
1D
0E
1F
0G
#1690000
1)
1<
1G
#1700000
0)
0(
0<
0;
0F
0G
#1710000
1)
1<
1G
#1720000
0)
1(
1'
0<
1;
1:
1E
1F
0G
#1730000
1)
1<
1G
#1740000
0)
0(
0<
0;
0F
0G
#1750000
1)
1<
1G
#1760000
0)
1(
0'
0&
1%
0<
1;
0:
09
18
1C
0D
0E
1F
0G
#1770000
1)
1<
1G
#1780000
0)
0(
0<
0;
0F
0G
#1790000
1)
1<
1G
#1800000
0)
1(
1'
0<
1;
1:
1E
1F
0G
#1810000
1)
1<
1G
#1820000
0)
0(
0<
0;
0F
0G
#1830000
1)
1<
1G
#1840000
0)
1(
0'
1&
0<
1;
0:
19
1D
0E
1F
0G
#1850000
1)
1<
1G
#1860000
0)
0(
0<
0;
0F
0G
#1870000
1)
1<
1G
#1880000
0)
1(
1'
0<
1;
1:
1E
1F
0G
#1890000
1)
1<
1G
#1900000
0)
0(
0<
0;
0F
0G
#1910000
1)
1<
1G
#1920000
0)
1(
0'
0&
0%
0$
1#
0<
1;
0:
09
08
07
16
1A
0B
0C
0D
0E
1F
0G
0>
#1930000
1)
1<
1G
#1940000
0)
0(
0<
0;
0F
0G
#1950000
1)
1<
1G
#1960000
0)
1(
1'
0<
1;
1:
1E
1F
0G
1>
#1970000
1)
1<
1G
#1980000
0)
0(
0<
0;
0F
0G
#1990000
1)
1<
1G
#2000000
0)
1(
0'
1&
0<
1;
0:
19
1D
0E
1F
0G
#2010000
1)
1<
1G
#2020000
0)
0(
0<
0;
0F
0G
#2030000
1)
1<
1G
#2040000
0)
1(
1'
0<
1;
1:
1E
1F
0G
#2050000
1)
1<
1G
#2060000
0)
0(
0<
0;
0F
0G
#2070000
1)
1<
1G
#2080000
0)
1(
0'
0&
1%
0<
1;
0:
09
18
1C
0D
0E
1F
0G
#2090000
1)
1<
1G
#2100000
0)
0(
0<
0;
0F
0G
#2110000
1)
1<
1G
#2120000
0)
1(
1'
0<
1;
1:
1E
1F
0G
#2130000
1)
1<
1G
#2140000
0)
0(
0<
0;
0F
0G
#2150000
1)
1<
1G
#2160000
0)
1(
0'
1&
0<
1;
0:
19
1D
0E
1F
0G
#2170000
1)
1<
1G
#2180000
0)
0(
0<
0;
0F
0G
#2190000
1)
1<
1G
#2200000
0)
1(
1'
0<
1;
1:
1E
1F
0G
#2210000
1)
1<
1G
#2220000
0)
0(
0<
0;
0F
0G
#2230000
1)
1<
1G
#2240000
0)
1(
0'
0&
0%
1$
0<
1;
0:
09
08
17
1B
0C
0D
0E
1F
0G
#2250000
1)
1<
1G
#2260000
0)
0(
0<
0;
0F
0G
#2270000
1)
1<
1G
#2280000
0)
1(
1'
0<
1;
1:
1E
1F
0G
#2290000
1)
1<
1G
#2300000
0)
0(
0<
0;
0F
0G
#2310000
1)
1<
1G
#2320000
0)
1(
0'
1&
0<
1;
0:
19
1D
0E
1F
0G
#2330000
1)
1<
1G
#2340000
0)
0(
0<
0;
0F
0G
#2350000
1)
1<
1G
#2360000
0)
1(
1'
0<
1;
1:
1E
1F
0G
#2370000
1)
1<
1G
#2380000
0)
0(
0<
0;
0F
0G
#2390000
1)
1<
1G
#2400000
0)
1(
0'
0&
1%
0<
1;
0:
09
18
1C
0D
0E
1F
0G
#2410000
1)
1<
1G
#2420000
0)
0(
0<
0;
0F
0G
#2430000
1)
1<
1G
#2440000
0)
1(
1'
0<
1;
1:
1E
1F
0G
#2450000
1)
1<
1G
#2460000
0)
0(
0<
0;
0F
0G
#2470000
1)
1<
1G
#2480000
0)
1(
0'
1&
0<
1;
0:
19
1D
0E
1F
0G
#2490000
1)
1<
1G
#2500000
0)
0(
0<
0;
0F
0G
#2510000
1)
1<
1G
#2520000
0)
1(
1'
0<
1;
1:
1E
1F
0G
#2530000
1)
1<
1G
#2540000
0)
0(
0<
0;
0F
0G
#2550000
1)
1<
1G
#2560000
0)
1(
0'
0&
0%
0$
0#
0"
1!
0<
1;
0:
09
08
07
06
05
14
1H
0I
0A
0B
0C
0D
0E
1F
0G
0>
#2570000
1)
1<
1G
#2580000
0)
0(
0<
0;
0F
0G
#2590000
1)
1<
1G
0?
0@
0=
0*
#2600000
0)
1(
1'
0<
1;
1:
1E
1F
0G
1?
1>
1@
1=
1*
#2610000
1)
1<
1G
#2620000
0)
0(
0<
0;
0F
0G
#2630000
1)
1<
1G
0?
#2640000
0)
1(
0'
1&
0<
1;
0:
19
1D
0E
1F
0G
1?
#2650000
1)
1<
1G
#2660000
0)
0(
0<
0;
0F
0G
#2670000
1)
1<
1G
0?
#2680000
0)
1(
1'
0<
1;
1:
1E
1F
0G
1?
#2690000
1)
1<
1G
#2700000
0)
0(
0<
0;
0F
0G
#2710000
1)
1<
1G
0?
#2720000
0)
1(
0'
0&
1%
0<
1;
0:
09
18
1C
0D
0E
1F
0G
1?
#2730000
1)
1<
1G
#2740000
0)
0(
0<
0;
0F
0G
#2750000
1)
1<
1G
0?
#2760000
0)
1(
1'
0<
1;
1:
1E
1F
0G
1?
#2770000
1)
1<
1G
#2780000
0)
0(
0<
0;
0F
0G
#2790000
1)
1<
1G
0?
#2800000
0)
1(
0'
1&
0<
1;
0:
19
1D
0E
1F
0G
1?
#2810000
1)
1<
1G
#2820000
0)
0(
0<
0;
0F
0G
#2830000
1)
1<
1G
0?
#2840000
0)
1(
1'
0<
1;
1:
1E
1F
0G
1?
#2850000
1)
1<
1G
#2860000
0)
0(
0<
0;
0F
0G
#2870000
1)
1<
1G
0?
#2880000
0)
1(
0'
0&
0%
1$
0<
1;
0:
09
08
17
1B
0C
0D
0E
1F
0G
1?
#2890000
1)
1<
1G
#2900000
0)
0(
0<
0;
0F
0G
#2910000
1)
1<
1G
0?
#2920000
0)
1(
1'
0<
1;
1:
1E
1F
0G
1?
#2930000
1)
1<
1G
#2940000
0)
0(
0<
0;
0F
0G
#2950000
1)
1<
1G
0?
#2960000
0)
1(
0'
1&
0<
1;
0:
19
1D
0E
1F
0G
1?
#2970000
1)
1<
1G
#2980000
0)
0(
0<
0;
0F
0G
#2990000
1)
1<
1G
0?
#3000000
0)
1(
1'
0<
1;
1:
1E
1F
0G
1?
#3010000
1)
1<
1G
#3020000
0)
0(
0<
0;
0F
0G
#3030000
1)
1<
1G
0?
#3040000
0)
1(
0'
0&
1%
0<
1;
0:
09
18
1C
0D
0E
1F
0G
1?
#3050000
1)
1<
1G
#3060000
0)
0(
0<
0;
0F
0G
#3070000
1)
1<
1G
0?
#3080000
0)
1(
1'
0<
1;
1:
1E
1F
0G
1?
#3090000
1)
1<
1G
#3100000
0)
0(
0<
0;
0F
0G
#3110000
1)
1<
1G
0?
#3120000
0)
1(
0'
1&
0<
1;
0:
19
1D
0E
1F
0G
1?
#3130000
1)
1<
1G
#3140000
0)
0(
0<
0;
0F
0G
#3150000
1)
1<
1G
0?
#3160000
0)
1(
1'
0<
1;
1:
1E
1F
0G
1?
#3170000
1)
1<
1G
#3180000
0)
0(
0<
0;
0F
0G
#3190000
1)
1<
1G
0?
#3200000
0)
1(
0'
0&
0%
0$
1#
0<
1;
0:
09
08
07
16
1A
0B
0C
0D
0E
1F
0G
1?
0>
#3210000
1)
1<
1G
#3220000
0)
0(
0<
0;
0F
0G
#3230000
1)
1<
1G
0?
#3240000
0)
1(
1'
0<
1;
1:
1E
1F
0G
1?
1>
#3250000
1)
1<
1G
#3260000
0)
0(
0<
0;
0F
0G
#3270000
1)
1<
1G
0?
#3280000
0)
1(
0'
1&
0<
1;
0:
19
1D
0E
1F
0G
1?
#3290000
1)
1<
1G
#3300000
0)
0(
0<
0;
0F
0G
#3310000
1)
1<
1G
0?
#3320000
0)
1(
1'
0<
1;
1:
1E
1F
0G
1?
#3330000
1)
1<
1G
#3340000
0)
0(
0<
0;
0F
0G
#3350000
1)
1<
1G
0?
#3360000
0)
1(
0'
0&
1%
0<
1;
0:
09
18
1C
0D
0E
1F
0G
1?
#3370000
1)
1<
1G
#3380000
0)
0(
0<
0;
0F
0G
#3390000
1)
1<
1G
0?
#3400000
0)
1(
1'
0<
1;
1:
1E
1F
0G
1?
#3410000
1)
1<
1G
#3420000
0)
0(
0<
0;
0F
0G
#3430000
1)
1<
1G
0?
#3440000
0)
1(
0'
1&
0<
1;
0:
19
1D
0E
1F
0G
1?
#3450000
1)
1<
1G
#3460000
0)
0(
0<
0;
0F
0G
#3470000
1)
1<
1G
0?
#3480000
0)
1(
1'
0<
1;
1:
1E
1F
0G
1?
#3490000
1)
1<
1G
#3500000
0)
0(
0<
0;
0F
0G
#3510000
1)
1<
1G
0?
#3520000
0)
1(
0'
0&
0%
1$
0<
1;
0:
09
08
17
1B
0C
0D
0E
1F
0G
1?
#3530000
1)
1<
1G
#3540000
0)
0(
0<
0;
0F
0G
#3550000
1)
1<
1G
0?
#3560000
0)
1(
1'
0<
1;
1:
1E
1F
0G
1?
#3570000
1)
1<
1G
#3580000
0)
0(
0<
0;
0F
0G
#3590000
1)
1<
1G
0?
#3600000
0)
1(
0'
1&
0<
1;
0:
19
1D
0E
1F
0G
1?
#3610000
1)
1<
1G
#3620000
0)
0(
0<
0;
0F
0G
#3630000
1)
1<
1G
0?
#3640000
0)
1(
1'
0<
1;
1:
1E
1F
0G
1?
#3650000
1)
1<
1G
#3660000
0)
0(
0<
0;
0F
0G
#3670000
1)
1<
1G
0?
#3680000
0)
1(
0'
0&
1%
0<
1;
0:
09
18
1C
0D
0E
1F
0G
1?
#3690000
1)
1<
1G
#3700000
0)
0(
0<
0;
0F
0G
#3710000
1)
1<
1G
0?
#3720000
0)
1(
1'
0<
1;
1:
1E
1F
0G
1?
#3730000
1)
1<
1G
#3740000
0)
0(
0<
0;
0F
0G
#3750000
1)
1<
1G
0?
#3760000
0)
1(
0'
1&
0<
1;
0:
19
1D
0E
1F
0G
1?
#3770000
1)
1<
1G
#3780000
0)
0(
0<
0;
0F
0G
#3790000
1)
1<
1G
0?
#3800000
0)
1(
1'
0<
1;
1:
1E
1F
0G
1?
#3810000
1)
1<
1G
#3820000
0)
0(
0<
0;
0F
0G
#3830000
1)
1<
1G
0?
#3840000
0)
1(
0'
0&
0%
0$
0#
1"
0<
1;
0:
09
08
07
06
15
1I
0A
0B
0C
0D
0E
1F
0G
0>
0@
0=
0*
#3850000
1)
1<
1G
1?
1@
1=
1*
#3860000
0)
0(
0<
0;
0F
0G
#3870000
1)
1<
1G
0?
0@
0=
0*
#3880000
0)
1(
1'
0<
1;
1:
1E
1F
0G
1>
1@
1=
1*
#3890000
1)
1<
1G
1?
#3900000
0)
0(
0<
0;
0F
0G
#3910000
1)
1<
1G
0?
#3920000
0)
1(
0'
1&
0<
1;
0:
19
1D
0E
1F
0G
#3930000
1)
1<
1G
1?
#3940000
0)
0(
0<
0;
0F
0G
#3950000
1)
1<
1G
0?
#3960000
0)
1(
1'
0<
1;
1:
1E
1F
0G
#3970000
1)
1<
1G
1?
#3980000
0)
0(
0<
0;
0F
0G
#3990000
1)
1<
1G
0?
#4000000
0)
1(
0'
0&
1%
0<
1;
0:
09
18
1C
0D
0E
1F
0G
#4010000
1)
1<
1G
1?
#4020000
0)
0(
0<
0;
0F
0G
#4030000
1)
1<
1G
0?
#4040000
0)
1(
1'
0<
1;
1:
1E
1F
0G
#4050000
1)
1<
1G
1?
#4060000
0)
0(
0<
0;
0F
0G
#4070000
1)
1<
1G
0?
#4080000
0)
1(
0'
1&
0<
1;
0:
19
1D
0E
1F
0G
#4090000
1)
1<
1G
1?
#4100000
0)
0(
0<
0;
0F
0G
#4110000
1)
1<
1G
0?
#4120000
0)
1(
1'
0<
1;
1:
1E
1F
0G
#4130000
1)
1<
1G
1?
#4140000
0)
0(
0<
0;
0F
0G
#4150000
1)
1<
1G
0?
#4160000
0)
1(
0'
0&
0%
1$
0<
1;
0:
09
08
17
1B
0C
0D
0E
1F
0G
#4170000
1)
1<
1G
1?
#4180000
0)
0(
0<
0;
0F
0G
#4190000
1)
1<
1G
0?
#4200000
0)
1(
1'
0<
1;
1:
1E
1F
0G
#4210000
1)
1<
1G
1?
#4220000
0)
0(
0<
0;
0F
0G
#4230000
1)
1<
1G
0?
#4240000
0)
1(
0'
1&
0<
1;
0:
19
1D
0E
1F
0G
#4250000
1)
1<
1G
1?
#4260000
0)
0(
0<
0;
0F
0G
#4270000
1)
1<
1G
0?
#4280000
0)
1(
1'
0<
1;
1:
1E
1F
0G
#4290000
1)
1<
1G
1?
#4300000
0)
0(
0<
0;
0F
0G
#4310000
1)
1<
1G
0?
#4320000
0)
1(
0'
0&
1%
0<
1;
0:
09
18
1C
0D
0E
1F
0G
#4330000
1)
1<
1G
1?
#4340000
0)
0(
0<
0;
0F
0G
#4350000
1)
1<
1G
0?
#4360000
0)
1(
1'
0<
1;
1:
1E
1F
0G
#4370000
1)
1<
1G
1?
#4380000
0)
0(
0<
0;
0F
0G
#4390000
1)
1<
1G
0?
#4400000
0)
1(
0'
1&
0<
1;
0:
19
1D
0E
1F
0G
#4410000
1)
1<
1G
1?
#4420000
0)
0(
0<
0;
0F
0G
#4430000
1)
1<
1G
0?
#4440000
0)
1(
1'
0<
1;
1:
1E
1F
0G
#4450000
1)
1<
1G
1?
#4460000
0)
0(
0<
0;
0F
0G
#4470000
1)
1<
1G
0?
#4480000
0)
1(
0'
0&
0%
0$
1#
0<
1;
0:
09
08
07
16
1A
0B
0C
0D
0E
1F
0G
0>
#4490000
1)
1<
1G
1?
#4500000
0)
0(
0<
0;
0F
0G
#4510000
1)
1<
1G
0?
#4520000
0)
1(
1'
0<
1;
1:
1E
1F
0G
1>
#4530000
1)
1<
1G
1?
#4540000
0)
0(
0<
0;
0F
0G
#4550000
1)
1<
1G
0?
#4560000
0)
1(
0'
1&
0<
1;
0:
19
1D
0E
1F
0G
#4570000
1)
1<
1G
1?
#4580000
0)
0(
0<
0;
0F
0G
#4590000
1)
1<
1G
0?
#4600000
0)
1(
1'
0<
1;
1:
1E
1F
0G
#4610000
1)
1<
1G
1?
#4620000
0)
0(
0<
0;
0F
0G
#4630000
1)
1<
1G
0?
#4640000
0)
1(
0'
0&
1%
0<
1;
0:
09
18
1C
0D
0E
1F
0G
#4650000
1)
1<
1G
1?
#4660000
0)
0(
0<
0;
0F
0G
#4670000
1)
1<
1G
0?
#4680000
0)
1(
1'
0<
1;
1:
1E
1F
0G
#4690000
1)
1<
1G
1?
#4700000
0)
0(
0<
0;
0F
0G
#4710000
1)
1<
1G
0?
#4720000
0)
1(
0'
1&
0<
1;
0:
19
1D
0E
1F
0G
#4730000
1)
1<
1G
1?
#4740000
0)
0(
0<
0;
0F
0G
#4750000
1)
1<
1G
0?
#4760000
0)
1(
1'
0<
1;
1:
1E
1F
0G
#4770000
1)
1<
1G
1?
#4780000
0)
0(
0<
0;
0F
0G
#4790000
1)
1<
1G
0?
#4800000
0)
1(
0'
0&
0%
1$
0<
1;
0:
09
08
17
1B
0C
0D
0E
1F
0G
#4810000
1)
1<
1G
1?
#4820000
0)
0(
0<
0;
0F
0G
#4830000
1)
1<
1G
0?
#4840000
0)
1(
1'
0<
1;
1:
1E
1F
0G
#4850000
1)
1<
1G
1?
#4860000
0)
0(
0<
0;
0F
0G
#4870000
1)
1<
1G
0?
#4880000
0)
1(
0'
1&
0<
1;
0:
19
1D
0E
1F
0G
#4890000
1)
1<
1G
1?
#4900000
0)
0(
0<
0;
0F
0G
#4910000
1)
1<
1G
0?
#4920000
0)
1(
1'
0<
1;
1:
1E
1F
0G
#4930000
1)
1<
1G
1?
#4940000
0)
0(
0<
0;
0F
0G
#4950000
1)
1<
1G
0?
#4960000
0)
1(
0'
0&
1%
0<
1;
0:
09
18
1C
0D
0E
1F
0G
#4970000
1)
1<
1G
1?
#4980000
0)
0(
0<
0;
0F
0G
#4990000
1)
1<
1G
0?
#5000000
0)
1(
1'
0<
1;
1:
1E
1F
0G
#5010000
1)
1<
1G
1?
#5020000
0)
0(
0<
0;
0F
0G
#5030000
1)
1<
1G
0?
#5040000
0)
1(
0'
1&
0<
1;
0:
19
1D
0E
1F
0G
#5050000
1)
1<
1G
1?
#5060000
0)
0(
0<
0;
0F
0G
#5070000
1)
1<
1G
0?
#5080000
0)
1(
1'
0<
1;
1:
1E
1F
0G
#5090000
1)
1<
1G
1?
#5100000
0)
0(
0<
0;
0F
0G
#5110000
1)
1<
1G
0?
